adders16/xnor_based_ripple_carry_adder16/msim/postsynth/xnor_based_ripple_carry_adder16_gatesim.vcd
$date
	Wed Aug 19 10:59:00 2020
$end
$version
	ModelSim Version 6.6d
$end
$timescale
	1ns
$end
$scope module xnor_based_ripple_carry_adder16_tb $end
$var reg 16 ! add1_i [15:0] $end
$var reg 16 " add2_i [15:0] $end
$var wire 1 # result_o [16] $end
$var wire 1 $ result_o [15] $end
$var wire 1 % result_o [14] $end
$var wire 1 & result_o [13] $end
$var wire 1 ' result_o [12] $end
$var wire 1 ( result_o [11] $end
$var wire 1 ) result_o [10] $end
$var wire 1 * result_o [9] $end
$var wire 1 + result_o [8] $end
$var wire 1 , result_o [7] $end
$var wire 1 - result_o [6] $end
$var wire 1 . result_o [5] $end
$var wire 1 / result_o [4] $end
$var wire 1 0 result_o [3] $end
$var wire 1 1 result_o [2] $end
$var wire 1 2 result_o [1] $end
$var wire 1 3 result_o [0] $end
$scope module xrca $end
$var wire 1 4 add1_i [15] $end
$var wire 1 5 add1_i [14] $end
$var wire 1 6 add1_i [13] $end
$var wire 1 7 add1_i [12] $end
$var wire 1 8 add1_i [11] $end
$var wire 1 9 add1_i [10] $end
$var wire 1 : add1_i [9] $end
$var wire 1 ; add1_i [8] $end
$var wire 1 < add1_i [7] $end
$var wire 1 = add1_i [6] $end
$var wire 1 > add1_i [5] $end
$var wire 1 ? add1_i [4] $end
$var wire 1 @ add1_i [3] $end
$var wire 1 A add1_i [2] $end
$var wire 1 B add1_i [1] $end
$var wire 1 C add1_i [0] $end
$var wire 1 D add2_i [15] $end
$var wire 1 E add2_i [14] $end
$var wire 1 F add2_i [13] $end
$var wire 1 G add2_i [12] $end
$var wire 1 H add2_i [11] $end
$var wire 1 I add2_i [10] $end
$var wire 1 J add2_i [9] $end
$var wire 1 K add2_i [8] $end
$var wire 1 L add2_i [7] $end
$var wire 1 M add2_i [6] $end
$var wire 1 N add2_i [5] $end
$var wire 1 O add2_i [4] $end
$var wire 1 P add2_i [3] $end
$var wire 1 Q add2_i [2] $end
$var wire 1 R add2_i [1] $end
$var wire 1 S add2_i [0] $end
$var wire 1 # result_o [16] $end
$var wire 1 $ result_o [15] $end
$var wire 1 % result_o [14] $end
$var wire 1 & result_o [13] $end
$var wire 1 ' result_o [12] $end
$var wire 1 ( result_o [11] $end
$var wire 1 ) result_o [10] $end
$var wire 1 * result_o [9] $end
$var wire 1 + result_o [8] $end
$var wire 1 , result_o [7] $end
$var wire 1 - result_o [6] $end
$var wire 1 . result_o [5] $end
$var wire 1 / result_o [4] $end
$var wire 1 0 result_o [3] $end
$var wire 1 1 result_o [2] $end
$var wire 1 2 result_o [1] $end
$var wire 1 3 result_o [0] $end
$var wire 1 T n47 $end
$var wire 1 U n48 $end
$var wire 1 V n49 $end
$var wire 1 W n50 $end
$var wire 1 X n51 $end
$var wire 1 Y n52 $end
$var wire 1 Z n53 $end
$var wire 1 [ n54 $end
$var wire 1 \ n55 $end
$var wire 1 ] n56 $end
$var wire 1 ^ n57 $end
$var wire 1 _ n58 $end
$var wire 1 ` n59 $end
$var wire 1 a n60 $end
$var wire 1 b n61 $end
$var wire 1 c n62 $end
$var wire 1 d n63 $end
$var wire 1 e n64 $end
$var wire 1 f n65 $end
$var wire 1 g n66 $end
$var wire 1 h n67 $end
$var wire 1 i n68 $end
$var wire 1 j n69 $end
$var wire 1 k n70 $end
$var wire 1 l n71 $end
$var wire 1 m n72 $end
$var wire 1 n n73 $end
$var wire 1 o n74 $end
$var wire 1 p n75 $end
$var wire 1 q n76 $end
$var wire 1 r n77 $end
$var wire 1 s n78 $end
$var wire 1 t n79 $end
$var wire 1 u n80 $end
$var wire 1 v n81 $end
$var wire 1 w n82 $end
$var wire 1 x n83 $end
$var wire 1 y n84 $end
$var wire 1 z n85 $end
$var wire 1 { n86 $end
$var wire 1 | n87 $end
$var wire 1 } n88 $end
$var wire 1 ~ n89 $end
$var wire 1 !! n90 $end
$var wire 1 "! n91 $end
$var wire 1 #! n92 $end
$var wire 1 $! n93 $end
$var wire 1 %! n94 $end
$var wire 1 &! n95 $end
$var wire 1 '! n96 $end
$var wire 1 (! n97 $end
$var wire 1 )! n98 $end
$var wire 1 *! n99 $end
$var wire 1 +! n100 $end
$var wire 1 ,! n101 $end
$var wire 1 -! n102 $end
$var wire 1 .! n103 $end
$var wire 1 /! n104 $end
$var wire 1 0! n105 $end
$var wire 1 1! n106 $end
$var wire 1 2! n107 $end
$var wire 1 3! n108 $end
$var wire 1 4! n109 $end
$var wire 1 5! n110 $end
$upscope $end
$upscope $end
$enddefinitions $end
#0
$dumpvars
b0 !
b0 "
13
02
01
00
0/
0.
0-
0,
0+
0*
0)
0(
0'
0&
0%
0$
0#
1T
1U
0V
0W
0X
0Y
0Z
0[
0\
0]
0^
0_
0`
0a
1b
0c
1d
1e
0f
0g
1h
1i
0j
0k
1l
1m
0n
0o
1p
1q
0r
0s
1t
1u
0v
0w
1x
1y
0z
0{
1|
1}
0~
1!!
1"!
0#!
1$!
1%!
0&!
1'!
1(!
0)!
1*!
1+!
0,!
1-!
1.!
0/!
10!
11!
12!
13!
14!
15!
0S
0R
0Q
0P
0O
0N
0M
0L
0K
0J
0I
0H
0G
0F
0E
0D
0C
0B
0A
0@
0?
0>
0=
0<
0;
0:
09
08
07
06
05
04
$end
#10
b10100110101111 !
b111101000011011 "
1S
1R
1P
1O
1J
1H
1G
1F
1E
1C
1B
1A
1@
1>
1<
1;
18
16
1n
1v
1Y
1Z
1\
00!
1`
04!
0b
1%
1&
1'
1(
1*
1/
12
1V
1a
1/!
1.
1,
1+
0(
0u
0&
0m
1k
1s
1]
0U
03!
1_
0/
0.!
1r
1j
0%
0i
0'
0q
1,!
0T
10
0\
0*!
1o
1g
1f
0n
0l
1)!
0.
1[
1&
1m
1$
1-
#20
b1000100000000 !
b1000100010001 "
0R
0P
1K
0J
0H
0F
0E
0C
0B
0A
0@
0>
0<
08
17
06
03
1n
1l
0r
0p
0v
0Z
1\
1*!
0`
1b
1%
1i
0&
1(
1u
0*
0+
0"!
10!
14!
0a
0/!
1~
0s
0g
02
0V
11
13!
0)!
1.
0,
0(
1'
1q
0k
1&
1W
0b
0j
0[
0_
0f
1r
1p
1X
0]
1U
01
1/
1.!
1*
0o
0'
0q
0$
1T
0-
0%
12
1V
00
1o
0n
0,!
0\
0&
1n
1&
0.
#30
b1000000100010110 !
b1110011001110 "
0S
1R
1Q
1P
0O
1M
1L
0K
1I
1H
1B
1A
1?
07
14
13
1f
0r
1]
02!
04!
1(
1)
1+
1"!
1,
1-
0/
1^
0~
1a
1_
1/
1'
1q
1$
0W
1b
0o
0T
01!
0U
0X
0*
11
1/!
0n
02
0V
0&
0]
0-!
1,!
0/
1\
1.
#35
b100010010000010 !
b11101111001101 "
1S
0R
1K
1J
0I
1F
0A
0?
1<
0;
19
15
04
03
0f
1j
1z
0Y
1Z
1]
1-!
1`
12!
1&
0)
1*
0+
0"!
1c
14!
0a
1~
0_
01
03!
0,!
1/
0,
0%!
1+
1"!
1)
1%
0$
1W
0b
0~
1#!
0\
1_
1T
11!
1X
1U
13!
0_
0*
0}
0/!
0T
01!
0.
1Y
0X
1V
05!
1*
1}
0+
0"!
1/!
0]
1{
1T
11!
0/!
0z
0x
0/
1]
1~
0{
1a
0U
03!
1z
1x
1X
1/
1w
0)
0]
0/
1v
0*
0}
0w
1)
1_
0T
01!
0v
1{
0(
0u
1s
0z
0x
1(
1u
1/!
1]
0s
1w
0)
1r
0'
0q
1v
0r
1/
1'
1q
0(
0u
1o
1n
1s
0o
0n
1r
0&
0m
1k
0'
0q
1&
1m
0k
1o
0j
0h
1g
0%
1n
1j
1h
0g
1%
0&
0m
1f
1$
1k
0f
0$
0j
0h
1g
0%
1f
1$
#43
b1000100101000011 !
b1111111111111111 "
1R
1O
1N
1I
1E
1D
1C
1=
0<
1;
09
18
05
14
13
0f
0d
1j
1h
0v
0t
1z
1x
0Y
0!!
0Z
1[
0$
0e
1%
1)
1.
0/
0.!
0c
04!
12
15!
1,!
0-
0(!
1,
1%!
1+
1"!
0w
0)
0y
1(
1u
0g
0%
0i
1#
1$
1e
0W
1g
1f
1d
1w
1v
1t
0#!
1&!
1\
0.
0+!
1Z
1Y
1!!
0s
0(
0u
0v
0t
0#
0$
0e
0f
0d
1$
1e
1#
1(
1u
1s
0r
0~
0+
0"!
0,
0%!
1)!
0[
0'!
1#!
1~
0X
1'
1q
1r
0'
0q
0o
1*
1}
1X
0Y
0!!
1-
1(!
1+
1"!
0*
0}
0{
0n
1o
1n
1&
1m
0z
1{
1z
1)
1y
0k
0&
0m
1k
0j
0w
0)
0y
1w
1v
1t
1%
1i
1j
0%
0i
0g
0s
0(
0u
0v
0t
1(
1u
1s
0r
1f
1d
1g
0f
0d
0#
0$
0e
1'
1q
1r
0'
0q
0o
1#
1$
1e
0n
1o
1n
1&
1m
0k
0&
0m
1k
0j
1%
1i
1j
0%
0i
0g
1f
1d
1g
0f
0d
0#
0$
0e
1#
1$
1e
#53
b1010101111001101 !
b0 "
0S
0R
0Q
0P
0O
0N
0M
0L
0K
0J
0I
0H
0G
0F
0E
0D
0B
1A
1@
1<
1:
16
03
0n
0l
0X
0|
0Z
0$!
0$
1%
1i
1&
1m
1'
1q
0(
1)
1y
1*
1}
0+
1,
1%!
0-
1.
1+!
1/
1.!
14!
0a
0,!
0)!
0w
0o
0g
0,
0*
0&
1W
1f
1d
1n
1l
1v
1t
1[
1'!
0\
1U
13!
0_
0.
0&!
1-
0s
1(
0k
1&
0#
1$
0j
0r
1Z
1$!
1T
11!
0/!
0#!
1,
0'
0%
1Y
1!!
0]
0/
0~
1+
1X
1|
0{
1*
0z
0)
#63
b0 !
b1001000110100 "
1Q
1O
1N
1J
1G
0C
0A
0@
0=
0<
0;
0:
08
06
04
13
0f
0n
0v
0X
0Y
0Z
0[
0^
1'
0*
0}
1.
1/
1{
0-
0,
0+
1*
1}
0(
0&
0$
0W
1b
0{
1z
1)
0z
02
0V
0)
#73
b1000100010001 !
b1110111010101010 "
1R
0Q
1P
0O
1L
1I
1H
0G
1F
1E
1D
1C
1?
1;
17
03
1r
1Y
1]
0b
1$
1%
1&
0'
1(
1)
1,
0/
1^
0`
1c
1V
1/
1+
1'
1W
05!
1a
0U
11
#83
b101010101010101 !
b1010101010101010 "
0I
0E
1A
1=
19
15
1j
1z
1[
1`
0%
0)
01
03!
1-
1)
1%
1_
0T
01!
1/!
0]
0-!
1,!
0/
1\
0.
0+!
1)!
0[
0'!
1&!
0-
1Z
0,
0%!
1#!
0Y
0!!
1~
0+
1X
0*
0}
1{
0z
0x
1w
0)
1v
0(
0u
1s
0r
0p
1o
0'
1n
0&
0m
1k
0j
0h
1g
0%
1f
0$
0e
1#
#93
b1000000001010001 !
b1000000010000110 "
1Q
0P
0N
0J
0H
0F
0A
0;
09
07
05
14
0f
0d
1j
1h
1r
1p
1z
1x
1Y
1!!
1&
1m
1(
1u
1*
1}
1.
1+!
0^
10
11!
0)!
0{
0s
0k
0~
1+
0w
1)
0o
1'
0g
1%
1$
1e
1f
1d
0n
0v
0X
0j
0r
0z
1[
1'!
0/!
1]
1-!
0&!
1-
0)
0'
0%
0*
0(
0&
0#
0$
0e
1#
0Z
0,!
1/
0\
1,
1%!
0#!
0.
0Y
0+
#98
b1111101011011100 !
b11011100 "
0R
1P
1O
1M
0D
0C
1A
1@
1<
1:
18
17
16
15
13
1j
1n
1r
1v
1X
1Z
00!
0`
02!
1$
1e
0-
0(!
0/
0.!
0c
12
15!
1,!
1&!
0#
11
13!
1/!
0,
0%!
1*
1(
1'
1&
1%
0W
1b
1#!
0]
0-!
0Z
0$!
1\
0a
1U
1.
1,
1%!
1/
1.!
1Y
02
0V
1+
01
#106
b100000010010110 !
b10000001001000 "
0Q
0O
0L
1F
1B
0@
0=
0:
08
07
06
04
0f
0n
0r
0v
0X
0[
1^
10!
1c
0&
0m
0,
0/
1`
12!
0_
1k
0/!
00
01!
1-
1(!
0*
0(
0'
1&
1m
0$
0k
0&!
1/!
1]
1-!
0j
0h
1T
11!
0/!
1g
0%
0,!
1/
0]
0-!
1Z
1$!
1j
1h
0g
1%
0#!
1,
1,!
0/
0\
1f
1]
1-!
0,!
1/
1$
0.
1\
0Y
0f
0$
0+
1.
0\
0.
#116
b1000000100100 !
b1000000110010010 "
1R
0P
1O
0M
1L
1K
0F
1D
0B
0?
1>
0<
17
05
0j
1r
0Z
1\
0]
1$
0&
1+
0,
0%!
0-
0/
0.!
0^
1,!
1#!
1/
1.!
1.
1,
1%!
1'
0%
0#!
0,!
1Y
0\
0*!
1)!
0.
0+
0"!
1\
1*!
0Y
1+
1"!
0)!
1.
1~
1[
1-
1X
0[
0~
0X
0-
1*
0*
#216
b0 !
b1 "
1S
0R
0O
0L
0K
0D
0A
0>
07
03
0r
0\
0`
0$
0+
0,
0/
0c
0.
0'
1W
0b
12
1V
