adders32/ripple_carry_adder32/snps/primetime/ripple_carry_adder32_gatesim.vcd
$date
	Sun Aug 30 19:33:40 2020
$end
$version
	ModelSim Version 6.6d
$end
$timescale
	1ns
$end
$scope module ripple_carry_adder32_tb $end
$var reg 32 ! add1_i [31:0] $end
$var reg 32 " add2_i [31:0] $end
$var wire 1 # result_o [32] $end
$var wire 1 $ result_o [31] $end
$var wire 1 % result_o [30] $end
$var wire 1 & result_o [29] $end
$var wire 1 ' result_o [28] $end
$var wire 1 ( result_o [27] $end
$var wire 1 ) result_o [26] $end
$var wire 1 * result_o [25] $end
$var wire 1 + result_o [24] $end
$var wire 1 , result_o [23] $end
$var wire 1 - result_o [22] $end
$var wire 1 . result_o [21] $end
$var wire 1 / result_o [20] $end
$var wire 1 0 result_o [19] $end
$var wire 1 1 result_o [18] $end
$var wire 1 2 result_o [17] $end
$var wire 1 3 result_o [16] $end
$var wire 1 4 result_o [15] $end
$var wire 1 5 result_o [14] $end
$var wire 1 6 result_o [13] $end
$var wire 1 7 result_o [12] $end
$var wire 1 8 result_o [11] $end
$var wire 1 9 result_o [10] $end
$var wire 1 : result_o [9] $end
$var wire 1 ; result_o [8] $end
$var wire 1 < result_o [7] $end
$var wire 1 = result_o [6] $end
$var wire 1 > result_o [5] $end
$var wire 1 ? result_o [4] $end
$var wire 1 @ result_o [3] $end
$var wire 1 A result_o [2] $end
$var wire 1 B result_o [1] $end
$var wire 1 C result_o [0] $end
$scope module rca $end
$var wire 1 D add1_i [31] $end
$var wire 1 E add1_i [30] $end
$var wire 1 F add1_i [29] $end
$var wire 1 G add1_i [28] $end
$var wire 1 H add1_i [27] $end
$var wire 1 I add1_i [26] $end
$var wire 1 J add1_i [25] $end
$var wire 1 K add1_i [24] $end
$var wire 1 L add1_i [23] $end
$var wire 1 M add1_i [22] $end
$var wire 1 N add1_i [21] $end
$var wire 1 O add1_i [20] $end
$var wire 1 P add1_i [19] $end
$var wire 1 Q add1_i [18] $end
$var wire 1 R add1_i [17] $end
$var wire 1 S add1_i [16] $end
$var wire 1 T add1_i [15] $end
$var wire 1 U add1_i [14] $end
$var wire 1 V add1_i [13] $end
$var wire 1 W add1_i [12] $end
$var wire 1 X add1_i [11] $end
$var wire 1 Y add1_i [10] $end
$var wire 1 Z add1_i [9] $end
$var wire 1 [ add1_i [8] $end
$var wire 1 \ add1_i [7] $end
$var wire 1 ] add1_i [6] $end
$var wire 1 ^ add1_i [5] $end
$var wire 1 _ add1_i [4] $end
$var wire 1 ` add1_i [3] $end
$var wire 1 a add1_i [2] $end
$var wire 1 b add1_i [1] $end
$var wire 1 c add1_i [0] $end
$var wire 1 d add2_i [31] $end
$var wire 1 e add2_i [30] $end
$var wire 1 f add2_i [29] $end
$var wire 1 g add2_i [28] $end
$var wire 1 h add2_i [27] $end
$var wire 1 i add2_i [26] $end
$var wire 1 j add2_i [25] $end
$var wire 1 k add2_i [24] $end
$var wire 1 l add2_i [23] $end
$var wire 1 m add2_i [22] $end
$var wire 1 n add2_i [21] $end
$var wire 1 o add2_i [20] $end
$var wire 1 p add2_i [19] $end
$var wire 1 q add2_i [18] $end
$var wire 1 r add2_i [17] $end
$var wire 1 s add2_i [16] $end
$var wire 1 t add2_i [15] $end
$var wire 1 u add2_i [14] $end
$var wire 1 v add2_i [13] $end
$var wire 1 w add2_i [12] $end
$var wire 1 x add2_i [11] $end
$var wire 1 y add2_i [10] $end
$var wire 1 z add2_i [9] $end
$var wire 1 { add2_i [8] $end
$var wire 1 | add2_i [7] $end
$var wire 1 } add2_i [6] $end
$var wire 1 ~ add2_i [5] $end
$var wire 1 !! add2_i [4] $end
$var wire 1 "! add2_i [3] $end
$var wire 1 #! add2_i [2] $end
$var wire 1 $! add2_i [1] $end
$var wire 1 %! add2_i [0] $end
$var wire 1 # result_o [32] $end
$var wire 1 $ result_o [31] $end
$var wire 1 % result_o [30] $end
$var wire 1 & result_o [29] $end
$var wire 1 ' result_o [28] $end
$var wire 1 ( result_o [27] $end
$var wire 1 ) result_o [26] $end
$var wire 1 * result_o [25] $end
$var wire 1 + result_o [24] $end
$var wire 1 , result_o [23] $end
$var wire 1 - result_o [22] $end
$var wire 1 . result_o [21] $end
$var wire 1 / result_o [20] $end
$var wire 1 0 result_o [19] $end
$var wire 1 1 result_o [18] $end
$var wire 1 2 result_o [17] $end
$var wire 1 3 result_o [16] $end
$var wire 1 4 result_o [15] $end
$var wire 1 5 result_o [14] $end
$var wire 1 6 result_o [13] $end
$var wire 1 7 result_o [12] $end
$var wire 1 8 result_o [11] $end
$var wire 1 9 result_o [10] $end
$var wire 1 : result_o [9] $end
$var wire 1 ; result_o [8] $end
$var wire 1 < result_o [7] $end
$var wire 1 = result_o [6] $end
$var wire 1 > result_o [5] $end
$var wire 1 ? result_o [4] $end
$var wire 1 @ result_o [3] $end
$var wire 1 A result_o [2] $end
$var wire 1 B result_o [1] $end
$var wire 1 C result_o [0] $end
$var wire 1 &! n796 $end
$var wire 1 '! n797 $end
$var wire 1 (! n798 $end
$var wire 1 )! n799 $end
$var wire 1 *! n800 $end
$var wire 1 +! n801 $end
$var wire 1 ,! n802 $end
$var wire 1 -! n803 $end
$var wire 1 .! n808 $end
$var wire 1 /! n809 $end
$var wire 1 0! n810 $end
$var wire 1 1! n811 $end
$var wire 1 2! n812 $end
$var wire 1 3! n814 $end
$var wire 1 4! n815 $end
$var wire 1 5! n816 $end
$var wire 1 6! n817 $end
$var wire 1 7! n818 $end
$var wire 1 8! n819 $end
$var wire 1 9! n820 $end
$var wire 1 :! n821 $end
$var wire 1 ;! n822 $end
$var wire 1 <! n823 $end
$var wire 1 =! n824 $end
$var wire 1 >! n825 $end
$var wire 1 ?! n826 $end
$var wire 1 @! n827 $end
$var wire 1 A! n828 $end
$var wire 1 B! n830 $end
$var wire 1 C! n831 $end
$var wire 1 D! n832 $end
$var wire 1 E! n833 $end
$var wire 1 F! n834 $end
$var wire 1 G! n835 $end
$var wire 1 H! n836 $end
$var wire 1 I! n837 $end
$var wire 1 J! n839 $end
$var wire 1 K! n840 $end
$var wire 1 L! n841 $end
$var wire 1 M! n845 $end
$var wire 1 N! n846 $end
$var wire 1 O! n847 $end
$var wire 1 P! n848 $end
$var wire 1 Q! n849 $end
$var wire 1 R! n850 $end
$var wire 1 S! n851 $end
$var wire 1 T! n852 $end
$var wire 1 U! n853 $end
$var wire 1 V! n854 $end
$var wire 1 W! n855 $end
$var wire 1 X! n856 $end
$var wire 1 Y! n857 $end
$var wire 1 Z! n858 $end
$var wire 1 [! n859 $end
$var wire 1 \! n860 $end
$var wire 1 ]! n861 $end
$var wire 1 ^! n862 $end
$var wire 1 _! n863 $end
$var wire 1 `! n864 $end
$var wire 1 a! n865 $end
$var wire 1 b! n866 $end
$var wire 1 c! n867 $end
$var wire 1 d! n868 $end
$var wire 1 e! n869 $end
$var wire 1 f! n870 $end
$var wire 1 g! n871 $end
$var wire 1 h! n872 $end
$var wire 1 i! n873 $end
$var wire 1 j! n874 $end
$var wire 1 k! n875 $end
$var wire 1 l! n876 $end
$var wire 1 m! n877 $end
$var wire 1 n! n878 $end
$var wire 1 o! n879 $end
$var wire 1 p! n880 $end
$var wire 1 q! n881 $end
$var wire 1 r! n882 $end
$var wire 1 s! n883 $end
$var wire 1 t! n884 $end
$var wire 1 u! n885 $end
$var wire 1 v! n886 $end
$var wire 1 w! n887 $end
$var wire 1 x! n888 $end
$var wire 1 y! n889 $end
$var wire 1 z! n890 $end
$var wire 1 {! n891 $end
$var wire 1 |! n892 $end
$var wire 1 }! n893 $end
$var wire 1 ~! n894 $end
$var wire 1 !" n895 $end
$var wire 1 "" n896 $end
$var wire 1 #" n897 $end
$var wire 1 $" n898 $end
$var wire 1 %" n900 $end
$var wire 1 &" n901 $end
$var wire 1 '" n902 $end
$var wire 1 (" n903 $end
$var wire 1 )" n904 $end
$var wire 1 *" n905 $end
$var wire 1 +" n906 $end
$var wire 1 ," n907 $end
$var wire 1 -" n909 $end
$var wire 1 ." n910 $end
$var wire 1 /" n911 $end
$var wire 1 0" n912 $end
$var wire 1 1" n913 $end
$var wire 1 2" n914 $end
$var wire 1 3" n915 $end
$var wire 1 4" n916 $end
$var wire 1 5" n917 $end
$var wire 1 6" n918 $end
$var wire 1 7" n919 $end
$var wire 1 8" n920 $end
$var wire 1 9" n921 $end
$var wire 1 :" n922 $end
$var wire 1 ;" n923 $end
$var wire 1 <" n924 $end
$var wire 1 =" n925 $end
$var wire 1 >" n926 $end
$var wire 1 ?" n927 $end
$var wire 1 @" n928 $end
$var wire 1 A" n929 $end
$var wire 1 B" n930 $end
$var wire 1 C" n931 $end
$var wire 1 D" n932 $end
$var wire 1 E" n933 $end
$var wire 1 F" n934 $end
$var wire 1 G" n935 $end
$var wire 1 H" n936 $end
$var wire 1 I" n937 $end
$var wire 1 J" n938 $end
$var wire 1 K" n939 $end
$var wire 1 L" n940 $end
$var wire 1 M" n941 $end
$var wire 1 N" n942 $end
$var wire 1 O" n943 $end
$var wire 1 P" n944 $end
$var wire 1 Q" n945 $end
$var wire 1 R" n946 $end
$var wire 1 S" n947 $end
$var wire 1 T" n948 $end
$var wire 1 U" n951 $end
$var wire 1 V" n952 $end
$var wire 1 W" n953 $end
$var wire 1 X" n954 $end
$var wire 1 Y" n955 $end
$var wire 1 Z" n956 $end
$var wire 1 [" n957 $end
$var wire 1 \" n958 $end
$var wire 1 ]" n959 $end
$var wire 1 ^" n960 $end
$var wire 1 _" n961 $end
$var wire 1 `" n962 $end
$var wire 1 a" n963 $end
$var wire 1 b" n965 $end
$var wire 1 c" n966 $end
$var wire 1 d" n967 $end
$var wire 1 e" n968 $end
$var wire 1 f" n969 $end
$var wire 1 g" n970 $end
$var wire 1 h" n971 $end
$var wire 1 i" n972 $end
$var wire 1 j" n973 $end
$var wire 1 k" n974 $end
$var wire 1 l" n975 $end
$var wire 1 m" n976 $end
$var wire 1 n" n977 $end
$var wire 1 o" n978 $end
$var wire 1 p" n979 $end
$var wire 1 q" n980 $end
$var wire 1 r" n981 $end
$var wire 1 s" n982 $end
$var wire 1 t" n983 $end
$var wire 1 u" n984 $end
$var wire 1 v" n985 $end
$var wire 1 w" n986 $end
$var wire 1 x" n987 $end
$var wire 1 y" n988 $end
$var wire 1 z" n989 $end
$var wire 1 {" n990 $end
$var wire 1 |" n991 $end
$var wire 1 }" n992 $end
$var wire 1 ~" n993 $end
$var wire 1 !# n994 $end
$var wire 1 "# n995 $end
$var wire 1 ## n996 $end
$var wire 1 $# n997 $end
$var wire 1 %# n998 $end
$var wire 1 &# n999 $end
$var wire 1 '# n1000 $end
$var wire 1 (# n1001 $end
$var wire 1 )# n1002 $end
$var wire 1 *# n1003 $end
$var wire 1 +# n1004 $end
$var wire 1 ,# n1005 $end
$var wire 1 -# n1006 $end
$var wire 1 .# n1007 $end
$var wire 1 /# n1008 $end
$var wire 1 0# n1009 $end
$var wire 1 1# n1010 $end
$var wire 1 2# n1011 $end
$var wire 1 3# n1012 $end
$upscope $end
$upscope $end
$enddefinitions $end
#0
$dumpvars
b0 !
b0 "
1C
0B
0A
0@
0?
0>
0=
0<
0;
0:
09
08
07
06
05
04
03
02
01
00
0/
0.
0-
0,
0+
0*
0)
0(
0'
0&
0%
0$
0#
1&!
1'!
1(!
1)!
1*!
1+!
1,!
1-!
1.!
0/!
10!
01!
02!
03!
14!
05!
06!
07!
08!
09!
1:!
1;!
0<!
0=!
1>!
1?!
0@!
0A!
1B!
1C!
0D!
0E!
1F!
1G!
0H!
0I!
1J!
0K!
0L!
0M!
0N!
0O!
1P!
1Q!
1R!
0S!
1T!
1U!
0V!
0W!
0X!
0Y!
1Z!
0[!
1\!
1]!
0^!
0_!
0`!
1a!
1b!
0c!
0d!
1e!
1f!
0g!
0h!
1i!
1j!
0k!
0l!
1m!
1n!
0o!
1p!
0q!
1r!
1s!
0t!
0u!
0v!
0w!
1x!
1y!
0z!
0{!
1|!
0}!
1~!
1!"
0""
0#"
1$"
1%"
1&"
0'"
1("
0)"
1*"
1+"
0,"
1-"
1."
0/"
00"
01"
12"
13"
04"
15"
06"
17"
18"
09"
0:"
1;"
1<"
0="
0>"
0?"
1@"
1A"
0B"
0C"
1D"
1E"
1F"
0G"
1H"
1I"
1J"
0K"
1L"
1M"
1N"
0O"
0P"
1Q"
1R"
1S"
0T"
0U"
1V"
1W"
0X"
1Y"
1Z"
0["
1\"
1]"
0^"
1_"
1`"
0a"
1b"
0c"
0d"
1e"
1f"
1g"
0h"
0i"
1j"
1k"
0l"
1m"
0n"
1o"
0p"
0q"
0r"
0s"
0t"
1u"
0v"
0w"
1x"
0y"
0z"
0{"
0|"
1}"
0~"
0!#
1"#
1##
1$#
1%#
1&#
1'#
1(#
1)#
1*#
1+#
1,#
1-#
1.#
0/#
00#
11#
12#
13#
0%!
0$!
0#!
0"!
0!!
0~
0}
0|
0{
0z
0y
0x
0w
0v
0u
0t
0s
0r
0q
0p
0o
0n
0m
0l
0k
0j
0i
0h
0g
0f
0e
0d
0c
0b
0a
0`
0_
0^
0]
0\
0[
0Z
0Y
0X
0W
0V
0U
0T
0S
0R
0Q
0P
0O
0N
0M
0L
0K
0J
0I
0H
0G
0F
0E
0D
$end
#10
b101001101011110010010000110000 !
b1111010000110111001101010111100 "
1#!
1"!
1!!
1~
1|
1z
1x
1w
1t
1s
1r
1p
1o
1j
1h
1g
1f
1e
1_
1^
1Y
1V
1S
1R
1Q
1P
1N
1L
1K
1H
1F
1<
1:
13
12
1/
0("
0~!
0$#
0'!
1`!
0'#
02#
0,#
0-#
0o"
0*!
1'"
1z"
14"
1n"
0+#
1T"
0*#
1/#
1'
1(
1*
10
14
17
1?"
1>
1?
19!
1A
03
1c!
1k!
1t!
1B"
17!
1@
18
1%
0S"
16!
05"
0f"
0%"
1}!
1z!
1^!
1+
1O!
1E!
11
16
0B!
0}"
1N!
1""
0$"
0|!
1#"
0>
1O"
0?
0W"
19
00
0s!
1.
1,
02
1q!
1U"
15!
0)!
1{!
0!"
0(
1L!
1{"
1@!
1A!
0p!
0%
0?!
1s"
1t"
1H!
01
0x!
0""
1$"
1=
0R"
1o!
0/
12
0m!
06!
1u!
0"#
0e"
0G!
1=!
0t!
1<!
1K!
0C!
0r!
1>
1l!
0k!
0i!
0'
0J!
1$
10
1s!
1D!
1h!
0.
1g!
1&
1-
#20
b10001000000000011010001010110 !
b10001000100010010001100100011 "
1%!
1$!
0#!
0"!
0!!
0|
1{
0x
0w
1v
0t
0r
0p
1k
0j
0h
0f
0e
1b
1a
0^
1]
1W
0S
0R
0Q
0P
0N
0L
0H
1G
0F
0C
0<
12!
06
02
1("
1~!
1"#
1$#
1q"
0F!
1'!
12#
1,#
1i!
1-#
1r!
1x!
1f"
1*!
0'"
19"
0x"
1y"
1R"
1I!
1a"
0/#
1?!
1B!
1(
1}"
0*
0`!
0]!
00
1|!
04
0(#
02"
07
0?"
1?
1W"
09!
0A
1v!
13
0c!
1k!
1t!
1B
0_"
0@
0U"
08
10"
1/"
1l"
1W!
0+
0L!
0{"
0@!
0=!
1%
0`"
1A
1v"
16!
17
1%"
0#"
0u!
0q!
0h!
0O!
0K!
0%#
1C!
11
1;
0<!
0t!
1p!
0A!
1'
1J!
0N!
0g!
0o!
1o"
1!"
1)!
0}!
0>
1p"
0I"
0q"
1F!
1[!
1V!
15
0T"
1^"
10
1.
0,
1/
0I!
0\"
0v"
1S"
06!
1*
0D!
1K!
1%#
05!
0u"
0{!
01
0z!
1m!
0-
0(
0%
00
0$
0l!
1P"
13!
0=
0'
0J!
0&
1>
0p"
1I"
1["
18!
0A
0k!
1@
15!
1u"
1D!
01#
1<
1&
0P"
03!
1=
0.
11#
0<
#30
b10000001000101100000100001110011 !
b11100110011100000000101111000 "
0%!
0$!
1"!
1!!
1}
0z
0v
0s
1r
1q
1p
0o
1m
1l
0k
1i
1h
1c
0a
1^
0Y
1X
0W
0V
1R
1Q
1O
0G
1D
0:
16
03
12
0/
1Y!
0p!
0.#
0s"
0t"
0H!
1o!
0o"
0*!
0z"
04"
09"
1?"
0k"
0n"
1+#
1T"
1I!
1\"
1(
1`!
1]!
1,
1-
10
1(#
12"
0=
0J"
0Q"
0?
0W"
19!
0Z"
1w!
1`"
1/
1<!
0B"
0B
1X"
0@
1U"
1P"
13!
00"
0/"
0l"
0W!
1+
0["
08!
1A
1v"
0S"
16!
1="
18
07
15"
1}!
1z!
1e"
1G!
1)
07!
06
0E!
0K!
0y!
1""
0$"
0|!
0>
1p"
0I"
1@
1Z"
0[!
0V!
05
01#
0R"
0V"
09
1$
02
1<
0v"
1w"
06!
0*
0X"
1J"
05!
0u"
1{!
0!"
1u!
1'
1J!
1?
1W"
17!
1t!
0D!
11
0x!
1=
1V"
1>
0p"
0U"
0&
00
0s!
0?
0W"
1U"
1q!
1R"
1p!
1v"
0w"
16!
0n!
0R"
0/
0v"
1w"
06!
1l!
0>
1p"
1u"
1k!
03!
1>
0p"
0u"
13!
11#
1.
0<
01#
1<
#35
b100000001000000010000000010010 !
b11011110101011011011111011101111 "
1%!
1$!
1#!
0!!
1|
0{
1z
1y
1x
1w
1v
1t
1s
0r
1n
0m
1j
1e
1d
0c
0^
0]
0X
1V
0R
0Q
0O
1N
0K
1F
0D
0<
02!
1:
16
13
12
0~!
0p!
1.#
0$#
10#
0`!
1'#
0,#
0i!
1n!
1o"
1x!
1*!
1z"
14"
1k"
1x"
0y"
1R"
0$
0;!
1/#
1*
0-
0.
0j!
0""
1|!
14
17
0<"
19
0L"
0H"
1?
1W"
0A
0]"
0w!
0`"
1/
0<!
0k!
1B
1["
18!
0U"
1i"
11!
1K"
1:"
0z!
0{!
1!"
1%
1#
16!
0w"
0="
02"
0(#
05"
0}!
0l!
1h!
0^!
0+
1&
1E!
01
0;
06
1k!
1g!
1i!
1$"
1/"
10"
1<"
1u"
1I"
0>
11
1y!
19"
1;
0T"
0@
0Z"
1.
1j!
1$
1;!
02
0#
0h!
1X"
1S"
06!
07
08"
0u!
0J"
15!
03!
0:"
15
1-
0.
0j!
07!
0t!
1h!
09"
11#
1H"
0=
13!
16"
1>
0O"
0V"
0g!
1<
0-
1U"
1J"
05!
1Q"
03"
01#
0H"
0i"
01!
17
18"
1g!
10
1s!
0?
0<
0q!
1-
06"
0;
1i"
11!
15"
0P"
1=
03!
1T"
1p!
16
0S"
16!
11#
1H"
1L"
1;
13"
0o!
0/
1<
05"
0K"
0i"
01!
0>
1O"
06
0J"
15!
0Q"
0;
1P"
0=
13!
01#
0H"
0L"
0<
1K"
1i"
11!
1;
#43
b10001001010000111101111010101111 !
b11011010101011011011101010101101 "
0$!
0}
0y
0i
1c
1a
1`
0_
1^
1\
1Z
1Y
1X
1W
0V
1U
1T
1S
1R
0N
1M
1K
1H
0F
1D
0Y!
1C
0("
0.#
1$#
00#
0'!
1`!
0'#
0g!
0e!
1,#
0*!
1'"
03#
11"
0)#
0-"
0z"
04"
19"
0?"
0k"
1n"
0+#
0+!
0-!
0R"
1*#
1V"
09!
0b"
0Y"
0I!
0\"
09
1=
1J"
1Q"
1w!
1`"
03
1<!
0k!
1,"
1B"
17!
0B
1A
1]"
1@
0U"
06!
1!#
1/!
1="
08
07
08"
12"
1(#
15"
1h"
1~"
05
0f"
0%"
1}!
1d!
0-
1^!
1+
1O!
0&
0E!
0)
16
0,"
1c!
0}"
1N!
0$"
1#"
0*"
00"
16"
0<"
0D"
0.!
1>
1R"
1?
19
04
0+"
1.
1j!
0$
0;!
12
0:
1#
0h!
16!
1C"
1:"
1z"
14"
15
1-"
1)"
0o"
0!"
0)!
0(
1L!
1{"
0,
0&#
0b!
14
1+"
0B"
1("
1_!
1s"
1t"
1H!
1{!
1$"
01
1z!
0&"
0h"
0~"
02"
0(#
05"
09"
07"
0n"
0@"
0>
1g!
1e!
13
02
1,"
06
0d!
1-
1c"
1>"
17
18"
10"
1*"
0g"
0y!
0e"
0G!
0+
0\!
09
0c!
1l"
1W!
1E!
1K!
1u!
0)"
05
0-"
18
0;"
04
0+"
1t!
0("
1)"
1h"
1~"
1&"
0'
0J!
1[!
1V!
1,
1&#
1b!
03
1("
0,"
0_!
0T!
0*
0Z!
1D!
1g"
0*"
0&"
00
0s!
13
1q!
0g"
1&
1X!
1S!
1+
1\!
14
1+"
0p!
0l"
0W!
1)
1o!
1/
0[!
0V!
1T!
1*
1Z!
0X!
0S!
0)
#53
b10101011110011010001001000110100 !
b0 "
0%!
0#!
0"!
0~
0|
0z
0x
0w
0v
0t
0s
0q
0p
0n
0l
0j
0h
0g
0e
0d
0c
0b
0`
1_
0\
0Y
0X
0U
0T
0R
1Q
1P
1L
1J
1F
1<
1:
16
03
0$#
10#
1[!
1V!
02#
0-#
0r!
0x!
1*!
13#
1*"
01"
1)#
1-"
1;"
1n"
1+#
1@"
1-!
0*#
0V"
1b"
1Y"
0w!
1_"
0v!
1$
1;!
0/#
1'
1J!
1G!
1(
1}"
0*
0,
0.
10
1s!
1y!
1f"
1%"
04
1(#
12"
07
1<"
1D"
1L"
1H"
1>
1S"
1Z"
0A
1c!
0t!
1,"
1B"
07!
0X"
0O"
0i"
01!
0K"
0C"
0:"
00"
0/"
0L!
0{"
0D!
0%
0#
0a"
0^"
1U"
0P"
03!
0c"
0>"
0h"
0~"
15
0)"
1g"
1*
0&
17!
0B"
0,"
0("
0#"
1&"
08
1k"
11#
0R"
1I!
1\"
1&
0s"
0t"
0H!
05
19"
17"
0n"
0;
05!
1V"
0?
19
14
00
1,
13
0<
0U"
0=
06"
17
1e"
0["
08!
1A
1O"
06!
0="
0}!
1!"
1)!
04
09
1?
0{!
11
0>
15!
0@
0K!
0z"
04"
1R"
0O"
16!
15"
0'
1=
1x!
06
0u!
1>
05!
1t!
0=
1r!
0q!
10
1p!
0o!
0/
#63
b0 !
b10010001101000101011001111000 "
1"!
1!!
1~
1}
1z
1y
1w
1u
1q
1o
1n
1j
1g
0a
0_
0^
0Z
0W
0S
0Q
0P
0M
0L
0K
0J
0H
0F
0D
0:
1/
1("
1.#
1$#
00#
1'!
0[!
0V!
0`!
1'#
12#
0g!
1-#
1o"
0'"
09"
1+!
0T"
1*#
0I!
1'
0*
0T!
0Z!
1.
0y!
11"
07
08"
19
0D"
1=
0>
0S"
0?
0W"
19!
03
0<!
0c!
0t!
07!
1@
1U"
1O"
1C"
16"
15
1u!
1X!
1S!
0A
1S"
06!
0!#
0/!
17
18"
0z!
0-
0^!
0+
1T!
1*
1Z!
0O!
0&
0E!
1B"
1t!
0N!
0X!
0S!
1y!
06"
1D"
1.!
1>
0O"
1)
1z"
14"
1n"
0J"
15!
0Q"
1T"
1?
1W"
00
0,
0$
1:
0U"
0S"
16!
1P"
0=
13!
0j"
05"
1J"
05!
1Q"
0C"
0z"
04"
0u!
0)
0(
10
09
0A"
16
0B"
0t!
1>"
15"
0n"
0P"
1=
03!
1="
01#
0>
1O"
0T"
06
1<
1S"
06!
0J"
15!
0Q"
11#
1j"
18
00
19
1A"
0<
0>"
0="
1P"
0=
13!
1>
0O"
1J"
05!
1Q"
01#
08
1<
0P"
1=
03!
11#
0<
#73
b10001000100010100010001110111 !
b11101110101010100000000000000000 "
0"!
0!!
0~
0}
0z
0y
0w
0u
1r
0q
1p
0o
1l
1i
1h
0g
1f
1e
1d
1c
1b
1a
1_
1^
1]
1Y
1U
1S
1O
1K
1G
0:
12
1~!
0/
1Y!
0C
0("
0p!
1s"
1t"
1H!
1`!
0'#
1o!
1'"
0)#
1n"
0+#
0x"
1T"
0*#
1I!
1w!
1a"
1v!
1$
1/#
10#
0'
1(
1,
10
07
09
0=
0>
0?
09!
13
1/
1B"
17!
0@
1&
1%
0_"
1A
16!
1O"
1/"
1^!
1+
0e"
1)
01
1K!
15!
1>
1^"
1?
19
0I!
0\"
1=
1'
1["
18!
0A
1@
#83
b1010101010101010101010101010101 !
b10101010101010101010101010101010 "
1$!
1"!
1~
1|
1z
1x
1v
1t
0i
0e
0b
0^
1[
1W
1Q
1M
1I
1E
1<
1:
16
0Y!
0~!
0m"
0(!
1g!
0o"
19"
0,!
0T"
1_"
14
1?"
0>
1y"
0S"
19!
0Z"
0`"
1Y!
12!
1X"
0@
1p"
18
1S"
06!
1K"
17
1z!
1-
1S!
1@!
11
0)
07!
1>
0p"
0u"
0V"
1;
1)
1U"
1P"
13!
1u"
0?
0P"
03!
01#
0H"
0L"
1T"
0<
1v"
0S"
16!
1i"
11!
11#
1H"
1L"
1<
0i"
01!
0F"
0;
0>
1p"
0I"
05!
0u"
1!#
1G"
1/!
1F"
1;
0!#
0G"
0/!
0D"
0.!
1P"
13!
0=
0:
01#
0H"
0L"
1C"
1D"
1.!
0<
0B"
1:
0C"
0n"
0@"
1i"
11!
1B"
0F"
0;
1c"
1>"
1n"
1@"
09
0c"
0>"
08
0k"
1!#
1G"
1/!
19
0D"
0.!
1="
18
1k"
0:
0="
0<"
1C"
0B"
0n"
0@"
1:"
1<"
0:"
09"
07"
1c"
1>"
09
08
0k"
16"
07
19"
17"
06"
17
1z"
14"
1="
0<"
02"
0(#
05"
0z"
04"
06
12"
1(#
15"
10"
1:"
16
09"
07"
05
0-"
00"
15
1-"
1h"
1~"
16"
07
1,"
1z"
14"
0h"
0~"
0,"
02"
0(#
05"
04
0+"
06
1)"
10"
14
1+"
1("
0)"
05
0-"
0&"
03
0("
1}!
1h"
1~"
1&"
13
1,"
0}!
1""
0$"
0|!
02
1{!
0!"
0""
1$"
1|!
04
0+"
12
1)"
0{!
1!"
01
0x!
1("
1u!
11
1x!
0&"
03
1t!
1}!
0u!
0t!
1""
0$"
0|!
00
0s!
02
1q!
1{!
0!"
10
1s!
1p!
0q!
01
0x!
0n!
0/
0p!
1l!
1u!
1n!
1/
1k!
1t!
0l!
0k!
00
0s!
0.
0j!
1h!
1q!
1.
1j!
1p!
0h!
0n!
0g!
0e!
0/
1d!
0-
1l!
1g!
1e!
1c!
1k!
0d!
1-
0c!
0.
0j!
0,
0&#
0b!
1_!
1h!
1,
1&#
1b!
0_!
0g!
0e!
0+
0\!
1l"
1W!
1d!
0-
1+
1\!
1c!
0l"
0W!
1[!
1V!
0T!
0*
0Z!
0[!
0V!
0,
0&#
0b!
1_!
1T!
1*
1Z!
1X!
0)
0Q!
0X!
0+
0\!
1l"
1W!
1)
1Q!
0P!
1O!
1P!
1[!
1V!
0T!
0*
0Z!
0O!
0}"
1N!
0(
1L!
1{"
1}"
0N!
1X!
0)
0Q!
1(
0L!
0{"
1q"
0F!
1E!
1D!
0K!
0%#
0q"
1F!
0P!
1O!
0E!
0D!
1K!
1%#
0'
0&
0B!
1A!
1'
1&
1B!
0}"
1N!
0(
1L!
1{"
0A!
0%
0>!
1=!
1%
1>!
1q"
0F!
1<!
1E!
1D!
0K!
0%#
0=!
0<!
0'
0&
0B!
0$
0;!
1#
1A!
1$
1;!
0#
0%
0>!
1=!
1<!
0$
0;!
1#
#93
b10000000010100011001100001100000 !
b10000000100001101011101000111110 "
1#!
1!!
0|
1w
1q
0p
0n
0j
0h
0f
0c
0a
0_
1^
0[
0Y
1X
0U
1T
0Q
0K
0I
0G
0E
1D
1<
1C
0.#
0:!
1m"
0/#
1>!
0q"
1F!
1(!
1Q!
0`!
1'#
1\!
1o"
1x!
03#
0*"
01"
1)#
1-"
0?"
0;"
1n"
1+#
1@"
1,!
1F"
0R"
1*#
1V"
1I!
1\"
0v!
1B!
00#
1(
1}"
1*
1T!
1Z!
1.
1j!
10
1s!
0y!
17
1L"
1H"
1?
1A
0<!
0Y!
0,"
1B"
02!
17!
0i"
01!
0K"
0q!
0h!
0X!
0S!
0L!
0{"
1&
0@!
0A!
1B
0a"
0["
08!
0A
0]"
0U"
0v"
1w"
06!
0!#
0G"
0/!
0c"
0>"
18
0h"
0~"
15
0l"
0W!
1+
1P!
0E!
0D!
1K!
1%#
0=!
1%
0p!
1,"
1<!
1:!
1'
0&
0O!
0[!
0V!
1*"
08
1;"
1D"
1.!
1>
0p"
1R"
1["
18!
1@
1Z"
1`"
0%
0s"
0t"
0H!
1g!
1e!
1n!
0?
0W"
19
14
1+"
1$
1;!
1/
1:
0#
0)"
1U"
0l!
0d!
1-
1e"
0^"
0X"
0@
0Z"
1v"
0w"
16!
0C"
0*
0N!
0$
0;!
04
0+"
0("
0k!
0c!
07!
0B"
1)"
1#
0(
0n"
0>
1p"
1u"
1X"
0I!
0K!
0R"
1&"
13
1("
17!
0}!
0v"
1w"
06!
0'
1A
1]"
0P"
03!
0u"
0&"
09
1?
1W"
1,
1&#
1b!
0.
03
0_!
0^!
0U"
1}!
1P"
13!
11#
0["
08!
1>
0p"
0""
1$"
1|!
0?
0W"
0<
12
1U"
0z!
0{!
1!"
1@
1Z"
01#
1""
0$"
0|!
1R"
0+
1<
02
1v"
0w"
16!
1z!
1{!
0!"
0X"
11
1y!
0R"
07!
0v"
1w"
06!
0u!
01
0y!
0>
1p"
1u"
0t!
0P"
03!
1u!
1>
0p"
0u"
1?
1W"
1t!
0U"
1P"
13!
11#
00
0<
01#
1R"
10
1<
1v"
0w"
16!
0>
1p"
1u"
0P"
03!
0u"
1P"
13!
11#
0<
01#
1<
