adders/lower_part_or_ripple_carry_adder16/msim/postsynth/lower_part_or_ripple_carry_adder16_gatesim.vcd
$date
	Tue Aug 18 17:09:28 2020
$end
$version
	ModelSim Version 6.6d
$end
$timescale
	1ns
$end
$scope module lower_part_or_ripple_carry_adder16_tb $end
$var reg 16 ! add1_i [15:0] $end
$var reg 16 " add2_i [15:0] $end
$var wire 1 # result_o [16] $end
$var wire 1 $ result_o [15] $end
$var wire 1 % result_o [14] $end
$var wire 1 & result_o [13] $end
$var wire 1 ' result_o [12] $end
$var wire 1 ( result_o [11] $end
$var wire 1 ) result_o [10] $end
$var wire 1 * result_o [9] $end
$var wire 1 + result_o [8] $end
$var wire 1 , result_o [7] $end
$var wire 1 - result_o [6] $end
$var wire 1 . result_o [5] $end
$var wire 1 / result_o [4] $end
$var wire 1 0 result_o [3] $end
$var wire 1 1 result_o [2] $end
$var wire 1 2 result_o [1] $end
$var wire 1 3 result_o [0] $end
$scope module laorca $end
$var wire 1 4 add1_i [15] $end
$var wire 1 5 add1_i [14] $end
$var wire 1 6 add1_i [13] $end
$var wire 1 7 add1_i [12] $end
$var wire 1 8 add1_i [11] $end
$var wire 1 9 add1_i [10] $end
$var wire 1 : add1_i [9] $end
$var wire 1 ; add1_i [8] $end
$var wire 1 < add1_i [7] $end
$var wire 1 = add1_i [6] $end
$var wire 1 > add1_i [5] $end
$var wire 1 ? add1_i [4] $end
$var wire 1 @ add1_i [3] $end
$var wire 1 A add1_i [2] $end
$var wire 1 B add1_i [1] $end
$var wire 1 C add1_i [0] $end
$var wire 1 D add2_i [15] $end
$var wire 1 E add2_i [14] $end
$var wire 1 F add2_i [13] $end
$var wire 1 G add2_i [12] $end
$var wire 1 H add2_i [11] $end
$var wire 1 I add2_i [10] $end
$var wire 1 J add2_i [9] $end
$var wire 1 K add2_i [8] $end
$var wire 1 L add2_i [7] $end
$var wire 1 M add2_i [6] $end
$var wire 1 N add2_i [5] $end
$var wire 1 O add2_i [4] $end
$var wire 1 P add2_i [3] $end
$var wire 1 Q add2_i [2] $end
$var wire 1 R add2_i [1] $end
$var wire 1 S add2_i [0] $end
$var wire 1 # result_o [16] $end
$var wire 1 $ result_o [15] $end
$var wire 1 % result_o [14] $end
$var wire 1 & result_o [13] $end
$var wire 1 ' result_o [12] $end
$var wire 1 ( result_o [11] $end
$var wire 1 ) result_o [10] $end
$var wire 1 * result_o [9] $end
$var wire 1 + result_o [8] $end
$var wire 1 , result_o [7] $end
$var wire 1 - result_o [6] $end
$var wire 1 . result_o [5] $end
$var wire 1 / result_o [4] $end
$var wire 1 0 result_o [3] $end
$var wire 1 1 result_o [2] $end
$var wire 1 2 result_o [1] $end
$var wire 1 3 result_o [0] $end
$var wire 1 T n36 $end
$var wire 1 U n37 $end
$var wire 1 V n38 $end
$var wire 1 W n39 $end
$var wire 1 X n40 $end
$var wire 1 Y n41 $end
$var wire 1 Z n42 $end
$var wire 1 [ n43 $end
$var wire 1 \ n44 $end
$var wire 1 ] n45 $end
$var wire 1 ^ n46 $end
$var wire 1 _ n47 $end
$var wire 1 ` n48 $end
$var wire 1 a n49 $end
$var wire 1 b n50 $end
$var wire 1 c n51 $end
$var wire 1 d n52 $end
$var wire 1 e n53 $end
$var wire 1 f n54 $end
$var wire 1 g n55 $end
$var wire 1 h n56 $end
$var wire 1 i n57 $end
$var wire 1 j n58 $end
$var wire 1 k n59 $end
$var wire 1 l n60 $end
$var wire 1 m n61 $end
$var wire 1 n n62 $end
$var wire 1 o n63 $end
$var wire 1 p n64 $end
$var wire 1 q n65 $end
$var wire 1 r n66 $end
$var wire 1 s n67 $end
$var wire 1 t n68 $end
$var wire 1 u n69 $end
$var wire 1 v n70 $end
$var wire 1 w n71 $end
$var wire 1 x n72 $end
$var wire 1 y n73 $end
$var wire 1 z n74 $end
$var wire 1 { n75 $end
$var wire 1 | n76 $end
$var wire 1 } n77 $end
$var wire 1 ~ n78 $end
$var wire 1 !! n79 $end
$var wire 1 "! n80 $end
$var wire 1 #! n81 $end
$var wire 1 $! n82 $end
$var wire 1 %! n83 $end
$scope module U50 $end
$var wire 1 J A $end
$var wire 1 T B $end
$var wire 1 * Z $end
$upscope $end
$scope module U51 $end
$var wire 1 K A $end
$var wire 1 U B $end
$var wire 1 + Z $end
$upscope $end
$scope module U52 $end
$var wire 1 L A $end
$var wire 1 V B $end
$var wire 1 , Z $end
$upscope $end
$scope module U53 $end
$var wire 1 M A $end
$var wire 1 W B $end
$var wire 1 - Z $end
$upscope $end
$scope module U54 $end
$var wire 1 N A $end
$var wire 1 X B $end
$var wire 1 . Z $end
$upscope $end
$scope module U55 $end
$var wire 1 O A $end
$var wire 1 Y B $end
$var wire 1 / Z $end
$upscope $end
$scope module U56 $end
$var wire 1 D A $end
$var wire 1 \ B $end
$var wire 1 $ Z $end
$upscope $end
$scope module U57 $end
$var wire 1 ] A $end
$var wire 1 4 B $end
$var wire 1 \ Z $end
$upscope $end
$scope module U58 $end
$var wire 1 E A $end
$var wire 1 ` B $end
$var wire 1 % Z $end
$upscope $end
$scope module U59 $end
$var wire 1 a A $end
$var wire 1 5 B $end
$var wire 1 ` Z $end
$upscope $end
$scope module U60 $end
$var wire 1 F A $end
$var wire 1 d B $end
$var wire 1 & Z $end
$upscope $end
$scope module U61 $end
$var wire 1 e A $end
$var wire 1 6 B $end
$var wire 1 d Z $end
$upscope $end
$scope module U62 $end
$var wire 1 G A $end
$var wire 1 h B $end
$var wire 1 ' Z $end
$upscope $end
$scope module U63 $end
$var wire 1 i A $end
$var wire 1 7 B $end
$var wire 1 h Z $end
$upscope $end
$scope module U64 $end
$var wire 1 H A $end
$var wire 1 l B $end
$var wire 1 ( Z $end
$upscope $end
$scope module U65 $end
$var wire 1 m A $end
$var wire 1 8 B $end
$var wire 1 l Z $end
$upscope $end
$scope module U66 $end
$var wire 1 I A $end
$var wire 1 p B $end
$var wire 1 ) Z $end
$upscope $end
$scope module U67 $end
$var wire 1 q A $end
$var wire 1 9 B $end
$var wire 1 p Z $end
$upscope $end
$scope module U68 $end
$var wire 1 t A $end
$var wire 1 : B $end
$var wire 1 T Z $end
$upscope $end
$scope module U69 $end
$var wire 1 w A $end
$var wire 1 ; B $end
$var wire 1 U Z $end
$upscope $end
$scope module U70 $end
$var wire 1 z A $end
$var wire 1 < B $end
$var wire 1 V Z $end
$upscope $end
$scope module U71 $end
$var wire 1 } A $end
$var wire 1 = B $end
$var wire 1 W Z $end
$upscope $end
$scope module U72 $end
$var wire 1 "! A $end
$var wire 1 > B $end
$var wire 1 X Z $end
$upscope $end
$scope module U73 $end
$var wire 1 %! A $end
$var wire 1 ? B $end
$var wire 1 Y ZN $end
$var wire 1 &! i_4 $end
$upscope $end
$scope module U74 $end
$var wire 1 P A1 $end
$var wire 1 @ A2 $end
$var wire 1 %! ZN $end
$var wire 1 '! i_10 $end
$upscope $end
$scope module U75 $end
$var wire 1 ~ A1 $end
$var wire 1 !! A2 $end
$var wire 1 } ZN $end
$var wire 1 (! i_10 $end
$upscope $end
$scope module U76 $end
$var wire 1 > A1 $end
$var wire 1 "! A2 $end
$var wire 1 ~ ZN $end
$var wire 1 )! i_10 $end
$upscope $end
$scope module U77 $end
$var wire 1 N A1 $end
$var wire 1 X A2 $end
$var wire 1 !! ZN $end
$var wire 1 *! i_10 $end
$upscope $end
$scope module U78 $end
$var wire 1 { A1 $end
$var wire 1 | A2 $end
$var wire 1 z ZN $end
$var wire 1 +! i_10 $end
$upscope $end
$scope module U79 $end
$var wire 1 = A1 $end
$var wire 1 } A2 $end
$var wire 1 { ZN $end
$var wire 1 ,! i_10 $end
$upscope $end
$scope module U80 $end
$var wire 1 M A1 $end
$var wire 1 W A2 $end
$var wire 1 | ZN $end
$var wire 1 -! i_10 $end
$upscope $end
$scope module U81 $end
$var wire 1 f A1 $end
$var wire 1 g A2 $end
$var wire 1 e ZN $end
$var wire 1 .! i_10 $end
$upscope $end
$scope module U82 $end
$var wire 1 7 A1 $end
$var wire 1 i A2 $end
$var wire 1 f ZN $end
$var wire 1 /! i_10 $end
$upscope $end
$scope module U83 $end
$var wire 1 G A1 $end
$var wire 1 h A2 $end
$var wire 1 g ZN $end
$var wire 1 0! i_10 $end
$upscope $end
$scope module U84 $end
$var wire 1 b A1 $end
$var wire 1 c A2 $end
$var wire 1 a ZN $end
$var wire 1 1! i_10 $end
$upscope $end
$scope module U85 $end
$var wire 1 6 A1 $end
$var wire 1 e A2 $end
$var wire 1 b ZN $end
$var wire 1 2! i_10 $end
$upscope $end
$scope module U86 $end
$var wire 1 F A1 $end
$var wire 1 d A2 $end
$var wire 1 c ZN $end
$var wire 1 3! i_10 $end
$upscope $end
$scope module U87 $end
$var wire 1 ^ A1 $end
$var wire 1 _ A2 $end
$var wire 1 ] ZN $end
$var wire 1 4! i_10 $end
$upscope $end
$scope module U88 $end
$var wire 1 5 A1 $end
$var wire 1 a A2 $end
$var wire 1 ^ ZN $end
$var wire 1 5! i_10 $end
$upscope $end
$scope module U89 $end
$var wire 1 E A1 $end
$var wire 1 ` A2 $end
$var wire 1 _ ZN $end
$var wire 1 6! i_10 $end
$upscope $end
$scope module U90 $end
$var wire 1 #! A1 $end
$var wire 1 $! A2 $end
$var wire 1 "! ZN $end
$var wire 1 7! i_10 $end
$upscope $end
$scope module U91 $end
$var wire 1 ? A1 $end
$var wire 1 @ A2 $end
$var wire 1 P A3 $end
$var wire 1 $! ZN $end
$var wire 1 8! i_8 $end
$var wire 1 9! i_9 $end
$upscope $end
$scope module U92 $end
$var wire 1 O A1 $end
$var wire 1 Y A2 $end
$var wire 1 #! ZN $end
$var wire 1 :! i_10 $end
$upscope $end
$scope module U93 $end
$var wire 1 x A1 $end
$var wire 1 y A2 $end
$var wire 1 w ZN $end
$var wire 1 ;! i_10 $end
$upscope $end
$scope module U94 $end
$var wire 1 < A1 $end
$var wire 1 z A2 $end
$var wire 1 x ZN $end
$var wire 1 <! i_10 $end
$upscope $end
$scope module U95 $end
$var wire 1 L A1 $end
$var wire 1 V A2 $end
$var wire 1 y ZN $end
$var wire 1 =! i_10 $end
$upscope $end
$scope module U96 $end
$var wire 1 u A1 $end
$var wire 1 v A2 $end
$var wire 1 t ZN $end
$var wire 1 >! i_10 $end
$upscope $end
$scope module U97 $end
$var wire 1 ; A1 $end
$var wire 1 w A2 $end
$var wire 1 u ZN $end
$var wire 1 ?! i_10 $end
$upscope $end
$scope module U98 $end
$var wire 1 K A1 $end
$var wire 1 U A2 $end
$var wire 1 v ZN $end
$var wire 1 @! i_10 $end
$upscope $end
$scope module U99 $end
$var wire 1 r A1 $end
$var wire 1 s A2 $end
$var wire 1 q ZN $end
$var wire 1 A! i_10 $end
$upscope $end
$scope module U100 $end
$var wire 1 : A1 $end
$var wire 1 t A2 $end
$var wire 1 r ZN $end
$var wire 1 B! i_10 $end
$upscope $end
$scope module U101 $end
$var wire 1 J A1 $end
$var wire 1 T A2 $end
$var wire 1 s ZN $end
$var wire 1 C! i_10 $end
$upscope $end
$scope module U102 $end
$var wire 1 n A1 $end
$var wire 1 o A2 $end
$var wire 1 m ZN $end
$var wire 1 D! i_10 $end
$upscope $end
$scope module U103 $end
$var wire 1 9 A1 $end
$var wire 1 q A2 $end
$var wire 1 n ZN $end
$var wire 1 E! i_10 $end
$upscope $end
$scope module U104 $end
$var wire 1 I A1 $end
$var wire 1 p A2 $end
$var wire 1 o ZN $end
$var wire 1 F! i_10 $end
$upscope $end
$scope module U105 $end
$var wire 1 j A1 $end
$var wire 1 k A2 $end
$var wire 1 i ZN $end
$var wire 1 G! i_10 $end
$upscope $end
$scope module U106 $end
$var wire 1 8 A1 $end
$var wire 1 m A2 $end
$var wire 1 j ZN $end
$var wire 1 H! i_10 $end
$upscope $end
$scope module U107 $end
$var wire 1 H A1 $end
$var wire 1 l A2 $end
$var wire 1 k ZN $end
$var wire 1 I! i_10 $end
$upscope $end
$scope module U108 $end
$var wire 1 Z A1 $end
$var wire 1 [ A2 $end
$var wire 1 # ZN $end
$var wire 1 J! i_10 $end
$upscope $end
$scope module U109 $end
$var wire 1 4 A1 $end
$var wire 1 ] A2 $end
$var wire 1 Z ZN $end
$var wire 1 K! i_10 $end
$upscope $end
$scope module U110 $end
$var wire 1 D A1 $end
$var wire 1 \ A2 $end
$var wire 1 [ ZN $end
$var wire 1 L! i_10 $end
$upscope $end
$scope module U111 $end
$var wire 1 C A1 $end
$var wire 1 S A2 $end
$var wire 1 3 ZN $end
$upscope $end
$scope module U112 $end
$var wire 1 B A1 $end
$var wire 1 R A2 $end
$var wire 1 2 ZN $end
$upscope $end
$scope module U113 $end
$var wire 1 A A1 $end
$var wire 1 Q A2 $end
$var wire 1 1 ZN $end
$upscope $end
$scope module U114 $end
$var wire 1 P A1 $end
$var wire 1 @ A2 $end
$var wire 1 0 ZN $end
$upscope $end
$upscope $end
$upscope $end
$enddefinitions $end
#0
$dumpvars
b0 !
b0 "
03
02
01
00
0/
0.
0-
0,
0+
0*
0)
0(
0'
0&
0%
0$
0#
0T
0U
0V
0W
0X
0Y
1Z
1[
0\
0]
1^
1_
0`
0a
1b
1c
0d
0e
1f
1g
0h
0i
1j
1k
0l
0m
1n
1o
0p
0q
1r
1s
0t
1u
1v
0w
1x
1y
0z
1{
1|
0}
1~
1!!
0"!
1#!
1$!
1%!
1&!
0'!
1(!
0)!
0*!
1+!
0,!
0-!
1.!
0/!
00!
11!
02!
03!
14!
05!
06!
17!
08!
09!
0:!
1;!
0<!
0=!
1>!
0?!
0@!
1A!
0B!
0C!
1D!
0E!
0F!
1G!
0H!
0I!
1J!
0K!
0L!
0S
0R
0Q
0P
0O
0N
0M
0L
0K
0J
0I
0H
0G
0F
0E
0D
0C
0B
0A
0@
0?
0>
0=
0<
0;
0:
09
08
07
06
05
04
$end
#10
b10100110101111 !
b111101000011011 "
1S
1R
1P
1O
1J
1H
1G
1F
1E
1C
1B
1A
1@
1'!
1>
1<
1;
18
16
1d
13!
1l
1I!
1U
1V
1X
0%!
11
1%
1&
1'
1(
1*
1/
10
12
13
0&!
1Y
1:!
1.
1,
1+
0(
0k
0G!
0&
0c
01!
1a
1i
0/
0#!
07!
1"!
1)!
1h
10!
1`
16!
0%
0_
04!
0'
0g
0.!
0X
0~
0(!
1}
0.
1e
12!
1]
1\
0d
03!
0b
1W
1-
1&
1c
1$
#20
b1000100000000 !
b1000100010001 "
0R
0P
0'!
1K
1@!
0J
0H
0I!
0F
0E
06!
0C
0B
0A
0@
0>
0)!
0<
08
17
1/!
06
02!
1d
1b
11!
0h
00!
0f
0l
0V
1X
1~
1(!
00
01
02
1%
1_
14!
0&
1(
1k
1G!
0*
0+
0v
0>!
1%!
1&!
0Y
0:!
1t
0i
0/!
0]
0}
1.
0,
0(
1'
1g
0a
1&
0`
0W
0\
1h
10!
1f
1.!
1T
1/
1#!
17!
0"!
1*
0e
0'
0g
0.!
0$
0-
0%
1e
0d
0X
0.
0&
1d
1&
#30
b1000000100010110 !
b1110011001110 "
0S
1R
1Q
1P
0O
1M
1L
0K
0@!
1I
1H
1B
1A
1?
07
14
0&!
1Y
1\
0h
00!
1(
1)
1+
1v
1>!
1,
1-
0/
10
11
12
03
0t
1'
1g
1.!
1$
1/
0e
0T
0*
0d
0&
#35
b100010010000010 !
b11101111001101 "
1S
0R
1K
1@!
1J
0I
1F
0A
0?
1<
0;
19
15
04
1&!
0Y
0\
1`
1p
0U
0@!
1V
1=!
1&
0)
1*
0+
0v
0>!
13
1t
0,
0y
0;!
1+
1v
1>!
1)
1%
0$
0/
0t
1w
1T
1C!
0*
0s
0A!
1U
1@!
0T
0C!
1*
1s
1A!
0+
0v
0>!
1q
1E!
0p
0n
0D!
1t
0q
0E!
1p
1n
1D!
1T
1C!
1m
0)
1l
1I!
0*
0s
0A!
0m
1)
0l
0I!
1q
1E!
0(
0k
0G!
1i
0p
0n
0D!
1(
1k
1G!
0i
1m
0)
1h
10!
0'
0g
0.!
1l
1I!
0h
00!
1'
1g
1.!
0(
0k
0G!
1e
1d
13!
1i
0e
0d
03!
1h
10!
0&
0c
01!
1a
15!
0'
0g
0.!
1&
1c
11!
0a
05!
1e
0`
0^
04!
1]
0%
1d
13!
1`
1^
14!
0]
1%
0&
0c
01!
1\
1$
1a
15!
0\
0$
0`
0^
04!
1]
0%
1\
1$
#40
b1000100101000011 !
b1111111111111111 "
1R
1O
1N
1I
1E
1D
1L!
1C
1=
0<
1;
1?!
09
0E!
18
1H!
05
05!
14
1K!
0\
0L!
0Z
0J!
1`
16!
1^
14!
0l
0I!
0j
1p
1F!
1n
1D!
0U
0@!
0u
0V
0=!
1W
1-!
0$
0[
1%
1)
1.
1/
0-
0|
0+!
1,
1y
1;!
1+
1v
0m
0H!
0)
0o
0D!
1(
1k
0]
0K!
0%
0_
04!
1#
1$
1[
1]
1K!
1\
1L!
1Z
1J!
1m
1H!
1l
1I!
1j
1G!
0w
0?!
1z
1V
1=!
1U
1@!
1u
1>!
0i
0(
0k
0G!
0l
0I!
0j
0#
0$
0[
0J!
0\
0L!
0Z
1$
1[
1#
1(
1k
1i
0h
00!
0t
0+
0v
0>!
0,
0y
0;!
1w
1?!
1t
0T
0C!
1'
1g
1.!
1h
10!
0'
0g
0.!
0e
1*
1s
1A!
1T
1C!
0U
0@!
0u
1+
1v
0*
0s
0A!
0q
0d
03!
1e
1d
13!
1&
1c
11!
0p
0F!
1q
1p
1F!
1)
1o
1D!
0a
0&
0c
01!
1a
0`
06!
0m
0H!
0)
0o
0D!
1m
1H!
1l
1I!
1j
1G!
1%
1_
14!
1`
16!
0%
0_
04!
0]
0K!
0i
0(
0k
0G!
0l
0I!
0j
1(
1k
1i
0h
00!
1\
1L!
1Z
1J!
1]
1K!
0\
0L!
0Z
0J!
0#
0$
0[
1'
1g
1.!
1h
10!
0'
0g
0.!
0e
1#
1$
1[
0d
03!
1e
1d
13!
1&
1c
11!
0a
0&
0c
01!
1a
0`
06!
1%
1_
14!
1`
16!
0%
0_
04!
0]
0K!
1\
1L!
1Z
1J!
1]
1K!
0\
0L!
0Z
0J!
0#
0$
0[
1#
1$
1[
#50
b1010101111001101 !
b0 "
0S
0R
0Q
0P
0O
0N
0M
0-!
0L
0=!
0K
0J
0C!
0I
0F!
0H
0G
00!
0F
03!
0E
06!
0D
0B
1A
1@
1<
1<!
1:
1B!
16
12!
0d
0b
0T
0r
0V
0x
02
0$
1%
1_
14!
1&
1c
1'
1g
1.!
0(
1)
1o
1D!
1*
1s
0+
1,
1y
1-
1|
1+!
0.
0/
0z
0<!
0m
0H!
0e
02!
0]
0K!
0,
0*
0&
1\
1Z
1J!
1d
1b
11!
1l
1j
1G!
1V
1x
1;!
0w
0?!
1,
0i
1(
0a
1&
0#
1$
0`
0h
1U
1u
1>!
0t
0B!
1+
0'
0%
1T
1r
1A!
0q
1*
0p
0)
#60
b0 !
b1001000110100 "
1Q
1O
1N
1J
1C!
1G
0C
0A
0@
0=
0<
0;
0:
08
06
04
0\
0d
0l
0T
0C!
0U
0V
0W
00
03
1'
0*
0s
0A!
1.
1/
1q
0-
0,
0+
1*
1s
1A!
0(
0&
0$
0q
1p
1)
0p
0)
#70
b1000100010001 !
b1110111010101010 "
1R
0Q
1P
0O
1L
1I
1H
0G
1F
1E
1D
1C
1?
1;
17
0&!
1Y
1h
1U
13
1$
1%
1&
0'
1(
1)
1,
0/
10
01
12
1+
1'
1/
#80
b101010101010101 !
b1010101010101010 "
0I
0E
1A
1=
19
15
1`
1p
1W
11
0%
0)
1-
1)
1%
#90
b1000000001010001 !
b1000000010000110 "
1Q
0P
0N
0J
0H
0F
0A
0;
09
07
05
14
1\
1L!
0`
0h
0p
0U
0&
0(
0*
0.
00
0+
0)
0'
0%
0$
0[
0J!
1#
#95
b1111101011011100 !
b11011100 "
0R
1P
1O
1:!
1M
1-!
0D
0L!
0C
1A
1@
19!
18!
1'!
1<
1:
18
17
16
15
1`
1d
1h
1l
1T
1V
1=!
0%!
0$!
07!
03
1$
1[
1J!
0-
0|
0+!
0/
0#!
10
02
1&!
0Y
0:!
1z
1<!
0#
1"!
0,
0y
0;!
1*
1(
1'
1&
1%
1w
1X
0V
0=!
0x
1/
1#!
1,
1y
1.
1U
1+
#100
b100000010010110 !
b10000001001000 "
0Q
0O
0L
1F
13!
1B
0@
09!
08!
0'!
0=
0:
08
07
06
04
0\
0d
03!
0h
0l
0T
0W
0-!
1%!
1$!
17!
12
0&
0c
01!
0,
0/
0&!
1Y
1a
15!
0"!
1-
1|
1+!
0*
0(
0'
1&
1c
11!
0$
0a
05!
0z
0<!
0X
0`
0^
04!
1/
1]
0%
0.
1V
1x
1;!
1`
1^
14!
0]
1%
0w
1,
1\
1$
0U
0\
0$
0+
#110
b1000000100100 !
b1000000110010010 "
1R
0P
1O
1:!
0M
1L
1=!
1K
0F
1D
0B
0?
1>
0<
17
05
1&!
0Y
0:!
0`
1h
0V
0=!
1X
1$
0&
1+
0,
0y
0;!
0-
0/
0#!
07!
00
1"!
1)!
1w
1.
1,
1y
1;!
1'
0%
1/
1#!
17!
0"!
0)!
0w
1U
1@!
0X
0~
0(!
1}
0.
0+
0v
0>!
0U
0@!
1X
1~
1(!
0}
1.
1+
1v
1>!
1t
1W
1-
1T
0t
0W
0-
0T
1*
0*
#210
b0 !
b1 "
1S
0R
0O
0L
0K
0D
0A
0>
07
0h
0X
01
0$
0+
0,
0/
02
13
0.
0'
