adders16/lower_part_or_carry_lookahead_adder16/snps/primetime/lower_part_or_carry_lookahead_adder16_gatesim.vcd
$date
	Tue Aug 18 17:16:03 2020
$end
$version
	ModelSim Version 6.6d
$end
$timescale
	1ns
$end
$scope module lower_part_or_carry_lookahead_adder16_tb $end
$var reg 16 ! add1_i [15:0] $end
$var reg 16 " add2_i [15:0] $end
$var wire 1 # result_o [16] $end
$var wire 1 $ result_o [15] $end
$var wire 1 % result_o [14] $end
$var wire 1 & result_o [13] $end
$var wire 1 ' result_o [12] $end
$var wire 1 ( result_o [11] $end
$var wire 1 ) result_o [10] $end
$var wire 1 * result_o [9] $end
$var wire 1 + result_o [8] $end
$var wire 1 , result_o [7] $end
$var wire 1 - result_o [6] $end
$var wire 1 . result_o [5] $end
$var wire 1 / result_o [4] $end
$var wire 1 0 result_o [3] $end
$var wire 1 1 result_o [2] $end
$var wire 1 2 result_o [1] $end
$var wire 1 3 result_o [0] $end
$scope module loacla $end
$var wire 1 4 add1_i [15] $end
$var wire 1 5 add1_i [14] $end
$var wire 1 6 add1_i [13] $end
$var wire 1 7 add1_i [12] $end
$var wire 1 8 add1_i [11] $end
$var wire 1 9 add1_i [10] $end
$var wire 1 : add1_i [9] $end
$var wire 1 ; add1_i [8] $end
$var wire 1 < add1_i [7] $end
$var wire 1 = add1_i [6] $end
$var wire 1 > add1_i [5] $end
$var wire 1 ? add1_i [4] $end
$var wire 1 @ add1_i [3] $end
$var wire 1 A add1_i [2] $end
$var wire 1 B add1_i [1] $end
$var wire 1 C add1_i [0] $end
$var wire 1 D add2_i [15] $end
$var wire 1 E add2_i [14] $end
$var wire 1 F add2_i [13] $end
$var wire 1 G add2_i [12] $end
$var wire 1 H add2_i [11] $end
$var wire 1 I add2_i [10] $end
$var wire 1 J add2_i [9] $end
$var wire 1 K add2_i [8] $end
$var wire 1 L add2_i [7] $end
$var wire 1 M add2_i [6] $end
$var wire 1 N add2_i [5] $end
$var wire 1 O add2_i [4] $end
$var wire 1 P add2_i [3] $end
$var wire 1 Q add2_i [2] $end
$var wire 1 R add2_i [1] $end
$var wire 1 S add2_i [0] $end
$var wire 1 # result_o [16] $end
$var wire 1 $ result_o [15] $end
$var wire 1 % result_o [14] $end
$var wire 1 & result_o [13] $end
$var wire 1 ' result_o [12] $end
$var wire 1 ( result_o [11] $end
$var wire 1 ) result_o [10] $end
$var wire 1 * result_o [9] $end
$var wire 1 + result_o [8] $end
$var wire 1 , result_o [7] $end
$var wire 1 - result_o [6] $end
$var wire 1 . result_o [5] $end
$var wire 1 / result_o [4] $end
$var wire 1 0 result_o [3] $end
$var wire 1 1 result_o [2] $end
$var wire 1 2 result_o [1] $end
$var wire 1 3 result_o [0] $end
$var wire 1 T n14 $end
$var wire 1 U n15 $end
$var wire 1 V n16 $end
$var wire 1 W n17 $end
$var wire 1 X n18 $end
$var wire 1 Y n19 $end
$var wire 1 Z n20 $end
$var wire 1 [ n21 $end
$var wire 1 \ n22 $end
$var wire 1 ] n23 $end
$var wire 1 ^ n24 $end
$var wire 1 _ n25 $end
$var wire 1 ` n26 $end
$var wire 1 a n27 $end
$var wire 1 b n28 $end
$var wire 1 c n29 $end
$var wire 1 d n30 $end
$var wire 1 e n31 $end
$var wire 1 f n32 $end
$var wire 1 g n33 $end
$var wire 1 h n34 $end
$var wire 1 i n35 $end
$var wire 1 j n36 $end
$var wire 1 k n37 $end
$var wire 1 l n38 $end
$var wire 1 m n39 $end
$var wire 1 n n40 $end
$var wire 1 o n41 $end
$var wire 1 p n42 $end
$var wire 1 q n43 $end
$var wire 1 r n44 $end
$var wire 1 s n45 $end
$var wire 1 t n46 $end
$var wire 1 u n47 $end
$var wire 1 v n48 $end
$var wire 1 w n49 $end
$var wire 1 x n50 $end
$var wire 1 y n51 $end
$var wire 1 z n52 $end
$var wire 1 { n53 $end
$var wire 1 | n54 $end
$var wire 1 } n55 $end
$var wire 1 ~ n56 $end
$var wire 1 !! n57 $end
$var wire 1 "! n58 $end
$var wire 1 #! n59 $end
$var wire 1 $! n60 $end
$var wire 1 %! n61 $end
$var wire 1 &! n62 $end
$var wire 1 '! n63 $end
$var wire 1 (! n64 $end
$var wire 1 )! n65 $end
$var wire 1 *! n66 $end
$var wire 1 +! n67 $end
$var wire 1 ,! n68 $end
$var wire 1 -! n69 $end
$var wire 1 .! n70 $end
$var wire 1 /! n71 $end
$var wire 1 0! n72 $end
$var wire 1 1! n73 $end
$var wire 1 2! n74 $end
$var wire 1 3! n75 $end
$scope module U63 $end
$var wire 1 V A $end
$var wire 1 W B $end
$var wire 1 * Z $end
$upscope $end
$scope module U64 $end
$var wire 1 J A $end
$var wire 1 : B $end
$var wire 1 W Z $end
$upscope $end
$scope module U65 $end
$var wire 1 X A $end
$var wire 1 Y B $end
$var wire 1 + Z $end
$upscope $end
$scope module U66 $end
$var wire 1 K A $end
$var wire 1 ; B $end
$var wire 1 Y Z $end
$upscope $end
$scope module U67 $end
$var wire 1 Z A $end
$var wire 1 [ B $end
$var wire 1 , Z $end
$upscope $end
$scope module U68 $end
$var wire 1 L A $end
$var wire 1 < B $end
$var wire 1 [ Z $end
$upscope $end
$scope module U69 $end
$var wire 1 \ A $end
$var wire 1 ] B $end
$var wire 1 - Z $end
$upscope $end
$scope module U70 $end
$var wire 1 M A $end
$var wire 1 = B $end
$var wire 1 ] Z $end
$upscope $end
$scope module U71 $end
$var wire 1 ^ A $end
$var wire 1 _ B $end
$var wire 1 . Z $end
$upscope $end
$scope module U72 $end
$var wire 1 N A $end
$var wire 1 > B $end
$var wire 1 _ Z $end
$upscope $end
$scope module U73 $end
$var wire 1 ` A $end
$var wire 1 a B $end
$var wire 1 / Z $end
$upscope $end
$scope module U74 $end
$var wire 1 O A $end
$var wire 1 ? B $end
$var wire 1 a Z $end
$upscope $end
$scope module U75 $end
$var wire 1 e A $end
$var wire 1 f B $end
$var wire 1 $ Z $end
$upscope $end
$scope module U76 $end
$var wire 1 D A $end
$var wire 1 4 B $end
$var wire 1 f Z $end
$upscope $end
$scope module U77 $end
$var wire 1 j A $end
$var wire 1 k B $end
$var wire 1 % Z $end
$upscope $end
$scope module U78 $end
$var wire 1 E A $end
$var wire 1 5 B $end
$var wire 1 k Z $end
$upscope $end
$scope module U79 $end
$var wire 1 o A $end
$var wire 1 p B $end
$var wire 1 & Z $end
$upscope $end
$scope module U80 $end
$var wire 1 F A $end
$var wire 1 6 B $end
$var wire 1 p Z $end
$upscope $end
$scope module U81 $end
$var wire 1 t A $end
$var wire 1 u B $end
$var wire 1 ' Z $end
$upscope $end
$scope module U82 $end
$var wire 1 G A $end
$var wire 1 7 B $end
$var wire 1 u Z $end
$upscope $end
$scope module U83 $end
$var wire 1 y A $end
$var wire 1 z B $end
$var wire 1 ( Z $end
$upscope $end
$scope module U84 $end
$var wire 1 H A $end
$var wire 1 8 B $end
$var wire 1 z Z $end
$upscope $end
$scope module U85 $end
$var wire 1 ~ A $end
$var wire 1 !! B $end
$var wire 1 ) Z $end
$upscope $end
$scope module U86 $end
$var wire 1 I A $end
$var wire 1 9 B $end
$var wire 1 !! Z $end
$upscope $end
$scope module U87 $end
$var wire 1 U A1 $end
$var wire 1 T A2 $end
$var wire 1 0 ZN $end
$var wire 1 4! i_10 $end
$upscope $end
$scope module U88 $end
$var wire 1 1! A1 $end
$var wire 1 2! A2 $end
$var wire 1 ^ ZN $end
$var wire 1 5! i_10 $end
$upscope $end
$scope module U89 $end
$var wire 1 O A1 $end
$var wire 1 ? A2 $end
$var wire 1 1! ZN $end
$var wire 1 6! i_10 $end
$upscope $end
$scope module U90 $end
$var wire 1 @ A1 $end
$var wire 1 3! A2 $end
$var wire 1 P A3 $end
$var wire 1 2! ZN $end
$var wire 1 7! i_8 $end
$var wire 1 8! i_9 $end
$upscope $end
$scope module U91 $end
$var wire 1 O A1 $end
$var wire 1 ? A2 $end
$var wire 1 3! ZN $end
$upscope $end
$scope module U92 $end
$var wire 1 .! A1 $end
$var wire 1 /! A2 $end
$var wire 1 \ ZN $end
$var wire 1 9! i_10 $end
$upscope $end
$scope module U93 $end
$var wire 1 > A1 $end
$var wire 1 ^ A2 $end
$var wire 1 .! ZN $end
$var wire 1 :! i_10 $end
$upscope $end
$scope module U94 $end
$var wire 1 N A1 $end
$var wire 1 0! A2 $end
$var wire 1 /! ZN $end
$var wire 1 ;! i_10 $end
$upscope $end
$scope module U95 $end
$var wire 1 ^ A1 $end
$var wire 1 > A2 $end
$var wire 1 0! ZN $end
$upscope $end
$scope module U96 $end
$var wire 1 +! A1 $end
$var wire 1 ,! A2 $end
$var wire 1 Z ZN $end
$var wire 1 <! i_10 $end
$upscope $end
$scope module U97 $end
$var wire 1 = A1 $end
$var wire 1 \ A2 $end
$var wire 1 +! ZN $end
$var wire 1 =! i_10 $end
$upscope $end
$scope module U98 $end
$var wire 1 M A1 $end
$var wire 1 -! A2 $end
$var wire 1 ,! ZN $end
$var wire 1 >! i_10 $end
$upscope $end
$scope module U99 $end
$var wire 1 \ A1 $end
$var wire 1 = A2 $end
$var wire 1 -! ZN $end
$upscope $end
$scope module U100 $end
$var wire 1 (! A1 $end
$var wire 1 )! A2 $end
$var wire 1 X ZN $end
$var wire 1 ?! i_10 $end
$upscope $end
$scope module U101 $end
$var wire 1 < A1 $end
$var wire 1 Z A2 $end
$var wire 1 (! ZN $end
$var wire 1 @! i_10 $end
$upscope $end
$scope module U102 $end
$var wire 1 L A1 $end
$var wire 1 *! A2 $end
$var wire 1 )! ZN $end
$var wire 1 A! i_10 $end
$upscope $end
$scope module U103 $end
$var wire 1 Z A1 $end
$var wire 1 < A2 $end
$var wire 1 *! ZN $end
$upscope $end
$scope module U104 $end
$var wire 1 %! A1 $end
$var wire 1 &! A2 $end
$var wire 1 V ZN $end
$var wire 1 B! i_10 $end
$upscope $end
$scope module U105 $end
$var wire 1 ; A1 $end
$var wire 1 X A2 $end
$var wire 1 %! ZN $end
$var wire 1 C! i_10 $end
$upscope $end
$scope module U106 $end
$var wire 1 K A1 $end
$var wire 1 '! A2 $end
$var wire 1 &! ZN $end
$var wire 1 D! i_10 $end
$upscope $end
$scope module U107 $end
$var wire 1 X A1 $end
$var wire 1 ; A2 $end
$var wire 1 '! ZN $end
$upscope $end
$scope module U108 $end
$var wire 1 "! A1 $end
$var wire 1 #! A2 $end
$var wire 1 ~ ZN $end
$var wire 1 E! i_10 $end
$upscope $end
$scope module U109 $end
$var wire 1 : A1 $end
$var wire 1 V A2 $end
$var wire 1 "! ZN $end
$var wire 1 F! i_10 $end
$upscope $end
$scope module U110 $end
$var wire 1 J A1 $end
$var wire 1 $! A2 $end
$var wire 1 #! ZN $end
$var wire 1 G! i_10 $end
$upscope $end
$scope module U111 $end
$var wire 1 V A1 $end
$var wire 1 : A2 $end
$var wire 1 $! ZN $end
$upscope $end
$scope module U112 $end
$var wire 1 { A1 $end
$var wire 1 | A2 $end
$var wire 1 y ZN $end
$var wire 1 H! i_10 $end
$upscope $end
$scope module U113 $end
$var wire 1 9 A1 $end
$var wire 1 ~ A2 $end
$var wire 1 { ZN $end
$var wire 1 I! i_10 $end
$upscope $end
$scope module U114 $end
$var wire 1 I A1 $end
$var wire 1 } A2 $end
$var wire 1 | ZN $end
$var wire 1 J! i_10 $end
$upscope $end
$scope module U115 $end
$var wire 1 ~ A1 $end
$var wire 1 9 A2 $end
$var wire 1 } ZN $end
$upscope $end
$scope module U116 $end
$var wire 1 v A1 $end
$var wire 1 w A2 $end
$var wire 1 t ZN $end
$var wire 1 K! i_10 $end
$upscope $end
$scope module U117 $end
$var wire 1 8 A1 $end
$var wire 1 y A2 $end
$var wire 1 v ZN $end
$var wire 1 L! i_10 $end
$upscope $end
$scope module U118 $end
$var wire 1 H A1 $end
$var wire 1 x A2 $end
$var wire 1 w ZN $end
$var wire 1 M! i_10 $end
$upscope $end
$scope module U119 $end
$var wire 1 y A1 $end
$var wire 1 8 A2 $end
$var wire 1 x ZN $end
$upscope $end
$scope module U120 $end
$var wire 1 q A1 $end
$var wire 1 r A2 $end
$var wire 1 o ZN $end
$var wire 1 N! i_10 $end
$upscope $end
$scope module U121 $end
$var wire 1 7 A1 $end
$var wire 1 t A2 $end
$var wire 1 q ZN $end
$var wire 1 O! i_10 $end
$upscope $end
$scope module U122 $end
$var wire 1 G A1 $end
$var wire 1 s A2 $end
$var wire 1 r ZN $end
$var wire 1 P! i_10 $end
$upscope $end
$scope module U123 $end
$var wire 1 t A1 $end
$var wire 1 7 A2 $end
$var wire 1 s ZN $end
$upscope $end
$scope module U124 $end
$var wire 1 l A1 $end
$var wire 1 m A2 $end
$var wire 1 j ZN $end
$var wire 1 Q! i_10 $end
$upscope $end
$scope module U125 $end
$var wire 1 6 A1 $end
$var wire 1 o A2 $end
$var wire 1 l ZN $end
$var wire 1 R! i_10 $end
$upscope $end
$scope module U126 $end
$var wire 1 F A1 $end
$var wire 1 n A2 $end
$var wire 1 m ZN $end
$var wire 1 S! i_10 $end
$upscope $end
$scope module U127 $end
$var wire 1 o A1 $end
$var wire 1 6 A2 $end
$var wire 1 n ZN $end
$upscope $end
$scope module U128 $end
$var wire 1 g A1 $end
$var wire 1 h A2 $end
$var wire 1 e ZN $end
$var wire 1 T! i_10 $end
$upscope $end
$scope module U129 $end
$var wire 1 5 A1 $end
$var wire 1 j A2 $end
$var wire 1 g ZN $end
$var wire 1 U! i_10 $end
$upscope $end
$scope module U130 $end
$var wire 1 E A1 $end
$var wire 1 i A2 $end
$var wire 1 h ZN $end
$var wire 1 V! i_10 $end
$upscope $end
$scope module U131 $end
$var wire 1 j A1 $end
$var wire 1 5 A2 $end
$var wire 1 i ZN $end
$upscope $end
$scope module U132 $end
$var wire 1 b A1 $end
$var wire 1 c A2 $end
$var wire 1 # ZN $end
$var wire 1 W! i_10 $end
$upscope $end
$scope module U133 $end
$var wire 1 4 A1 $end
$var wire 1 e A2 $end
$var wire 1 b ZN $end
$var wire 1 X! i_10 $end
$upscope $end
$scope module U134 $end
$var wire 1 D A1 $end
$var wire 1 d A2 $end
$var wire 1 c ZN $end
$var wire 1 Y! i_10 $end
$upscope $end
$scope module U135 $end
$var wire 1 e A1 $end
$var wire 1 4 A2 $end
$var wire 1 d ZN $end
$upscope $end
$scope module U136 $end
$var wire 1 T A1 $end
$var wire 1 U A2 $end
$var wire 1 ` ZN $end
$var wire 1 Z! i_10 $end
$upscope $end
$scope module U137 $end
$var wire 1 @ A $end
$var wire 1 T ZN $end
$upscope $end
$scope module U138 $end
$var wire 1 P A $end
$var wire 1 U ZN $end
$upscope $end
$scope module U139 $end
$var wire 1 C A1 $end
$var wire 1 S A2 $end
$var wire 1 3 ZN $end
$upscope $end
$scope module U140 $end
$var wire 1 B A1 $end
$var wire 1 R A2 $end
$var wire 1 2 ZN $end
$upscope $end
$scope module U141 $end
$var wire 1 A A1 $end
$var wire 1 Q A2 $end
$var wire 1 1 ZN $end
$upscope $end
$upscope $end
$upscope $end
$enddefinitions $end
#0
$dumpvars
b0 !
b0 "
03
02
01
00
0/
0.
0-
0,
0+
0*
0)
0(
0'
0&
0%
0$
0#
1T
1U
0V
0W
0X
0Y
0Z
0[
0\
0]
0^
0_
0`
0a
1b
1c
0d
0e
0f
1g
1h
0i
0j
0k
1l
1m
0n
0o
0p
1q
1r
0s
0t
0u
1v
1w
0x
0y
0z
1{
1|
0}
0~
0!!
1"!
1#!
0$!
1%!
1&!
0'!
1(!
1)!
0*!
1+!
1,!
0-!
1.!
1/!
00!
11!
12!
03!
14!
15!
06!
07!
08!
19!
0:!
0;!
1<!
0=!
0>!
1?!
0@!
0A!
1B!
0C!
0D!
1E!
0F!
0G!
1H!
0I!
0J!
1K!
0L!
0M!
1N!
0O!
0P!
1Q!
0R!
0S!
1T!
0U!
0V!
1W!
0X!
0Y!
1Z!
0S
0R
0Q
0P
0O
0N
0M
0L
0K
0J
0I
0H
0G
0F
0E
0D
0C
0B
0A
0@
0?
0>
0=
0<
0;
0:
09
08
07
06
05
04
$end
#10
b10100110101111 !
b111101000011011 "
1S
1R
1P
1O
1J
1H
1G
1F
1E
1C
1B
1A
1@
1>
1<
1;
18
16
1n
1S!
1x
1M!
1Y
1'!
1[
1*!
1_
10!
0T
04!
11
1k
1u
1W
1a
13!
18!
17!
0U
0Z!
12
13
1`
02!
05!
1/
1*
1'
1%
10
1.
1,
1+
0w
0K!
0m
0Q!
1j
1t
1^
1:!
0/
0.
0.!
09!
0'
1s
1P!
0%
1i
1V!
0h
0T!
0r
0N!
1\
1-
1-!
1o
1R!
1e
1$
1d
1&
0l
#20
b1000100000000 !
b1000100010001 "
0R
0P
07!
1K
1D!
0J
0H
0M!
0F
0S!
0E
0V!
0C
0B
0A
0@
08!
0>
0:!
0<
08
17
1O!
06
0R!
1l
0u
0q
0x
0[
0*!
0_
1.!
19!
1T
1Z!
01
02
0k
1h
1T!
1m
1Q!
1w
1K!
0W
0Y
0&!
0B!
12!
15!
1U
14!
00
0^
1V
0+
0*
0t
0O!
0j
0e
1%
0`
0\
1.
0,
1'
0-
0-!
1/
0$
0d
0%
0i
0'
1q
1*
1$!
0.
00!
#30
b1000000100010110 !
b1110011001110 "
0S
1R
1Q
1P
0O
1M
1L
0K
0D!
1I
1H
1B
1A
1?
07
14
1f
1d
1u
0s
0P!
1z
1!!
1Y
1&!
1B!
1[
1]
0U
04!
11
12
03
10
1-
1,
0V
1+
1)
1(
1r
1N!
1'
1$
0o
0*
0$!
0&
0n
#35
b100010010000010 !
b11101111001101 "
1S
0R
1K
1D!
1J
0I
1F
0A
0?
1<
0;
19
15
04
0f
0d
1k
1i
1}
0'!
0D!
0[
1*!
1A!
0a
03!
1p
1W
0&!
0B!
13
1V
1*
1&
0/
0)!
0?!
0,
1&!
1B!
1%
0$
0V
1X
0*
1$!
1G!
0#!
0E!
0+
1'!
1D!
1*
0$!
0G!
1#!
1E!
0&!
0B!
1~
1I!
0)
0{
0H!
1V
0~
0I!
1)
1{
1H!
0*
1$!
1G!
1y
0(
1x
1M!
0#!
0E!
0y
1(
0x
0M!
1~
1I!
0w
0K!
1t
0)
0{
0H!
1w
1K!
0t
1y
0'
1s
1P!
0r
0N!
0(
1x
1M!
1'
0s
0P!
1r
1N!
0w
0K!
1o
0&
1n
1S!
1t
0o
1&
0n
0S!
0'
1s
1P!
0m
0Q!
1j
1U!
0r
0N!
1m
1Q!
0j
0U!
1o
0%
0g
0T!
1e
0&
1n
1S!
1%
1g
1T!
0e
0m
0Q!
1$
1d
1j
1U!
0$
0d
0%
0g
0T!
1e
1$
1d
#40
b1000100101000011 !
b1111111111111111 "
1R
1O
1N
1I
1J!
1E
1V!
1D
1Y!
1C
1=
0<
1;
1C!
09
0I!
18
1L!
05
0U!
14
1X!
0b
0W!
1g
1T!
0z
0v
1{
1H!
0Y
0%!
1[
0*!
0A!
0]
1-!
1>!
0c
0h
0T!
0|
0H!
1_
1a
13!
1/
1.
0,!
0<!
0-
1)!
1?!
1,
1+
1(
1#
0X
0C!
1Z
0,
1*!
1A!
0+
1%!
0)!
0?!
1X
1C!
1+
0%!
#50
b1010101111001101 !
b0 "
0S
0R
0Q
0P
0O
0N
0M
0>!
0L
0A!
0K
0D!
0J
0G!
0I
0J!
0H
0M!
0G
0P!
0F
0S!
0E
0V!
0D
0Y!
0B
1A
1@
18!
1<
1@!
1:
1F!
16
1R!
0l
0"!
0(!
0T
0Z!
02
1f
1c
0k
1h
1T!
1m
0u
1r
1N!
1z
1w
0!!
1|
1H!
1#!
1Y
1&!
1)!
1]
1,!
1<!
0_
0a
03!
08!
1U
1Z!
0/
0.
0Z
0@!
1-
0+
0y
0L!
1)
0(
0o
0R!
1'
0e
0X!
1%
0$
1$
1b
1W!
1&
1l
1Q!
1(
1v
1K!
1,
1(!
1?!
0X
0C!
0t
0j
0#
0%
0i
0'
0s
1+
1%!
1B!
0V
0F!
1*
1"!
1E!
0~
0)
0}
#60
b0 !
b1001000110100 "
1Q
1O
1N
1J
1G!
1G
0C
0A
0@
0=
0<
0;
0:
08
06
04
0f
0d
0p
0n
0z
0x
0$!
0G!
0Y
0'!
0[
0*!
0]
0-!
1T
14!
03
1u
0#!
0E!
1_
1a
13!
1/
1.
1~
1'
00
0-
0,
0+
1#!
1E!
0(
0&
0$
0~
1)
1}
0)
0}
#70
b1000100010001 !
b1110111010101010 "
1R
0Q
1P
0O
1L
1I
1H
0G
1F
1E
1D
1C
1?
1;
17
1s
1Y
1'!
13
1f
1k
1p
1z
1!!
1[
0U
04!
01
12
10
1,
1)
1(
1&
1%
1$
1+
#80
b101010101010101 !
b1010101010101010 "
0I
0E
1A
1=
19
15
1i
1}
1]
1-!
11
1-
#90
b1000000001010001 !
b1000000010000110 "
1Q
0P
0N
0J
0H
0F
0A
0;
09
07
05
14
0f
1d
1Y!
0k
0i
0u
0s
0!!
0}
0Y
0'!
0p
0z
0W
0_
1U
14!
00
0.
0*
0(
0&
0+
0)
0'
0%
0c
0W!
0$
1#
#95
b1111101011011100 !
b11011100 "
0R
1P
1O
16!
1M
1>!
0D
0Y!
0C
1A
1@
18!
17!
1<
1:
18
17
16
15
1k
1i
1p
1n
1u
1s
1z
1x
1W
1$!
0[
1*!
1A!
02!
05!
0T
04!
03
1f
1c
1W!
0]
0,!
0<!
0a
01!
0U
0Z!
02
1`
0/
1Z
1@!
0-
0#
1$
10
1^
0)!
0?!
0,
1*
1(
1'
1&
1%
1X
1.
10!
1,
0(!
1/
1+
1'!
#100
b100000010010110 !
b10000001001000 "
0Q
0O
06!
0L
0A!
1F
1S!
1B
0@
08!
07!
0=
0:
08
07
06
04
0f
0d
0n
0S!
0u
0s
0z
0x
0W
0$!
1]
0-!
0>!
12!
1T
1Z!
12
0m
0Q!
1[
1)!
1a
11!
15!
0^
0/
0,
1j
1U!
0`
1,!
1<!
1-
0*
0(
0'
1m
1Q!
0$
0j
0U!
0Z
0@!
1/
0%
0g
0T!
0.
00!
1e
1,
1(!
1?!
1%
1g
1T!
0e
0X
1$
1d
0+
0'!
0$
0d
#110
b1000000100100 !
b1000000110010010 "
1R
0P
1O
16!
0M
1L
1A!
1K
0F
1D
0B
0?
06!
1>
0<
17
05
0k
0i
1u
1s
0*!
0A!
1_
10!
1f
0p
1Y
0)!
0?!
0]
1U
14!
00
0-
1X
1+
0&
1$
1.
1)!
1?!
1'
0%
0X
0+
1'!
1D!
0&!
0B!
1+
0'!
0D!
1&!
1B!
1V
1*
1$!
0V
0*
0$!
#210
b0 !
b1 "
1S
0R
0O
0L
0K
0D
0A
0>
07
0u
0s
0_
00!
01
0f
0Y
0[
0a
03!
02
13
0/
0,
0+
0$
0.
0'
