array_multiplier8/msim/presynth/transcript
# //  ModelSim SE-64 6.6d Nov  1 2010 Linux 2.6.32-754.31.1.el6.x86_64
# //
# //  Copyright 1991-2010 Mentor Graphics Corporation
# //              All Rights Reserved.
# //
# //  THIS WORK CONTAINS TRADE SECRET AND 
# //  PROPRIETARY INFORMATION WHICH IS THE PROPERTY
# //  OF MENTOR GRAPHICS CORPORATION OR ITS LICENSORS
# //  AND IS SUBJECT TO LICENSE TERMS.
# //
# Loading project am8
# reading /var/autofs/misc/cad/mentor/modelsim-6.6d/modeltech/linux_x86_64/../modelsim.ini
# Loading project am
# Compile of array_multiplier8.v was successful.
# Compile of array_multiplier8_tb.v was successful.
# Compile of full_adder_cell.v was successful.
# Compile of half_adder_cell.v was successful.
# 4 compiles, 0 failed with no errors. 
vsim -novopt simulation.array_multiplier8_tb
# vsim -novopt simulation.array_multiplier8_tb 
# Refreshing /home/nayakkk/multipliers/array_multiplier8/msim/presynth/simulation.array_multiplier8_tb
# Loading simulation.array_multiplier8_tb
# Refreshing /home/nayakkk/multipliers/array_multiplier8/msim/presynth/simulation.array_multiplier8
# Loading simulation.array_multiplier8
# Refreshing /home/nayakkk/multipliers/array_multiplier8/msim/presynth/simulation.half_adder_cell
# Loading simulation.half_adder_cell
# Refreshing /home/nayakkk/multipliers/array_multiplier8/msim/presynth/simulation.full_adder_cell
# Loading simulation.full_adder_cell
add wave sim:/array_multiplier8_tb/*
run
#                    0 operand1_i= 00, operand2_i = 00, result_o = 0000 
#                   10 operand1_i= 29, operand2_i = 7a, result_o = 138a 
#                   20 operand1_i= 11, operand2_i = 11, result_o = 0121 
#                   30 operand1_i= 81, operand2_i = 1c, result_o = 0e1c 
#                   50 operand1_i= 44, operand2_i = 3b, result_o = 0fac 
#                   70 operand1_i= 89, operand2_i = ff, result_o = 8877 
#                   80 operand1_i= ab, operand2_i = 00, result_o = 0000 
#                   90 operand1_i= 34, operand2_i = 12, result_o = 03a8 
run
#                  100 operand1_i= 11, operand2_i = 20, result_o = 0220 
#                  110 operand1_i= 55, operand2_i = aa, result_o = 3872 
#                  120 operand1_i= 80, operand2_i = 80, result_o = 4000 
#                  125 operand1_i= fa, operand2_i = 00, result_o = 0000 
#                  135 operand1_i= 40, operand2_i = 20, result_o = 0800 
#                  145 operand1_i= 24, operand2_i = 92, result_o = 1488 
#                  245 operand1_i= 00, operand2_i = 01, result_o = 0000 
# ** Note: $finish    : /home/nayakkk/multipliers/array_multiplier8/msim/presynth/array_multiplier8_tb.v(83)
#    Time: 345 ns  Iteration: 0  Instance: /array_multiplier8_tb
