adders16/equal_segmentation_adder16/msim/postsynth/equal_segmentation_adder16_simgate.vcd
$date
	Tue Aug 18 11:34:01 2020
$end
$version
	ModelSim Version 6.6d
$end
$timescale
	1ns
$end
$scope module equal_segmentation_adder16_tb $end
$var reg 16 ! add1_i [15:0] $end
$var reg 16 " add2_i [15:0] $end
$var wire 1 # result_o [16] $end
$var wire 1 $ result_o [15] $end
$var wire 1 % result_o [14] $end
$var wire 1 & result_o [13] $end
$var wire 1 ' result_o [12] $end
$var wire 1 ( result_o [11] $end
$var wire 1 ) result_o [10] $end
$var wire 1 * result_o [9] $end
$var wire 1 + result_o [8] $end
$var wire 1 , result_o [7] $end
$var wire 1 - result_o [6] $end
$var wire 1 . result_o [5] $end
$var wire 1 / result_o [4] $end
$var wire 1 0 result_o [3] $end
$var wire 1 1 result_o [2] $end
$var wire 1 2 result_o [1] $end
$var wire 1 3 result_o [0] $end
$scope module esa $end
$var wire 1 4 add1_i [15] $end
$var wire 1 5 add1_i [14] $end
$var wire 1 6 add1_i [13] $end
$var wire 1 7 add1_i [12] $end
$var wire 1 8 add1_i [11] $end
$var wire 1 9 add1_i [10] $end
$var wire 1 : add1_i [9] $end
$var wire 1 ; add1_i [8] $end
$var wire 1 < add1_i [7] $end
$var wire 1 = add1_i [6] $end
$var wire 1 > add1_i [5] $end
$var wire 1 ? add1_i [4] $end
$var wire 1 @ add1_i [3] $end
$var wire 1 A add1_i [2] $end
$var wire 1 B add1_i [1] $end
$var wire 1 C add1_i [0] $end
$var wire 1 D add2_i [15] $end
$var wire 1 E add2_i [14] $end
$var wire 1 F add2_i [13] $end
$var wire 1 G add2_i [12] $end
$var wire 1 H add2_i [11] $end
$var wire 1 I add2_i [10] $end
$var wire 1 J add2_i [9] $end
$var wire 1 K add2_i [8] $end
$var wire 1 L add2_i [7] $end
$var wire 1 M add2_i [6] $end
$var wire 1 N add2_i [5] $end
$var wire 1 O add2_i [4] $end
$var wire 1 P add2_i [3] $end
$var wire 1 Q add2_i [2] $end
$var wire 1 R add2_i [1] $end
$var wire 1 S add2_i [0] $end
$var wire 1 # result_o [16] $end
$var wire 1 $ result_o [15] $end
$var wire 1 % result_o [14] $end
$var wire 1 & result_o [13] $end
$var wire 1 ' result_o [12] $end
$var wire 1 ( result_o [11] $end
$var wire 1 ) result_o [10] $end
$var wire 1 * result_o [9] $end
$var wire 1 + result_o [8] $end
$var wire 1 , result_o [7] $end
$var wire 1 - result_o [6] $end
$var wire 1 . result_o [5] $end
$var wire 1 / result_o [4] $end
$var wire 1 0 result_o [3] $end
$var wire 1 1 result_o [2] $end
$var wire 1 2 result_o [1] $end
$var wire 1 3 result_o [0] $end
$var wire 1 T n28 $end
$var wire 1 U n29 $end
$var wire 1 V n30 $end
$var wire 1 W n31 $end
$var wire 1 X n32 $end
$var wire 1 Y n33 $end
$var wire 1 Z n34 $end
$var wire 1 [ n35 $end
$var wire 1 \ n36 $end
$var wire 1 ] n37 $end
$var wire 1 ^ n38 $end
$var wire 1 _ n39 $end
$var wire 1 ` n40 $end
$var wire 1 a n41 $end
$var wire 1 b n42 $end
$var wire 1 c n43 $end
$var wire 1 d n44 $end
$var wire 1 e n45 $end
$var wire 1 f n46 $end
$var wire 1 g n47 $end
$var wire 1 h n48 $end
$var wire 1 i n49 $end
$var wire 1 j n50 $end
$var wire 1 k n51 $end
$var wire 1 l n52 $end
$var wire 1 m n53 $end
$var wire 1 n n54 $end
$var wire 1 o n55 $end
$var wire 1 p n56 $end
$var wire 1 q n57 $end
$var wire 1 r n58 $end
$var wire 1 s n59 $end
$var wire 1 t n60 $end
$var wire 1 u n61 $end
$var wire 1 v n62 $end
$var wire 1 w n63 $end
$var wire 1 x n64 $end
$var wire 1 y n65 $end
$var wire 1 z n66 $end
$var wire 1 { n67 $end
$var wire 1 | n68 $end
$var wire 1 } n69 $end
$upscope $end
$upscope $end
$enddefinitions $end
#0
$dumpvars
b0 !
b0 "
03
02
01
00
0/
0.
0-
0,
0+
0*
0)
0(
0'
0&
0%
0$
0#
0T
0U
0V
1W
1X
0Y
0Z
1[
1\
0]
1^
0_
0`
1a
1b
0c
0d
1e
1f
0g
1h
1i
1j
0k
0l
1m
1n
0o
0p
1q
1r
0s
1t
0u
0v
1w
1x
0y
0z
1{
1|
1}
0S
0R
0Q
0P
0O
0N
0M
0L
0K
0J
0I
0H
0G
0F
0E
0D
0C
0B
0A
0@
0?
0>
0=
0<
0;
0:
09
08
07
06
05
04
$end
#10
b10100110101111 !
b111101000011011 "
1S
1R
1P
1O
1J
1H
1G
1F
1E
1C
1B
1A
1@
1>
1<
1;
18
16
1g
1]
1s
1+
1V
1c
0f
0h
1%
1&
1'
1*
1/
12
0g
1d
11
1,
0&
0q
1.
02
0e
1p
0c
0a
12
1e
1_
01
1o
0%
0n
10
1l
1k
1$
#20
b1000100000000 !
b1000100010001 "
0R
0P
1K
0J
0H
0F
0E
0C
0B
0A
0@
0>
0<
08
17
06
1g
0]
0s
0'
0t
0V
1c
1a
13
1h
1f
1%
1n
1&
1q
0*
0+
0}
02
1s
0g
1T
0p
0l
0d
0_
11
0,
0&
0.
12
00
0c
0k
0o
1*
02
1&
0%
0$
01
#30
b1000000100010110 !
b1110011001110 "
0S
1R
1Q
1P
0O
1M
1L
0K
1I
1H
1B
1A
1?
07
14
1g
1k
1'
1t
1c
1v
1)
1+
1}
1V
1-
1`
11
12
03
0s
0T
10
1,
1(
01
0b
1$
02
0e
1d
1_
0*
0&
00
0c
0a
11
1b
#35
b100010010000010 !
b11101111001101 "
1S
0R
1K
1J
0I
1F
0A
0?
1<
0;
19
15
04
0k
1o
1y
0V
0/
1c
1a
1&
0)
1*
12
1e
13
0d
0_
01
0b
0,
1)
1%
0$
1_
10
0c
11
1b
00
0_
10
#37
b1000100101000011 !
b1111111111111111 "
1R
1O
1N
1I
1E
1D
1C
1=
0<
1;
09
18
05
14
1k
0o
0v
0y
0+
0}
1V
1Y
03
0h
0f
1$
0%
0n
0)
0x
1.
1/
02
0e
1T
0g
1u
1l
1d
0-
0X
1,
1)
1x
0(
1%
1n
0$
0j
1#
0l
0u
1U
1c
0k
0i
1(
12
1e
0*
0{
1z
1$
1j
01
0b
0,
0(
1k
1i
0#
0$
0j
1_
1y
0)
0x
00
1#
1u
1(
#47
b1010101111001101 !
b0 "
0S
0R
0Q
0P
0O
0N
0M
0L
0K
0J
0I
0H
0G
0F
0E
0D
0B
1A
1@
1<
1:
16
1g
0T
1s
0c
0a
1$
1j
0%
0&
0'
1v
1)
1x
1*
1{
1+
1}
1-
1X
0.
0/
11
1b
02
13
1h
1f
1T
0g
0d
0U
0z
0u
0(
0#
01
1&
0*
12
1(
0y
1,
1c
1a
02
1*
0_
11
0)
10
#57
b0 !
b1001000110100 "
1Q
1O
1N
1J
1G
0C
0A
0@
0=
0<
0;
0:
08
06
04
0T
0s
0k
0v
0+
0V
0Y
0`
0c
03
1'
0*
0{
1.
1/
01
0b
1_
1z
11
1b
00
0-
0,
0(
0$
0&
1*
1{
0z
0_
1y
10
1)
00
0y
0)
#67
b1000100010001 !
b1110111010101010 "
1R
0Q
1P
0O
1L
1I
1H
0G
1F
1E
1D
1C
1?
1;
17
1+
13
1$
1%
1&
1v
1)
1V
1`
01
12
10
1,
1(
#77
b101010101010101 !
b1010101010101010 "
0I
0E
1A
1=
19
15
1o
1y
1Y
1c
0%
0)
11
1-
1)
1%
#87
b1000000001010001 !
b1000000010000110 "
1Q
0P
0N
0J
0H
0F
0A
0;
09
07
05
14
1k
0o
0'
0y
0+
0c
0&
0v
0*
0.
0`
01
0b
1_
00
0(
11
1b
0)
0%
0$
0j
1#
0_
10
00
#92
b1111101011011100 !
b11011100 "
0R
1P
1O
1M
0D
0C
1A
1@
1<
1:
18
17
16
15
1T
1s
1o
1'
1v
0V
1c
03
1$
1j
0-
0X
0/
0^
02
1]
1U
0#
01
0b
0,
1(
1%
1&
1*
1_
1,
1.
10
#97
b100000010010110 !
b10000001001000 "
0Q
0O
0L
1F
1B
0@
0=
0:
08
07
06
04
1g
0T
0s
0k
0'
0v
0Y
1`
0&
0q
1V
1/
1^
11
1b
0]
0_
0,
1p
00
1-
1X
0(
0$
1&
1q
0*
12
0p
0U
0o
0m
10
0.
1l
0%
1,
1o
1m
0l
1%
1k
1$
0k
0$
#107
b1000000100100 !
b1000000110010010 "
1R
0P
1O
0M
1L
1K
0F
1D
0B
0?
1>
0<
17
05
0g
1]
0o
1'
1$
0&
1+
0-
0`
02
0e
1d
00
0%
1.
12
1e
0d
0c
0a
1_
01
1c
1a
0_
11
10
00
#207
b0 !
b1 "
1S
0R
0O
0L
0K
0D
0A
0>
07
0]
0'
0c
0$
0+
0V
0/
02
13
0,
01
0.
