adders16/carry_lookahead_adder16/msim/postsynth/carry_lookahead_adder16_simgate.vcd
$date
	Mon Aug 17 17:38:56 2020
$end
$version
	ModelSim Version 6.6d
$end
$timescale
	1ns
$end
$scope module carry_lookahead_adder16_tb $end
$var reg 16 ! add1_i [15:0] $end
$var reg 16 " add2_i [15:0] $end
$var wire 1 # result_o [16] $end
$var wire 1 $ result_o [15] $end
$var wire 1 % result_o [14] $end
$var wire 1 & result_o [13] $end
$var wire 1 ' result_o [12] $end
$var wire 1 ( result_o [11] $end
$var wire 1 ) result_o [10] $end
$var wire 1 * result_o [9] $end
$var wire 1 + result_o [8] $end
$var wire 1 , result_o [7] $end
$var wire 1 - result_o [6] $end
$var wire 1 . result_o [5] $end
$var wire 1 / result_o [4] $end
$var wire 1 0 result_o [3] $end
$var wire 1 1 result_o [2] $end
$var wire 1 2 result_o [1] $end
$var wire 1 3 result_o [0] $end
$scope module cla $end
$var wire 1 4 add1_i [15] $end
$var wire 1 5 add1_i [14] $end
$var wire 1 6 add1_i [13] $end
$var wire 1 7 add1_i [12] $end
$var wire 1 8 add1_i [11] $end
$var wire 1 9 add1_i [10] $end
$var wire 1 : add1_i [9] $end
$var wire 1 ; add1_i [8] $end
$var wire 1 < add1_i [7] $end
$var wire 1 = add1_i [6] $end
$var wire 1 > add1_i [5] $end
$var wire 1 ? add1_i [4] $end
$var wire 1 @ add1_i [3] $end
$var wire 1 A add1_i [2] $end
$var wire 1 B add1_i [1] $end
$var wire 1 C add1_i [0] $end
$var wire 1 D add2_i [15] $end
$var wire 1 E add2_i [14] $end
$var wire 1 F add2_i [13] $end
$var wire 1 G add2_i [12] $end
$var wire 1 H add2_i [11] $end
$var wire 1 I add2_i [10] $end
$var wire 1 J add2_i [9] $end
$var wire 1 K add2_i [8] $end
$var wire 1 L add2_i [7] $end
$var wire 1 M add2_i [6] $end
$var wire 1 N add2_i [5] $end
$var wire 1 O add2_i [4] $end
$var wire 1 P add2_i [3] $end
$var wire 1 Q add2_i [2] $end
$var wire 1 R add2_i [1] $end
$var wire 1 S add2_i [0] $end
$var wire 1 # result_o [16] $end
$var wire 1 $ result_o [15] $end
$var wire 1 % result_o [14] $end
$var wire 1 & result_o [13] $end
$var wire 1 ' result_o [12] $end
$var wire 1 ( result_o [11] $end
$var wire 1 ) result_o [10] $end
$var wire 1 * result_o [9] $end
$var wire 1 + result_o [8] $end
$var wire 1 , result_o [7] $end
$var wire 1 - result_o [6] $end
$var wire 1 . result_o [5] $end
$var wire 1 / result_o [4] $end
$var wire 1 0 result_o [3] $end
$var wire 1 1 result_o [2] $end
$var wire 1 2 result_o [1] $end
$var wire 1 3 result_o [0] $end
$var wire 1 T n61 $end
$var wire 1 U n62 $end
$var wire 1 V n63 $end
$var wire 1 W n64 $end
$var wire 1 X n65 $end
$var wire 1 Y n66 $end
$var wire 1 Z n67 $end
$var wire 1 [ n68 $end
$var wire 1 \ n69 $end
$var wire 1 ] n70 $end
$var wire 1 ^ n71 $end
$var wire 1 _ n72 $end
$var wire 1 ` n73 $end
$var wire 1 a n74 $end
$var wire 1 b n75 $end
$var wire 1 c n76 $end
$var wire 1 d n77 $end
$var wire 1 e n78 $end
$var wire 1 f n79 $end
$var wire 1 g n80 $end
$var wire 1 h n81 $end
$var wire 1 i n82 $end
$var wire 1 j n83 $end
$var wire 1 k n84 $end
$var wire 1 l n85 $end
$var wire 1 m n86 $end
$var wire 1 n n87 $end
$var wire 1 o n88 $end
$var wire 1 p n89 $end
$var wire 1 q n90 $end
$var wire 1 r n91 $end
$var wire 1 s n92 $end
$var wire 1 t n93 $end
$var wire 1 u n94 $end
$var wire 1 v n95 $end
$var wire 1 w n96 $end
$var wire 1 x n97 $end
$var wire 1 y n98 $end
$var wire 1 z n99 $end
$var wire 1 { n100 $end
$var wire 1 | n101 $end
$var wire 1 } n102 $end
$var wire 1 ~ n103 $end
$var wire 1 !! n104 $end
$var wire 1 "! n105 $end
$var wire 1 #! n106 $end
$var wire 1 $! n107 $end
$var wire 1 %! n108 $end
$var wire 1 &! n109 $end
$var wire 1 '! n110 $end
$var wire 1 (! n111 $end
$var wire 1 )! n112 $end
$var wire 1 *! n113 $end
$var wire 1 +! n114 $end
$var wire 1 ,! n115 $end
$var wire 1 -! n116 $end
$var wire 1 .! n117 $end
$var wire 1 /! n118 $end
$var wire 1 0! n119 $end
$var wire 1 1! n120 $end
$var wire 1 2! n121 $end
$var wire 1 3! n122 $end
$var wire 1 4! n123 $end
$var wire 1 5! n124 $end
$var wire 1 6! n125 $end
$var wire 1 7! n126 $end
$var wire 1 8! n127 $end
$var wire 1 9! n128 $end
$var wire 1 :! n129 $end
$var wire 1 ;! n130 $end
$var wire 1 <! n131 $end
$var wire 1 =! n132 $end
$var wire 1 >! n133 $end
$var wire 1 ?! n134 $end
$var wire 1 @! n135 $end
$var wire 1 A! n136 $end
$upscope $end
$upscope $end
$enddefinitions $end
#0
$dumpvars
b0 !
b0 "
13
02
01
00
0/
0.
0-
0,
0+
0*
0)
0(
0'
0&
0%
0$
0#
0T
0U
0V
0W
0X
0Y
0Z
0[
0\
0]
0^
0_
0`
0a
0b
0c
0d
0e
1f
1g
0h
0i
0j
1k
1l
0m
0n
0o
1p
1q
0r
0s
0t
1u
1v
0w
0x
0y
1z
1{
0|
0}
0~
1!!
1"!
0#!
0$!
0%!
1&!
1'!
0(!
1)!
1*!
0+!
1,!
1-!
0.!
1/!
10!
01!
12!
13!
04!
15!
16!
07!
18!
19!
0:!
1;!
1<!
0=!
1>!
1?!
0@!
1A!
0S
0R
0Q
0P
0O
0N
0M
0L
0K
0J
0I
0H
0G
0F
0E
0D
0C
0B
0A
0@
0?
0>
0=
0<
0;
0:
09
08
07
06
05
04
$end
#10
b10100110101111 !
b111101000011011 "
1S
1R
1P
1O
1J
1H
1G
1F
1E
1C
1B
1A
1@
1>
1<
1;
18
16
1r
1|
1W
1+!
1Y
1.!
1]
14!
1:!
1c
1=!
1@!
0A!
1o
1y
1U
1_
1d
12
0>!
1/
1*
1'
1%
0?!
11
09!
1.
1,
1+
0{
0q
1n
1x
1^
1b
01
0;!
0/
17!
0'
1w
0%
1m
0l
0v
06!
1`
10
08!
1\
1s
1i
1$
1h
1&
0p
0.
02!
1Z
1-
11!
#20
b1000100000000 !
b1000100010001 "
0R
0P
1K
0J
0H
0F
0E
0C
0B
0A
0@
0>
0<
08
17
06
1p
0y
0u
0|
0Y
0.!
0]
12!
18!
0c
1;!
1>!
1A!
0o
1l
1q
1{
0U
0W
0*!
19!
1?!
0b
0^
1T
0+
0*
0x
0n
0i
1%
03
0`
11
0Z
1.
0,
1'
0-
01!
00
0:!
0$
0h
0%
0m
0'
1u
1*
1(!
1/
07!
01
0=!
16!
0\
0.
04!
#30
b1000000100010110 !
b1110011001110 "
0S
1R
1Q
1P
0O
1M
1L
0K
1I
1H
1B
1A
1?
07
14
1j
1h
1y
0w
17!
1=!
0>!
1~
1%!
1W
1*!
1Y
1[
1a
0?!
0d
02
1>!
13
10
1-
1,
0T
1+
1)
1(
1b
0<!
1v
1'
1$
0s
1`
11
0;!
0*
0(!
00
1:!
0&
0r
09!
1^
0/
05!
1\
1.
14!
#35
b100010010000010 !
b11101111001101 "
1S
0R
1K
1J
0I
1F
0A
0?
1<
0;
19
15
04
0j
0h
1o
1m
1#!
0+!
0Y
1.!
0_
15!
1c
1;!
1t
1U
0*!
1e
1?!
1d
0>!
03
0b
1T
1*
1&
01
0\
1/
0-!
0,
1*!
1%
0$
0T
1V
0.
04!
0*
1(!
11
0=!
1b
01
1=!
1<!
0'!
0+
1+!
1*
0(!
1'!
0*!
1$!
0`
0<!
1`
10
0:!
0)
0!!
1T
0$!
1)
1!!
0*
1(!
1}
19!
00
1:!
09!
0^
0(
1|
0'!
0}
1(
0|
1$!
0{
0/
07!
1^
1/
17!
1x
0)
0!!
1{
0x
1}
0'
1w
0v
0(
1|
1'
0w
1v
0{
1s
0&
1r
1x
0s
1&
0r
0'
1w
0q
1n
0v
1q
0n
1s
0%
0k
1i
0&
1r
1%
1k
0i
0q
1$
1h
1n
0$
0h
0%
0k
1i
1$
1h
#37
b1000100101000011 !
b1111111111111111 "
1R
1O
1N
1I
1E
1D
1C
1=
0<
1;
09
18
05
14
0f
1k
0~
0z
1!!
0W
0)!
1Y
0.!
0[
11!
0A!
0g
0l
0"!
1]
1_
06!
0e
0?!
12
1\
0/
1.
13
00!
0-
1-!
1,
1+
1(
1#
0V
1X
0.
14!
03!
0,
1.!
0+
1)!
0-!
1Z
1-
0/!
1V
1+
0)!
#47
b1010101111001101 !
b0 "
0S
0R
0Q
0P
0O
0N
0M
0L
0K
0J
0I
0H
0G
0F
0E
0D
0B
1A
1@
1<
1:
16
0p
0&!
0,!
08!
0;!
1>!
1j
1g
0o
1l
1q
0y
1v
1~
1{
0%!
1"!
1'!
1W
1*!
1-!
1[
10!
0]
13!
0_
16!
19!
1<!
1?!
1A!
03
0b
0\
1/
0Z
1.
0-
0+
0}
1)
0(
0s
1'
0i
1%
0$
1$
1f
1&
1p
1(
1z
1-
1/!
0.
04!
11
1;!
0`
0X
0x
0n
0#
0%
0m
0'
0w
1,
1,!
10
18!
0^
0V
1+
1)!
0/
07!
0T
1*
1&!
0$!
0)
0#!
#57
b0 !
b1001000110100 "
1Q
1O
1N
1J
1G
0C
0A
0@
0=
0<
0;
0:
08
06
04
0j
0h
0t
0r
0~
0|
0(!
0W
0+!
0Y
0.!
0[
01!
0a
0:!
0=!
0d
1y
0'!
1]
1_
0<!
1`
1/
1.
1$!
1'
02
0@!
13
1<!
00
0-
0,
0+
1'!
0(
0&
0$
0$!
0`
1)
1#!
10
1:!
00
0:!
0)
0#!
#67
b1000100010001 !
b1110111010101010 "
1R
0Q
1P
0O
1L
1I
1H
0G
1F
1E
1D
1C
1?
1;
17
1w
1W
1+!
17!
1d
1j
1o
1t
1~
1%!
1Y
1a
0c
1e
01
10
1,
1)
1(
1&
1%
1$
1@!
03
1+
0?!
1b
11
1=!
#77
b101010101010101 !
b1010101010101010 "
0I
0E
1A
1=
19
15
1m
1#!
1[
11!
1c
0;!
1`
01
1-
00
1:!
09!
1^
0/
05!
1\
0.
14!
03!
1Z
0-
0/!
1X
0,
1.!
0-!
1V
0+
0)!
1T
0*
1(!
0'!
1$!
0)
0!!
1}
0(
1|
0{
1x
0'
0u
1s
0&
1r
0q
1n
0%
0k
1i
0$
1h
0g
1#
#87
b1000000001010001 !
b1000000010000110 "
1Q
0P
0N
0J
0H
0F
0A
0;
09
07
05
14
0j
0f
0o
1k
0y
1u
0%!
1!!
0W
1)!
1;!
0t
1q
0~
1{
0U
1'!
0]
13!
0a
19!
0<!
0^
10
0Z
1.
0$!
1*
0x
1(
0n
1&
0T
1+
0}
1)
0s
1'
0i
1%
1$
0$
1f
0&
0r
0(
0|
0*
0(!
0%
0m
0'
0w
0)
0#!
1-
1/!
1/
15!
0\
0X
1,
0.!
0.
04!
1-!
0V
0+
0+!
#92
b1111101011011100 !
b11011100 "
0R
1P
1O
1M
0D
0C
1A
1@
1<
1:
18
17
16
15
1o
1m
1t
1r
1y
1w
1~
1|
1U
1(!
0Y
1.!
08!
0c
0;!
0d
1j
1g
0[
00!
0_
06!
09!
0e
1?!
0b
1\
0/
1X
0-
0#
1$
0@!
13
11
1^
0-!
0,
1*
1(
1'
1&
1%
1V
1/
05!
1,
0,!
1.
14!
01
1;!
1+
1+!
#94
b100000010010110 !
b10000001001000 "
0Q
0O
0L
1F
1B
0@
0=
0:
08
07
06
04
0j
0h
0r
0y
0w
0~
0|
0U
0(!
1[
01!
1a
18!
1e
1@!
0q
1Y
1-!
1_
16!
1c
1<!
0`
11
0/
0,
1n
12
00
10!
1-
0*
0(
0'
1q
0$
0n
0X
0%
0k
10
0:!
19!
1i
1,
1,!
1%
1k
0i
0V
1$
1h
0^
1/
15!
0+
0+!
0$
0h
0\
0.
04!
#104
b1000000100100 !
b1000000110010010 "
1R
0P
1O
0M
1L
1K
0F
1D
0B
0?
1>
0<
17
05
0o
0m
1y
1w
0.!
1]
14!
07!
0@!
1j
0t
1W
0-!
0[
06!
0a
0?!
1b
00
1\
0-
1V
1+
0&
1$
1?!
16!
1.
1-!
1'
0%
0V
0\
0b
0+
1+!
0.
02!
01
0;!
1`
1Z
0*!
11
1;!
1.
12!
1+
0+!
1*!
0Z
0`
1T
1-
11!
10
1:!
1*
1(!
00
0:!
0-
01!
0T
0*
0(!
#204
b0 !
b1 "
1S
0R
0O
0L
0K
0D
0A
0>
07
0y
0w
0]
04!
0c
0=!
0j
0W
0Y
0_
0e
1d
1@!
03
0/
0,
0+
0$
01
0.
0'
