adders/xnor_based_carry_lookahead_adder16/msim/postsynth/xnor_based_carry_lookahead_adder16_gatesim.vcd
$date
	Wed Aug 19 11:52:05 2020
$end
$version
	ModelSim Version 6.6d
$end
$timescale
	1ns
$end
$scope module xnor_based_carry_lookahead_adder16_tb $end
$var reg 16 ! add1_i [15:0] $end
$var reg 16 " add2_i [15:0] $end
$var wire 1 # result_o [16] $end
$var wire 1 $ result_o [15] $end
$var wire 1 % result_o [14] $end
$var wire 1 & result_o [13] $end
$var wire 1 ' result_o [12] $end
$var wire 1 ( result_o [11] $end
$var wire 1 ) result_o [10] $end
$var wire 1 * result_o [9] $end
$var wire 1 + result_o [8] $end
$var wire 1 , result_o [7] $end
$var wire 1 - result_o [6] $end
$var wire 1 . result_o [5] $end
$var wire 1 / result_o [4] $end
$var wire 1 0 result_o [3] $end
$var wire 1 1 result_o [2] $end
$var wire 1 2 result_o [1] $end
$var wire 1 3 result_o [0] $end
$scope module xcla $end
$var wire 1 4 add1_i [15] $end
$var wire 1 5 add1_i [14] $end
$var wire 1 6 add1_i [13] $end
$var wire 1 7 add1_i [12] $end
$var wire 1 8 add1_i [11] $end
$var wire 1 9 add1_i [10] $end
$var wire 1 : add1_i [9] $end
$var wire 1 ; add1_i [8] $end
$var wire 1 < add1_i [7] $end
$var wire 1 = add1_i [6] $end
$var wire 1 > add1_i [5] $end
$var wire 1 ? add1_i [4] $end
$var wire 1 @ add1_i [3] $end
$var wire 1 A add1_i [2] $end
$var wire 1 B add1_i [1] $end
$var wire 1 C add1_i [0] $end
$var wire 1 D add2_i [15] $end
$var wire 1 E add2_i [14] $end
$var wire 1 F add2_i [13] $end
$var wire 1 G add2_i [12] $end
$var wire 1 H add2_i [11] $end
$var wire 1 I add2_i [10] $end
$var wire 1 J add2_i [9] $end
$var wire 1 K add2_i [8] $end
$var wire 1 L add2_i [7] $end
$var wire 1 M add2_i [6] $end
$var wire 1 N add2_i [5] $end
$var wire 1 O add2_i [4] $end
$var wire 1 P add2_i [3] $end
$var wire 1 Q add2_i [2] $end
$var wire 1 R add2_i [1] $end
$var wire 1 S add2_i [0] $end
$var wire 1 # result_o [16] $end
$var wire 1 $ result_o [15] $end
$var wire 1 % result_o [14] $end
$var wire 1 & result_o [13] $end
$var wire 1 ' result_o [12] $end
$var wire 1 ( result_o [11] $end
$var wire 1 ) result_o [10] $end
$var wire 1 * result_o [9] $end
$var wire 1 + result_o [8] $end
$var wire 1 , result_o [7] $end
$var wire 1 - result_o [6] $end
$var wire 1 . result_o [5] $end
$var wire 1 / result_o [4] $end
$var wire 1 0 result_o [3] $end
$var wire 1 1 result_o [2] $end
$var wire 1 2 result_o [1] $end
$var wire 1 3 result_o [0] $end
$var wire 1 T n63 $end
$var wire 1 U n64 $end
$var wire 1 V n65 $end
$var wire 1 W n66 $end
$var wire 1 X n67 $end
$var wire 1 Y n68 $end
$var wire 1 Z n69 $end
$var wire 1 [ n70 $end
$var wire 1 \ n71 $end
$var wire 1 ] n72 $end
$var wire 1 ^ n73 $end
$var wire 1 _ n74 $end
$var wire 1 ` n75 $end
$var wire 1 a n77 $end
$var wire 1 b n79 $end
$var wire 1 c n80 $end
$var wire 1 d n81 $end
$var wire 1 e n82 $end
$var wire 1 f n83 $end
$var wire 1 g n84 $end
$var wire 1 h n85 $end
$var wire 1 i n86 $end
$var wire 1 j n87 $end
$var wire 1 k n88 $end
$var wire 1 l n89 $end
$var wire 1 m n90 $end
$var wire 1 n n91 $end
$var wire 1 o n92 $end
$var wire 1 p n93 $end
$var wire 1 q n94 $end
$var wire 1 r n95 $end
$var wire 1 s n96 $end
$var wire 1 t n97 $end
$var wire 1 u n98 $end
$var wire 1 v n99 $end
$var wire 1 w n100 $end
$var wire 1 x n101 $end
$var wire 1 y n102 $end
$var wire 1 z n103 $end
$var wire 1 { n104 $end
$var wire 1 | n105 $end
$var wire 1 } n106 $end
$var wire 1 ~ n107 $end
$var wire 1 !! n108 $end
$var wire 1 "! n109 $end
$var wire 1 #! n110 $end
$var wire 1 $! n111 $end
$var wire 1 %! n112 $end
$var wire 1 &! n113 $end
$var wire 1 '! n114 $end
$var wire 1 (! n115 $end
$var wire 1 )! n116 $end
$var wire 1 *! n117 $end
$var wire 1 +! n118 $end
$var wire 1 ,! n119 $end
$var wire 1 -! n120 $end
$var wire 1 .! n121 $end
$var wire 1 /! n122 $end
$var wire 1 0! n123 $end
$var wire 1 1! n124 $end
$var wire 1 2! n125 $end
$var wire 1 3! n126 $end
$var wire 1 4! n127 $end
$var wire 1 5! n128 $end
$var wire 1 6! n129 $end
$var wire 1 7! n130 $end
$var wire 1 8! n131 $end
$var wire 1 9! n132 $end
$var wire 1 :! n133 $end
$var wire 1 ;! n134 $end
$var wire 1 <! n135 $end
$var wire 1 =! n136 $end
$var wire 1 >! n137 $end
$var wire 1 ?! n138 $end
$var wire 1 @! n139 $end
$var wire 1 A! n140 $end
$var wire 1 B! n141 $end
$upscope $end
$upscope $end
$enddefinitions $end
#0
$dumpvars
b0 !
b0 "
13
02
01
00
0/
0.
0-
0,
0+
0*
0)
0(
0'
0&
0%
0$
0#
0T
0U
0V
0W
0X
0Y
0Z
0[
0\
0]
0^
0_
0`
0a
0b
1c
0d
1e
1f
0g
0h
0i
1j
1k
0l
0m
0n
1o
1p
0q
0r
0s
1t
1u
0v
0w
0x
1y
1z
0{
0|
0}
1~
1!!
0"!
0#!
0$!
1%!
1&!
0'!
1(!
1)!
0*!
1+!
1,!
0-!
1.!
1/!
00!
11!
12!
03!
14!
15!
06!
17!
18!
09!
1:!
1;!
0<!
1=!
1>!
0?!
1@!
1A!
1B!
0S
0R
0Q
0P
0O
0N
0M
0L
0K
0J
0I
0H
0G
0F
0E
0D
0C
0B
0A
0@
0?
0>
0=
0<
0;
0:
09
08
07
06
05
04
$end
#10
b10100110101111 !
b111101000011011 "
1S
1R
1P
1O
1J
1H
1G
1F
1E
1C
1B
1A
1@
1>
1<
1;
18
16
0A!
1q
1{
1X
1*!
1Z
1-!
1^
13!
19!
1<!
1?!
0@!
1n
1x
1V
1`
0c
1T
12
1/
1*
1'
1%
0>!
08!
1.
1,
1+
0z
0p
1m
1w
1_
1b
0=!
0:!
0/
16!
0'
1v
0%
1l
0k
0u
05!
1a
07!
10
1]
1r
1h
1$
1g
1&
0o
0.
01!
1[
1-
10!
#20
b1000100000000 !
b1000100010001 "
0R
0P
1K
0J
0H
0F
0E
0C
0B
0A
0@
0>
0<
08
17
06
1A!
1o
0x
0t
0{
0Z
0-!
0^
11!
17!
1:!
1=!
1@!
0n
1k
1p
1z
0V
0X
0)!
18!
1>!
0b
0_
1U
0+
0*
0w
0m
0h
1%
03
0a
0[
1.
0,
1'
11
0-
00!
09!
00
0$
0g
0%
0l
0'
1t
1*
1'!
1/
06!
0<!
01
15!
0]
0.
03!
#30
b1000000100010110 !
b1110011001110 "
0S
1R
1Q
1P
0O
1M
1L
0K
1I
1H
1B
1A
1?
07
14
0B!
1i
1g
1x
0v
16!
1<!
0=!
1}
1$!
1X
1)!
1Z
1\
0>!
1c
0T
02
1-
1,
0U
1+
1)
1(
1b
0;!
1u
1'
1$
0r
1a
0:!
11
0*
0'!
1=!
13
19!
0&
0q
08!
1_
0/
04!
1]
1.
13!
#35
b100010010000010 !
b11101111001101 "
1S
0R
1K
1J
0I
1F
0A
0?
1<
0;
19
15
04
0A!
0i
0g
1n
1l
1"!
0*!
0Z
1-!
0`
14!
1:!
1s
1V
0)!
1d
1>!
0c
1T
0b
1U
1*
1&
0]
1/
0,!
0,
1)!
1%
0$
01
0U
1W
0.
03!
0*
1'!
0<!
0=!
03
1b
1;!
0&!
0+
1*!
1*
0'!
1&!
0)!
1#!
0a
1<!
0;!
09!
0)
0~
1U
0#!
1)
1~
0*
1'!
1|
18!
1a
19!
0_
0(
1{
0&!
0|
1(
0{
1#!
0z
0/
06!
08!
1_
1w
0)
0~
1z
0w
1|
0'
1v
1/
16!
0u
0(
1{
1'
0v
1u
0z
1r
0&
1q
1w
0r
1&
0q
0'
1v
0p
1m
0u
1p
0m
1r
0%
0j
1h
0&
1q
1%
1j
0h
0p
1$
1g
1m
0$
0g
0%
0j
1h
1$
1g
#37
b1000100101000011 !
b1111111111111111 "
1R
1O
1N
1I
1E
1D
1C
1=
0<
1;
09
18
05
14
0e
1j
0}
0y
1~
0X
0(!
1Z
0-!
0\
10!
0@!
0f
0k
0!!
1^
1`
05!
0d
0>!
12
1]
0/
1.
13
0/!
0-
1,!
1,
1+
1(
1#
0W
1Y
0.
13!
02!
0,
1-!
0+
1(!
0,!
1[
1-
0.!
1W
1+
0(!
#47
b1010101111001101 !
b0 "
0S
0R
0Q
0P
0O
0N
0M
0L
0K
0J
0I
0H
0G
0F
0E
0D
0B
1A
1@
1<
1:
16
0o
0%!
0+!
07!
0:!
1=!
1i
1f
0n
1k
1p
0x
1u
1}
1z
0$!
1!!
1&!
1X
1)!
1,!
1\
1/!
0^
12!
0`
15!
18!
1;!
1>!
1@!
03
0b
0]
1/
0[
1.
0-
0+
0|
1)
0(
0r
1'
0h
1%
0$
1$
1e
1&
1o
1(
1y
1-
1.!
0.
03!
1:!
0a
0Y
0w
0m
0#
0%
0l
0'
0v
1,
1+!
17!
0_
0W
1+
1(!
0/
06!
0U
1*
1%!
0#!
0)
0"!
#57
b0 !
b1001000110100 "
1Q
1O
1N
1J
1G
0C
0A
0@
0=
0<
0;
0:
08
06
04
1B!
0i
0g
0s
0q
0}
0{
0'!
0X
0*!
0Z
0-!
0\
00!
09!
0<!
1c
1x
0&!
1^
1`
0;!
1a
1/
1.
1#!
1'
0T
02
1;!
0-
0,
0+
1&!
0(
0&
0$
0#!
0a
0?!
13
1)
1"!
19!
10
09!
00
0)
0"!
#67
b1000100010001 !
b1110111010101010 "
1R
0Q
1P
0O
1L
1I
1H
0G
1F
1E
1D
1C
1?
1;
17
1A!
0B!
1v
1X
1*!
16!
0c
1i
1n
1s
1}
1$!
1Z
1d
1,
1)
1(
1&
1%
1$
1T
1+
1?!
03
0>!
1b
1<!
11
#77
b101010101010101 !
b1010101010101010 "
0I
0E
1A
1=
19
15
0A!
1l
1"!
1\
10!
0:!
1a
1-
01
19!
08!
1_
0/
04!
1]
0.
13!
02!
1[
0-
0.!
1Y
0,
1-!
0,!
1W
0+
0(!
1U
0*
1'!
0&!
1#!
0)
0~
1|
0(
1{
0z
1w
0'
0t
1r
0&
1q
0p
1m
0%
0j
1h
0$
1g
0f
1#
#87
b1000000001010001 !
b1000000010000110 "
1Q
0P
0N
0J
0H
0F
0A
0;
09
07
05
14
1B!
0i
0e
0n
1j
0x
1t
0$!
1~
0X
1(!
1:!
0s
1p
0}
1z
0V
1&!
0^
12!
18!
0;!
0_
0[
1.
0#!
1*
0w
1(
0m
1&
0U
1+
0|
1)
0r
1'
0h
1%
1$
10
0$
1e
0&
0q
0(
0{
0*
0'!
0%
0l
0'
0v
0)
0"!
1-
1.!
1/
14!
0]
0Y
1,
0-!
0.
03!
1,!
0W
0+
0*!
#92
b1111101011011100 !
b11011100 "
0R
1P
1O
1M
0D
0C
1A
1@
1<
1:
18
17
16
15
1A!
1n
1l
1s
1q
1x
1v
1}
1{
1V
1'!
0Z
1-!
07!
0:!
1c
1i
1f
0\
0/!
0`
05!
08!
0d
1>!
0b
1]
0/
1Y
0-
0#
1$
0T
1_
0,!
0,
1*
1(
1'
1&
1%
11
1W
1/
04!
0?!
13
1,
0+!
1.
13!
1:!
01
1+
1*!
#94
b100000010010110 !
b10000001001000 "
0Q
0O
0L
1F
1B
0@
0=
0:
08
07
06
04
0A!
0B!
0i
0g
0q
0x
0v
0}
0{
0V
0'!
1\
00!
17!
1d
1?!
0p
1Z
1,!
1`
15!
1;!
0a
0/
0,
1m
1/!
1-
0*
0(
0'
1p
0$
00
0m
0Y
0%
0j
09!
18!
1h
1,
1+!
1%
1j
0h
0W
1$
1g
0_
1/
14!
0+
0*!
0$
0g
0]
0.
03!
#104
b1000000100100 !
b1000000110010010 "
1R
0P
1O
0M
1L
1K
0F
1D
0B
0?
1>
0<
17
05
1B!
0n
0l
1x
1v
0-!
1^
13!
06!
0?!
1i
0s
1X
0,!
0\
05!
0>!
1b
1]
0-
1W
1+
0&
1$
1>!
15!
1.
1,!
1'
0%
0W
0]
0b
0+
1*!
0.
01!
0:!
1a
1[
0)!
1:!
1.
11!
1+
0*!
1)!
0[
0a
1U
1-
10!
19!
10
1*
1'!
09!
00
0-
00!
0U
0*
0'!
#204
b0 !
b1 "
1S
0R
0O
0L
0K
0D
0A
0>
07
1A!
0x
0v
0^
03!
0<!
0i
0X
0Z
0`
0d
0c
1T
12
0/
0,
0+
0$
0.
0'
1?!
03
