adders16/lower_part_or_carry_lookahead_adder16/msim/presynth/transcript
# //  ModelSim SE-64 6.6d Nov  1 2010 Linux 2.6.32-754.14.2.el6.x86_64
# //
# //  Copyright 1991-2010 Mentor Graphics Corporation
# //              All Rights Reserved.
# //
# //  THIS WORK CONTAINS TRADE SECRET AND 
# //  PROPRIETARY INFORMATION WHICH IS THE PROPERTY
# //  OF MENTOR GRAPHICS CORPORATION OR ITS LICENSORS
# //  AND IS SUBJECT TO LICENSE TERMS.
# //
# Loading project lower_part_or_ripple_carry_adder16
# reading /var/autofs/misc/cad/mentor/modelsim-6.6d/modeltech/linux_x86_64/../modelsim.ini
# Loading project lower_part_or_carry_lookahead_adder16
# Compile of lower_part_or_carry_lookahead_adder16_tb.v was successful.
# Compile of lower_part_or_carry_lookahead_adder16.v was successful.
# Compile of carry_lookahead_adder.v was successful.
# Compile of full_adder.v was successful.
# 4 compiles, 0 failed with no errors. 
# Compile of lower_part_or_carry_lookahead_adder16_tb.v was successful.
# Compile of lower_part_or_carry_lookahead_adder16.v was successful.
# Compile of carry_lookahead_adder.v was successful.
# Compile of full_adder.v was successful.
# 4 compiles, 0 failed with no errors. 
vsim -novopt simulation.lower_part_or_carry_lookahead_adder16_tb
# vsim -novopt simulation.lower_part_or_carry_lookahead_adder16_tb 
# Refreshing /home/nayakkk/adders/lower_part_or_carry_lookahead_adder16/msim/presynth/simulation.lower_part_or_carry_lookahead_adder16_tb
# Loading simulation.lower_part_or_carry_lookahead_adder16_tb
# Refreshing /home/nayakkk/adders/lower_part_or_carry_lookahead_adder16/msim/presynth/simulation.lower_part_or_carry_lookahead_adder16
# Loading simulation.lower_part_or_carry_lookahead_adder16
# Refreshing /home/nayakkk/adders/lower_part_or_carry_lookahead_adder16/msim/presynth/simulation.carry_lookahead_adder
# Loading simulation.carry_lookahead_adder
# Refreshing /home/nayakkk/adders/lower_part_or_carry_lookahead_adder16/msim/presynth/simulation.full_adder
# Loading simulation.full_adder
add wave sim:/lower_part_or_carry_lookahead_adder16_tb/*
run
#                    0 add1_i= 0000, add2_i = 0000, result_o = 00000 
#                   10 add1_i= 29af, add2_i = 7a1b, result_o = 0a3cf 
#                   20 add1_i= 1100, add2_i = 1111, result_o = 02211 
#                   30 add1_i= 8116, add2_i = 1cce, result_o = 09dde 
#                   35 add1_i= 4482, add2_i = 3bcd, result_o = 0804f 
#                   40 add1_i= 8943, add2_i = ffff, result_o = 1893f 
#                   50 add1_i= abcd, add2_i = 0000, result_o = 0abcd 
#                   60 add1_i= 0000, add2_i = 1234, result_o = 01234 
#                   70 add1_i= 1111, add2_i = eeaa, result_o = 0ffbb 
#                   80 add1_i= 5555, add2_i = aaaa, result_o = 0ffff 
#                   90 add1_i= 8051, add2_i = 8086, result_o = 100d7 
#                   95 add1_i= fadc, add2_i = 00dc, result_o = 0fbbc 
run
#                  100 add1_i= 4096, add2_i = 2048, result_o = 060de 
#                  110 add1_i= 1024, add2_i = 8192, result_o = 091b6 
#                  210 add1_i= 0000, add2_i = 0001, result_o = 00001 
# ** Note: $finish    : /home/nayakkk/adders/lower_part_or_carry_lookahead_adder16/msim/presynth/lower_part_or_carry_lookahead_adder16_tb.v(83)
#    Time: 310 ns  Iteration: 0  Instance: /lower_part_or_carry_lookahead_adder16_tb
