wallace_tree_multiplier8/snps/primetime/traditional_multiplier8_gatesim.vcd
$date
	Wed Sep  2 19:24:12 2020
$end
$version
	ModelSim Version 6.6d
$end
$timescale
	1ns
$end
$scope module traditional_multiplier8_tb $end
$var reg 8 ! operand1_i [7:0] $end
$var reg 8 " operand2_i [7:0] $end
$var wire 1 # result_o [15] $end
$var wire 1 $ result_o [14] $end
$var wire 1 % result_o [13] $end
$var wire 1 & result_o [12] $end
$var wire 1 ' result_o [11] $end
$var wire 1 ( result_o [10] $end
$var wire 1 ) result_o [9] $end
$var wire 1 * result_o [8] $end
$var wire 1 + result_o [7] $end
$var wire 1 , result_o [6] $end
$var wire 1 - result_o [5] $end
$var wire 1 . result_o [4] $end
$var wire 1 / result_o [3] $end
$var wire 1 0 result_o [2] $end
$var wire 1 1 result_o [1] $end
$var wire 1 2 result_o [0] $end
$scope module mul $end
$var wire 1 3 op1_i [7] $end
$var wire 1 4 op1_i [6] $end
$var wire 1 5 op1_i [5] $end
$var wire 1 6 op1_i [4] $end
$var wire 1 7 op1_i [3] $end
$var wire 1 8 op1_i [2] $end
$var wire 1 9 op1_i [1] $end
$var wire 1 : op1_i [0] $end
$var wire 1 ; op2_i [7] $end
$var wire 1 < op2_i [6] $end
$var wire 1 = op2_i [5] $end
$var wire 1 > op2_i [4] $end
$var wire 1 ? op2_i [3] $end
$var wire 1 @ op2_i [2] $end
$var wire 1 A op2_i [1] $end
$var wire 1 B op2_i [0] $end
$var wire 1 # product_o [15] $end
$var wire 1 $ product_o [14] $end
$var wire 1 % product_o [13] $end
$var wire 1 & product_o [12] $end
$var wire 1 ' product_o [11] $end
$var wire 1 ( product_o [10] $end
$var wire 1 ) product_o [9] $end
$var wire 1 * product_o [8] $end
$var wire 1 + product_o [7] $end
$var wire 1 , product_o [6] $end
$var wire 1 - product_o [5] $end
$var wire 1 . product_o [4] $end
$var wire 1 / product_o [3] $end
$var wire 1 0 product_o [2] $end
$var wire 1 1 product_o [1] $end
$var wire 1 2 product_o [0] $end
$var wire 1 C n122 $end
$var wire 1 D n123 $end
$var wire 1 E n124 $end
$var wire 1 F n125 $end
$var wire 1 G n126 $end
$var wire 1 H n127 $end
$var wire 1 I n128 $end
$var wire 1 J n129 $end
$var wire 1 K n130 $end
$var wire 1 L n131 $end
$var wire 1 M n132 $end
$var wire 1 N n133 $end
$var wire 1 O n134 $end
$var wire 1 P n135 $end
$var wire 1 Q n136 $end
$var wire 1 R n137 $end
$var wire 1 S n138 $end
$var wire 1 T n139 $end
$var wire 1 U n140 $end
$var wire 1 V n141 $end
$var wire 1 W n142 $end
$var wire 1 X n143 $end
$var wire 1 Y n144 $end
$var wire 1 Z n145 $end
$var wire 1 [ n146 $end
$var wire 1 \ n147 $end
$var wire 1 ] n148 $end
$var wire 1 ^ n149 $end
$var wire 1 _ n150 $end
$var wire 1 ` n151 $end
$var wire 1 a n152 $end
$var wire 1 b n153 $end
$var wire 1 c n155 $end
$var wire 1 d n156 $end
$var wire 1 e n157 $end
$var wire 1 f n158 $end
$var wire 1 g n159 $end
$var wire 1 h n160 $end
$var wire 1 i n161 $end
$var wire 1 j n162 $end
$var wire 1 k n163 $end
$var wire 1 l n164 $end
$var wire 1 m n165 $end
$var wire 1 n n166 $end
$var wire 1 o n167 $end
$var wire 1 p n168 $end
$var wire 1 q n170 $end
$var wire 1 r n171 $end
$var wire 1 s n172 $end
$var wire 1 t n173 $end
$var wire 1 u n174 $end
$var wire 1 v n175 $end
$var wire 1 w n176 $end
$var wire 1 x n177 $end
$var wire 1 y n178 $end
$var wire 1 z n179 $end
$var wire 1 { n180 $end
$var wire 1 | n181 $end
$var wire 1 } n182 $end
$var wire 1 ~ n183 $end
$var wire 1 !! n184 $end
$var wire 1 "! n185 $end
$var wire 1 #! n186 $end
$var wire 1 $! n187 $end
$var wire 1 %! n188 $end
$var wire 1 &! n189 $end
$var wire 1 '! n190 $end
$var wire 1 (! n191 $end
$var wire 1 )! n192 $end
$var wire 1 *! n193 $end
$var wire 1 +! n194 $end
$var wire 1 ,! n195 $end
$var wire 1 -! n196 $end
$var wire 1 .! n197 $end
$var wire 1 /! n198 $end
$var wire 1 0! n199 $end
$var wire 1 1! n200 $end
$var wire 1 2! n201 $end
$var wire 1 3! n202 $end
$var wire 1 4! n203 $end
$var wire 1 5! n204 $end
$var wire 1 6! n205 $end
$var wire 1 7! n206 $end
$var wire 1 8! n207 $end
$var wire 1 9! n208 $end
$var wire 1 :! n209 $end
$var wire 1 ;! n210 $end
$var wire 1 <! n211 $end
$var wire 1 =! n212 $end
$var wire 1 >! n213 $end
$var wire 1 ?! n214 $end
$var wire 1 @! n215 $end
$var wire 1 A! n216 $end
$var wire 1 B! n217 $end
$var wire 1 C! n218 $end
$var wire 1 D! n219 $end
$var wire 1 E! n220 $end
$var wire 1 F! n221 $end
$var wire 1 G! n222 $end
$var wire 1 H! n223 $end
$var wire 1 I! n224 $end
$var wire 1 J! n225 $end
$var wire 1 K! n226 $end
$var wire 1 L! n227 $end
$var wire 1 M! n228 $end
$var wire 1 N! n229 $end
$var wire 1 O! n230 $end
$var wire 1 P! n231 $end
$var wire 1 Q! n232 $end
$var wire 1 R! n233 $end
$var wire 1 S! n234 $end
$var wire 1 T! n235 $end
$var wire 1 U! n236 $end
$var wire 1 V! n237 $end
$var wire 1 W! n238 $end
$var wire 1 X! n239 $end
$var wire 1 Y! n240 $end
$var wire 1 Z! n241 $end
$var wire 1 [! n242 $end
$var wire 1 \! n243 $end
$var wire 1 ]! n244 $end
$var wire 1 ^! n245 $end
$var wire 1 _! n246 $end
$var wire 1 `! n247 $end
$var wire 1 a! n248 $end
$var wire 1 b! n249 $end
$var wire 1 c! n250 $end
$var wire 1 d! n251 $end
$var wire 1 e! n252 $end
$var wire 1 f! n253 $end
$var wire 1 g! n254 $end
$var wire 1 h! n255 $end
$var wire 1 i! n256 $end
$var wire 1 j! n257 $end
$var wire 1 k! n258 $end
$var wire 1 l! n259 $end
$var wire 1 m! n260 $end
$var wire 1 n! n261 $end
$var wire 1 o! n262 $end
$var wire 1 p! n263 $end
$var wire 1 q! n264 $end
$var wire 1 r! n265 $end
$var wire 1 s! n266 $end
$var wire 1 t! n267 $end
$var wire 1 u! n268 $end
$var wire 1 v! n269 $end
$var wire 1 w! n270 $end
$var wire 1 x! n271 $end
$var wire 1 y! n272 $end
$var wire 1 z! n273 $end
$var wire 1 {! n274 $end
$var wire 1 |! n275 $end
$var wire 1 }! n276 $end
$var wire 1 ~! n277 $end
$var wire 1 !" n278 $end
$var wire 1 "" n279 $end
$var wire 1 #" n280 $end
$var wire 1 $" n281 $end
$var wire 1 %" n282 $end
$var wire 1 &" n283 $end
$var wire 1 '" n284 $end
$var wire 1 (" n285 $end
$var wire 1 )" n286 $end
$var wire 1 *" n287 $end
$var wire 1 +" n288 $end
$var wire 1 ," n289 $end
$var wire 1 -" n290 $end
$var wire 1 ." n291 $end
$var wire 1 /" n292 $end
$var wire 1 0" n293 $end
$var wire 1 1" n294 $end
$var wire 1 2" n295 $end
$var wire 1 3" n296 $end
$var wire 1 4" n297 $end
$var wire 1 5" n298 $end
$var wire 1 6" n299 $end
$var wire 1 7" n300 $end
$var wire 1 8" n301 $end
$var wire 1 9" n302 $end
$var wire 1 :" n303 $end
$var wire 1 ;" n304 $end
$var wire 1 <" n305 $end
$var wire 1 =" n306 $end
$var wire 1 >" n307 $end
$var wire 1 ?" n308 $end
$var wire 1 @" n309 $end
$var wire 1 A" n310 $end
$var wire 1 B" n311 $end
$var wire 1 C" n312 $end
$var wire 1 D" n313 $end
$var wire 1 E" n314 $end
$var wire 1 F" n315 $end
$var wire 1 G" n316 $end
$var wire 1 H" n317 $end
$var wire 1 I" n318 $end
$var wire 1 J" n319 $end
$var wire 1 K" n320 $end
$var wire 1 L" n321 $end
$var wire 1 M" n322 $end
$var wire 1 N" n323 $end
$var wire 1 O" n324 $end
$var wire 1 P" n325 $end
$var wire 1 Q" n326 $end
$var wire 1 R" n327 $end
$var wire 1 S" n328 $end
$var wire 1 T" n329 $end
$var wire 1 U" n330 $end
$var wire 1 V" n331 $end
$var wire 1 W" n332 $end
$var wire 1 X" n333 $end
$var wire 1 Y" n334 $end
$var wire 1 Z" n335 $end
$var wire 1 [" n336 $end
$var wire 1 \" n337 $end
$var wire 1 ]" n338 $end
$var wire 1 ^" n339 $end
$var wire 1 _" n340 $end
$var wire 1 `" n341 $end
$var wire 1 a" n342 $end
$var wire 1 b" n343 $end
$var wire 1 c" n344 $end
$var wire 1 d" n345 $end
$var wire 1 e" n346 $end
$var wire 1 f" n347 $end
$var wire 1 g" n348 $end
$var wire 1 h" n349 $end
$var wire 1 i" n350 $end
$var wire 1 j" n351 $end
$var wire 1 k" n352 $end
$var wire 1 l" n353 $end
$var wire 1 m" n354 $end
$var wire 1 n" n355 $end
$var wire 1 o" n358 $end
$var wire 1 p" n359 $end
$var wire 1 q" n360 $end
$var wire 1 r" n361 $end
$var wire 1 s" n362 $end
$var wire 1 t" n363 $end
$var wire 1 u" n364 $end
$var wire 1 v" n365 $end
$var wire 1 w" n366 $end
$var wire 1 x" n367 $end
$var wire 1 y" n368 $end
$var wire 1 z" n369 $end
$var wire 1 {" n370 $end
$var wire 1 |" n371 $end
$var wire 1 }" n372 $end
$var wire 1 ~" n373 $end
$var wire 1 !# n374 $end
$var wire 1 "# n375 $end
$var wire 1 ## n376 $end
$var wire 1 $# n377 $end
$var wire 1 %# n378 $end
$var wire 1 &# n379 $end
$var wire 1 '# n380 $end
$var wire 1 (# n381 $end
$var wire 1 )# n382 $end
$var wire 1 *# n383 $end
$var wire 1 +# n384 $end
$var wire 1 ,# n385 $end
$var wire 1 -# n386 $end
$var wire 1 .# n387 $end
$var wire 1 /# n388 $end
$var wire 1 0# n389 $end
$var wire 1 1# n390 $end
$var wire 1 2# n391 $end
$var wire 1 3# n392 $end
$var wire 1 4# n393 $end
$var wire 1 5# n394 $end
$var wire 1 6# n395 $end
$var wire 1 7# n396 $end
$var wire 1 8# n397 $end
$var wire 1 9# n398 $end
$var wire 1 :# n399 $end
$var wire 1 ;# n400 $end
$var wire 1 <# n401 $end
$var wire 1 =# n402 $end
$var wire 1 ># n403 $end
$var wire 1 ?# n404 $end
$var wire 1 @# n405 $end
$var wire 1 A# n406 $end
$var wire 1 B# n407 $end
$var wire 1 C# n408 $end
$var wire 1 D# n409 $end
$var wire 1 E# n410 $end
$var wire 1 F# n411 $end
$var wire 1 G# n412 $end
$var wire 1 H# n413 $end
$var wire 1 I# n414 $end
$var wire 1 J# n415 $end
$var wire 1 K# n416 $end
$var wire 1 L# n417 $end
$var wire 1 M# n418 $end
$var wire 1 N# n419 $end
$var wire 1 O# n420 $end
$var wire 1 P# n421 $end
$var wire 1 Q# n422 $end
$var wire 1 R# n423 $end
$var wire 1 S# n424 $end
$var wire 1 T# n425 $end
$var wire 1 U# n426 $end
$var wire 1 V# n427 $end
$var wire 1 W# n428 $end
$var wire 1 X# n429 $end
$var wire 1 Y# n430 $end
$var wire 1 Z# n431 $end
$var wire 1 [# n432 $end
$var wire 1 \# n433 $end
$var wire 1 ]# n434 $end
$var wire 1 ^# n435 $end
$var wire 1 _# n436 $end
$var wire 1 `# n437 $end
$var wire 1 a# n438 $end
$var wire 1 b# n439 $end
$var wire 1 c# n440 $end
$var wire 1 d# n441 $end
$var wire 1 e# n442 $end
$var wire 1 f# n443 $end
$var wire 1 g# n444 $end
$var wire 1 h# n445 $end
$var wire 1 i# n446 $end
$var wire 1 j# n447 $end
$var wire 1 k# n448 $end
$var wire 1 l# n449 $end
$var wire 1 m# n450 $end
$var wire 1 n# n451 $end
$var wire 1 o# n452 $end
$var wire 1 p# n453 $end
$var wire 1 q# n454 $end
$var wire 1 r# n455 $end
$var wire 1 s# n456 $end
$var wire 1 t# n458 $end
$var wire 1 u# n459 $end
$var wire 1 v# n460 $end
$var wire 1 w# n461 $end
$var wire 1 x# n462 $end
$var wire 1 y# n463 $end
$var wire 1 z# n464 $end
$var wire 1 {# n465 $end
$var wire 1 |# n466 $end
$var wire 1 }# n467 $end
$var wire 1 ~# n468 $end
$var wire 1 !$ n469 $end
$var wire 1 "$ n470 $end
$var wire 1 #$ n471 $end
$var wire 1 $$ n472 $end
$upscope $end
$upscope $end
$enddefinitions $end
#0
$dumpvars
b0 !
b0 "
02
01
00
0/
0.
0-
0,
0+
0*
0)
0(
0'
0&
0%
0$
0#
1C
1D
1E
1F
1G
1H
1I
1J
1K
1L
1M
1N
1O
1P
1Q
1R
1S
1T
1U
1V
0W
0X
0Y
0Z
0[
0\
1]
1^
0_
0`
0a
0b
0c
0d
0e
0f
1g
0h
0i
1j
1k
1l
1m
0n
0o
0p
1q
0r
0s
1t
1u
0v
0w
1x
1y
1z
1{
0|
0}
0~
0!!
1"!
1#!
1$!
0%!
0&!
1'!
1(!
1)!
0*!
0+!
1,!
1-!
0.!
0/!
10!
11!
02!
13!
14!
05!
06!
07!
08!
19!
1:!
0;!
0<!
0=!
0>!
0?!
1@!
0A!
0B!
0C!
1D!
1E!
0F!
0G!
0H!
1I!
0J!
1K!
1L!
0M!
0N!
1O!
1P!
1Q!
1R!
0S!
0T!
0U!
0V!
1W!
1X!
1Y!
1Z!
0[!
0\!
1]!
1^!
0_!
0`!
1a!
1b!
0c!
1d!
0e!
1f!
1g!
0h!
1i!
1j!
1k!
1l!
1m!
1n!
0o!
0p!
1q!
1r!
1s!
0t!
1u!
1v!
0w!
0x!
0y!
1z!
1{!
0|!
1}!
0~!
1!"
1""
0#"
1$"
1%"
1&"
0'"
0("
0)"
1*"
1+"
0,"
0-"
0."
1/"
10"
01"
02"
03"
04"
15"
16"
07"
08"
19"
1:"
1;"
0<"
1="
0>"
1?"
0@"
0A"
0B"
1C"
0D"
1E"
1F"
1G"
0H"
0I"
1J"
0K"
1L"
1M"
1N"
0O"
0P"
0Q"
0R"
0S"
1T"
1U"
0V"
0W"
1X"
1Y"
1Z"
0["
0\"
0]"
1^"
1_"
1`"
0a"
1b"
0c"
1d"
1e"
0f"
0g"
1h"
1i"
0j"
0k"
1l"
1m"
1n"
0o"
1p"
1q"
1r"
1s"
0t"
0u"
0v"
1w"
1x"
1y"
0z"
1{"
0|"
0}"
0~"
1!#
1"#
1##
1$#
0%#
0&#
1'#
0(#
1)#
1*#
1+#
1,#
1-#
0.#
0/#
00#
11#
12#
13#
04#
15#
06#
17#
18#
09#
0:#
1;#
0<#
1=#
0>#
1?#
1@#
1A#
0B#
0C#
0D#
1E#
1F#
1G#
1H#
0I#
0J#
1K#
0L#
1M#
1N#
1O#
1P#
1Q#
0R#
0S#
0T#
1U#
1V#
1W#
0X#
1Y#
0Z#
1[#
1\#
0]#
0^#
1_#
0`#
1a#
0b#
1c#
1d#
1e#
0f#
1g#
0h#
0i#
1j#
1k#
1l#
0m#
0n#
0o#
1p#
1q#
1r#
0s#
0t#
1u#
1v#
0w#
1x#
0y#
1z#
1{#
1|#
0}#
1~#
1!$
1"$
0#$
0$$
0B
0A
0@
0?
0>
0=
0<
0;
0:
09
08
07
06
05
04
03
$end
#10
b101001 !
b1111010 "
1A
1?
1>
1=
1<
1:
17
15
0H
0W#
0|#
0s!
0d!
0l#
0N
0y"
0A#
0x#
0s"
0Q
0n"
0?"
0j
0S
0T
0U
16#
1m#
1[!
1c"
1.#
1["
1h#
1f#
11
1>"
0l"
0d"
1w#
0[#
1c!
10#
0Z!
1]"
1}"
1#"
1R#
0b!
1J#
0v#
1V"
1R"
1f
0E"
1[#
0{#
0F"
1x!
1/
1y#
0J#
1B"
17"
1Q"
1t#
1D#
1`!
07#
1k"
1U!
1~"
0k"
0,#
1S!
1S"
1&#
1A!
1:#
0m!
1D"
1b
1d
0D#
0q!
0I
1o!
0B"
0Z"
0P!
1c
0n!
1W"
0d
1V!
1v#
0:#
1.
1,
1]#
1."
1=!
1g"
07"
0i"
1%#
0S"
1-
17"
1i"
0g"
0##
12"
0b
14"
1;!
1\
1("
0."
0t#
0S!
0Q!
0.
0Q"
0T"
0]#
0l!
1(
1M!
1P!
1T!
0("
18"
0D"
16!
1m!
0\
1W
1*
18!
11"
0,
1`
1-"
04"
02"
1b
0P!
0c
1,
01"
1\
1+
1'
15!
1)
0*
1]#
1l!
1J!
0b
06"
0W
0(
0M!
0-
0)
1_
0,
0'
0T!
1("
04!
1*
0`
1(
1M!
1P!
00!
1W
12!
1)
1.!
0(
0M!
1&
#20
b10001 !
b10001 "
1B
0A
0?
0=
0<
07
16
05
1H
0K
1N
1n"
1q!
1x#
1S
1d!
1s"
1l#
1{#
1s!
1T
1A#
1|#
1?"
1y"
1W#
1j
0V
0[!
0.#
0m#
0c"
06#
1z"
12
01
0>"
0y#
0[#
1d"
0c!
0V!
0v#
1l"
0f#
1}#
0h#
1Z!
0}"
0]"
00#
1c"
0R#
1m#
0#"
0R"
1t#
1S!
1Q!
1b!
0V"
1J#
1I
0f
1[#
1F"
1]"
0x!
0P!
0/
0J#
0w#
1D#
1Q"
1T"
0`!
06!
0m!
07"
0[#
17#
0~"
1k"
1,#
0U!
0F"
0S!
0%#
1S"
0k"
0&#
1J#
1b
16"
0]#
0l!
0J!
14!
0A!
08"
1D"
1:#
1v#
0D#
1(
1M!
0o!
1B"
1Z"
1P!
1c
1n!
0W"
1d
0:#
0t#
1."
0b
0=!
10!
1'
1T!
0("
0_
1,
1D#
0S"
17"
1##
0B"
0Z"
1-
02!
0P!
1W"
0d
0-"
1b
07"
1:#
0+
0W
0.!
0;!
0,
0\
0"#
1m!
0."
1.
0Q"
1]#
1l!
0(
0M!
0&
0T!
1("
0D"
0]#
1Z
0*
08!
0)
1."
0b
1,
1"#
0.
1Q"
1(
1M!
1P!
0c
1D"
0Z
0,
1\
0'
05!
1X
1'"
0("
1W
0-
1c
0&"
0W
1*
0X
0'"
0(
0M!
1-
1&"
0O!
0j!
1M!
1O!
1j!
0M!
1(
0(
#30
b10000001 !
b11100 "
0B
1@
1?
06
13
0E
0I!
0i!
1w!
1K
0?"
0;"
1V
1B!
1h!
1i
02
1>"
0z"
0}#
1o!
1[!
0c"
0m#
0n!
1f
10
1=!
0Z!
0]"
1/
1;!
1]#
1[#
1F"
0J#
1("
18!
1U!
1S!
1'
15!
1W
0D#
1B"
1Z"
0P!
0W"
1d
0:#
1)
0."
1.
0Q"
1(
1M!
0D"
0\
0c
0*
0-
#50
b1000100 !
b111011 "
1B
1A
0@
1=
0:
18
14
03
1E
1I!
1i!
0F
0r#
0$"
0Q#
0O
0`"
0p"
1Q
1?"
0T
1;"
0w!
0V
0B!
0h!
1Z#
1#"
1K"
1o"
0i
1X#
1O"
0o!
1_!
0>"
0["
1B#
07#
1t!
0[!
1T#
1x!
1H"
16#
1<"
1n!
1B!
1.#
1h!
1&#
1E"
0f
00
0d"
0=!
1Z!
08#
10#
1i
1}"
1[!
0/
0;!
1V"
0B"
1g"
1=!
0]#
1@"
1o!
0Z!
0n!
0M
0("
1;!
14"
0d
1Q"
08!
1k"
10
1~"
0&#
0P#
0U!
0S!
1I#
0g"
0k"
0,#
1S"
0'
05!
1D"
0.
11"
18!
0W
1>"
1]#
1U!
1P!
1c
1S!
1("
1f
0)
1'
15!
1`
17"
1%#
0S"
04"
1D#
1-
0P!
1/
1:#
01"
07"
1g"
1b
1+
1W
0(
0M!
1)
1,
14"
0b
0`
1."
1(
1M!
1\
0+
0,
11"
1`
1*
1+
#70
b10001001 !
b11111111 "
1@
1<
1;
1:
08
17
04
13
0E
1i#
0I!
0i!
1w!
1n
1F
1r#
1$"
0l#
0{"
0N
0y"
0A#
0z!
0x#
1Q#
1O
1`"
1p"
0s"
0;"
0Q
0n"
0="
0?"
0M"
0)#
1$$
0j
0R
0S
1o#
0B!
0h!
1$
0Z#
0#"
1v"
1c"
0.#
0K"
0o"
0i
1s
11
0m"
1(#
1I"
1A"
0f
0l"
1["
12
1d"
0O"
0B#
17#
1w#
1y!
1a"
1f#
0[#
0X#
0_!
0t!
0o!
0u!
1s#
1F!
0\#
0[!
0T#
0x!
0e"
1]"
0}"
0H"
0/
0<"
1.#
1K"
1R#
06#
1B!
1h!
1n!
1Z#
1*!
1\!
1J#
0Y!
0v#
1&#
1P#
0V"
0E"
1R"
1d
0@"
0G"
1f"
13"
1~
00
0d"
0$$
0=!
18#
0F"
1i
1}"
1H"
00#
1[!
1T#
0;!
1m"
0r"
1}
01"
0/"
0R"
04"
0$#
1="
1M
1.
17"
1B"
0Q"
0I#
0g"
0##
1t#
0U!
0X!
0D#
0G#
1C!
0]#
1=!
07#
1M"
1@"
1G"
1k"
1,#
1o!
1u!
0J#
0k#
1Z!
08#
0y
0n!
1p!
0\!
0%#
1S"
0A"
0="
0M
0I"
1;!
0("
0C
1)"
0:#
1<!
0S!
0m!
14"
1$#
1G#
0D"
0d
0C"
09"
1b
1f
1-"
11"
1/"
07"
0^
0`
1j"
03"
08!
0W!
0~"
0@"
0G"
0k"
0,#
10
0B"
0Z"
1n!
0Z!
1P!
1/
1W"
1%#
1="
1M
1k"
1,#
0'
05!
1R"
0+
1[
1,"
0b
1^
1`
0\
0"#
1,
1a
0.
0)"
0l!
0:!
0."
1?!
1@"
1G"
1A"
0f
1C"
19"
17"
1g"
1##
1W!
0k!
1%
1v
0&#
0P#
1U!
1X!
0/
0c
0<!
1S!
1I#
0-"
04"
0$#
1b
0a
1d
0A"
0="
0M
01!
1\
1"#
1/!
1T!
0W
1Z
1+
0[
0,"
07"
0i"
0%#
0S"
0h"
1f
1Q"
0(
0M!
0U!
0X!
1]#
1l!
0-
1&
12!
1/
1("
1<!
0S!
1D"
17"
1i"
0g"
12"
0b
1X
1'"
0)
0R!
0Z
1.!
1A"
0f
0d
1.
1-"
01"
0\
1D#
18!
1:!
0&
0P!
1c
0/
0/!
1'
15!
1:#
0*
1\
0.
1d
0-!
0X
0'"
16!
1)
0,
14"
1$#
1b
1R!
08!
0:!
1W
1-
02!
1/!
0'
05!
06!
1,
0-"
11"
1J!
04!
0x
1.
1*
1."
1-!
1(
1M!
1&
12!
1x
0"!
0t
00!
1'
0`
00"
0J!
14!
0-!
0&
02!
0x
10!
0'
0^
0+
0,!
1p
0%
1"!
1t
1&
12!
0p
1%
0!$
0l
1[
1,"
1,!
0"!
0t
0&
0$
1p
0%
0+"
0*
1#
1!$
1l
1$
0#
1Y
0!$
0l
0$
1#
1X
1'"
0&"
0)
0O!
0j!
0K!
17!
0(
1J!
15!
1'
#80
b10101011 !
b0 "
0B
0A
0@
0?
0>
0=
0<
0;
19
15
0H
0P
1)#
1z!
1R
0n
1n"
1x#
1S
1s"
1l#
1T
1U
1I!
1="
1A#
1?"
1i!
1;"
1{"
0w!
1y"
0i#
1j
1V
1$
0B!
0.#
0h!
0i
0v"
0c"
0o#
0a"
0s#
02
01
0o!
0A"
1f
0["
0f#
0F!
1[#
1d"
0s
0w#
1l"
1l
0y!
0(#
0}"
0[!
1e"
0]"
1\#
0K"
0Z#
0n!
1/
0R#
0*!
0f"
1Y!
0#
0R"
1v#
0~
1V"
1r"
1J#
1k#
1E"
0d
1k!
00
0=!
1Z!
1F"
0H"
0T#
0;!
0T!
0.
1B"
1Z"
0p!
0D#
0G#
0j"
0Q"
0T"
0}
0t#
07"
1U!
1X!
04"
0C!
17#
0]#
0l!
0J#
0V"
0k"
18#
1P!
1n!
1y
1Q"
1T"
1D#
1G#
1T!
0("
1&#
1P#
1C
01"
0<!
1S!
0b
1m!
18"
0D"
1h"
1)"
0:#
0W"
1d
18!
1:!
0@"
0B"
0U!
0c
0S!
0d
1M
0/!
0'
03!
1.
0Q"
0."
02"
1b
0,
0R!
08!
1`
10"
0?!
0I#
1g"
0)"
1:#
08"
1D"
1%
1t
1l!
1(
1K!
0&#
0-
0P!
02!
1c
0g"
07!
0T!
0p
0b
1."
0W
14"
0D#
11!
1^
1+
1'
13!
16!
1,
0`
0\
0D"
00!
1-!
0>"
0.
1R!
1-
1P!
0c
12!
06!
0f
1x
1*
1+"
0+
04!
10!
0[
0,"
0:#
11"
1)
1&"
1\
0,
1!$
05!
04"
0(
0K!
0-
1&
0/
02!
0$
17!
01"
1O!
1`
0."
0.!
00!
0Y
1"!
0v
0J!
14!
1(
1K!
0&
12!
07!
10!
0'
0%
0X
0'"
1.!
0\
1+
1j!
0M!
0`
1J!
15!
1&
02!
1'
0+
0(
0*
0)
0.!
0J!
05!
0&
0'
#90
b110100 !
b10010 "
1A
1>
0:
09
18
07
16
03
1E
0K
03#
1N
0O
0`"
1P
1Q
0U
0W#
1|"
1K"
16#
1B#
1h#
1}#
1v"
1H"
10#
1.#
1#"
1m#
0e"
1}"
1x!
0[#
1~"
1@"
0M
0,#
1J#
1o!
1V"
0n!
1Q"
1D#
1%#
1>"
1f
1g"
1:#
1D"
1]#
1/
1c
1("
1."
14"
1-
11"
1\
1W
1)
1*
1`
1+
#100
b10001 !
b100000 "
0A
0>
1=
1:
08
05
1H
1O
0s"
0Q
0""
0g#
0T
1U
1`"
13#
1W#
0x!
0K"
0|"
06#
0}#
1~!
0d"
0B#
0h#
0H"
0v"
00#
0m#
0.#
0#"
0V"
0r"
0G
0o!
1e"
0}"
1x!
1n!
1|!
1j"
0Q"
1""
1[#
0~"
0@"
1M
0J#
0~!
0D"
1S"
0{!
0]#
1o!
1,#
1V"
1r"
0c
0n!
0j"
1Q"
0%#
0("
1y!
17"
1G
0D#
0>"
0-
0f
0:#
0|!
1b
0Y!
0W
0g"
1D"
0S"
1]#
0/
1c
1("
07"
04"
0)
1U!
1,
1{!
0."
1-
0\
0y!
1S!
01"
0b
1W
0P!
1)
0,
0`
1Y!
0*
0U!
0+
1(
1M!
0S!
1P!
0(
0M!
#110
b1010101 !
b10101010 "
1A
1?
1;
18
14
0F
0r#
0$"
0Q#
0O
0`"
0p"
0u#
0)#
0R
0a!
0e#
0?"
03#
0j
1Z#
1#"
1K"
1o"
1R#
1|"
11
1>"
1`!
1r
1(#
1t#
07#
1_!
1T#
0x!
1H"
1v"
1B!
1&#
0m!
1f"
1~
1A!
1f
17#
0d#
1d"
1$$
0""
08#
0e"
1/
1~!
0m"
0V"
1b#
0&#
0@!
1}
14"
0]#
0l!
1g"
1@"
0o!
0y
1n!
0="
0M
04"
0$#
1T!
0("
11"
1?!
0g"
0J
0Q"
0l"
0G
1V"
1&#
0P!
1g"
1Q"
1|!
1R"
0D"
1`#
14"
1$#
01!
1`
0W
1-"
01"
1A"
0f
1]#
1l!
1%
1v
0c
1&
0/
0T!
1("
1d
0`
1\
0)
1+
1.!
0-"
11"
0N#
17"
0{!
1D"
04"
0$#
1(
1M!
0-
1P!
1c
1-"
01"
1y!
1b
1L#
1`
0\
1*
0+
1.
1W
1-
1)
0*
1+
1C#
1,
0Y!
0`
1\
0(
0M!
1*
0+
1U!
1:#
1."
1S!
0P!
0\
0"#
1Z
0*
1(
1M!
1X
1'"
0&"
0)
0O!
0j!
0K!
17!
0(
1J!
15!
1'
#120
b10000000 !
b10000000 "
0A
0?
0=
0:
08
06
04
13
0E
1n
1F
1K
1a!
1O
1u#
1Q
1)#
1s"
1Q#
1""
1d#
0$$
1g#
1T
1="
1p"
1e#
1?"
1$"
1`"
13#
1r#
1j
1$
1x!
0o"
0R#
0#"
0K"
0|"
0Z#
01
0A"
1f
1m"
0b#
0~!
07#
0d"
0(#
0t#
0`!
0_!
0r
0x!
0H"
0v"
0T#
1/
0B!
0~
0A!
1m!
0f"
0V"
0r"
0&#
0P#
1G
1J
1l"
0d
17#
1d"
1o!
1e"
18#
0n!
1V"
1r"
1&#
1P#
0.
0R"
0`#
0|!
1I#
0g"
1j"
0Q"
14"
1$#
0]#
0}
1@!
0@"
0o!
1y
1n!
1M
0?!
0("
0-"
11"
0D"
1S"
04"
1D#
1{!
1N#
07"
0I#
1g"
0j"
1Q"
1]#
0&#
0V"
0c
0Q"
0g"
1("
1D"
0S"
14"
0D#
0b
0L#
0y!
0:#
0H#
01"
17"
1`
1\
1"#
0W
11!
0>"
0]#
0%
0v
0-
1c
0&
0("
0f
0.!
1)
1&"
0Z
1*
1+
1b
0`
1)"
0."
1Y!
0C#
0,
1:#
1H#
11"
07"
1W
04"
0D"
1-
0/
0c
01"
0)
0&"
0b
1`
0)"
1."
0:#
0U!
0\
0+
1,
0X
0'"
1O!
0-
1j!
1K!
1&"
1)
0*
0S!
0."
1\
0W
1+
0,
0O!
0`
1P!
0+
0j!
0K!
0)
1*
0\
1O!
07!
1(
0J!
05!
1j!
0M!
0*
17!
1K!
07!
1J!
15!
0(
0'
1'
0J!
05!
0'
#125
b11111010 !
b0 "
0;
19
17
16
15
14
0F
0H
0K
0N
0P
1R
0n
0$
#135
b1000000 !
b100000 "
1=
09
07
06
05
03
1E
1H
1K
1N
1P
0T
1_!
1B!
1=!
1;!
18!
1'
15!
#145
b100100 !
b10010010 "
1A
1>
0=
1;
18
15
04
1F
0H
0W#
0O
0`"
0u#
0R
1T
0U
16#
1K"
1B#
1h#
1G!
1t#
0_!
10#
1H"
1.#
1#"
0'!
0B!
0m!
1}"
1x!
1*!
1]#
0=!
1@"
1~"
0,#
0M
0;!
1("
1C!
1o!
0n!
0C
1W
08!
1>"
1%#
1g"
1f
0'
05!
1)
1?!
0]#
0l!
1/
1T!
0("
01!
14"
0P!
1&
11"
1.!
0W
0)
1`
1(
1M!
1+
