adders16/ripple_carry_adder16/snps/primetime/ripple_carry_adder16_simgate.vcd
$date
	Mon Aug 17 11:43:20 2020
$end
$version
	ModelSim Version 6.6d
$end
$timescale
	1ns
$end
$scope module ripple_carry_adder16_tb $end
$var reg 16 ! add1_i [15:0] $end
$var reg 16 " add2_i [15:0] $end
$var wire 1 # result_o [16] $end
$var wire 1 $ result_o [15] $end
$var wire 1 % result_o [14] $end
$var wire 1 & result_o [13] $end
$var wire 1 ' result_o [12] $end
$var wire 1 ( result_o [11] $end
$var wire 1 ) result_o [10] $end
$var wire 1 * result_o [9] $end
$var wire 1 + result_o [8] $end
$var wire 1 , result_o [7] $end
$var wire 1 - result_o [6] $end
$var wire 1 . result_o [5] $end
$var wire 1 / result_o [4] $end
$var wire 1 0 result_o [3] $end
$var wire 1 1 result_o [2] $end
$var wire 1 2 result_o [1] $end
$var wire 1 3 result_o [0] $end
$scope module rca $end
$var wire 1 4 add1_i [15] $end
$var wire 1 5 add1_i [14] $end
$var wire 1 6 add1_i [13] $end
$var wire 1 7 add1_i [12] $end
$var wire 1 8 add1_i [11] $end
$var wire 1 9 add1_i [10] $end
$var wire 1 : add1_i [9] $end
$var wire 1 ; add1_i [8] $end
$var wire 1 < add1_i [7] $end
$var wire 1 = add1_i [6] $end
$var wire 1 > add1_i [5] $end
$var wire 1 ? add1_i [4] $end
$var wire 1 @ add1_i [3] $end
$var wire 1 A add1_i [2] $end
$var wire 1 B add1_i [1] $end
$var wire 1 C add1_i [0] $end
$var wire 1 D add2_i [15] $end
$var wire 1 E add2_i [14] $end
$var wire 1 F add2_i [13] $end
$var wire 1 G add2_i [12] $end
$var wire 1 H add2_i [11] $end
$var wire 1 I add2_i [10] $end
$var wire 1 J add2_i [9] $end
$var wire 1 K add2_i [8] $end
$var wire 1 L add2_i [7] $end
$var wire 1 M add2_i [6] $end
$var wire 1 N add2_i [5] $end
$var wire 1 O add2_i [4] $end
$var wire 1 P add2_i [3] $end
$var wire 1 Q add2_i [2] $end
$var wire 1 R add2_i [1] $end
$var wire 1 S add2_i [0] $end
$var wire 1 # result_o [16] $end
$var wire 1 $ result_o [15] $end
$var wire 1 % result_o [14] $end
$var wire 1 & result_o [13] $end
$var wire 1 ' result_o [12] $end
$var wire 1 ( result_o [11] $end
$var wire 1 ) result_o [10] $end
$var wire 1 * result_o [9] $end
$var wire 1 + result_o [8] $end
$var wire 1 , result_o [7] $end
$var wire 1 - result_o [6] $end
$var wire 1 . result_o [5] $end
$var wire 1 / result_o [4] $end
$var wire 1 0 result_o [3] $end
$var wire 1 1 result_o [2] $end
$var wire 1 2 result_o [1] $end
$var wire 1 3 result_o [0] $end
$var wire 1 T n47 $end
$var wire 1 U n48 $end
$var wire 1 V n49 $end
$var wire 1 W n50 $end
$var wire 1 X n51 $end
$var wire 1 Y n52 $end
$var wire 1 Z n53 $end
$var wire 1 [ n54 $end
$var wire 1 \ n55 $end
$var wire 1 ] n56 $end
$var wire 1 ^ n57 $end
$var wire 1 _ n58 $end
$var wire 1 ` n59 $end
$var wire 1 a n60 $end
$var wire 1 b n61 $end
$var wire 1 c n62 $end
$var wire 1 d n63 $end
$var wire 1 e n64 $end
$var wire 1 f n65 $end
$var wire 1 g n66 $end
$var wire 1 h n67 $end
$var wire 1 i n68 $end
$var wire 1 j n69 $end
$var wire 1 k n70 $end
$var wire 1 l n71 $end
$var wire 1 m n72 $end
$var wire 1 n n73 $end
$var wire 1 o n74 $end
$var wire 1 p n75 $end
$var wire 1 q n76 $end
$var wire 1 r n77 $end
$var wire 1 s n78 $end
$var wire 1 t n79 $end
$var wire 1 u n80 $end
$var wire 1 v n81 $end
$var wire 1 w n82 $end
$var wire 1 x n83 $end
$var wire 1 y n84 $end
$var wire 1 z n85 $end
$var wire 1 { n86 $end
$var wire 1 | n87 $end
$var wire 1 } n88 $end
$var wire 1 ~ n89 $end
$var wire 1 !! n90 $end
$var wire 1 "! n91 $end
$var wire 1 #! n92 $end
$var wire 1 $! n93 $end
$var wire 1 %! n94 $end
$var wire 1 &! n95 $end
$var wire 1 '! n96 $end
$var wire 1 (! n97 $end
$var wire 1 )! n98 $end
$var wire 1 *! n99 $end
$var wire 1 +! n100 $end
$var wire 1 ,! n101 $end
$var wire 1 -! n102 $end
$var wire 1 .! n103 $end
$var wire 1 /! n104 $end
$var wire 1 0! n105 $end
$var wire 1 1! n106 $end
$var wire 1 2! n107 $end
$upscope $end
$upscope $end
$enddefinitions $end
#0
$dumpvars
b0 !
b0 "
13
02
01
00
0/
0.
0-
0,
0+
0*
0)
0(
0'
0&
0%
0$
0#
0T
0U
0V
0W
0X
0Y
0Z
0[
0\
1]
1^
0_
0`
1a
1b
0c
0d
1e
1f
0g
0h
1i
1j
0k
0l
1m
1n
0o
0p
1q
1r
0s
0t
1u
1v
0w
1x
1y
0z
1{
1|
0}
1~
1!!
0"!
1#!
1$!
0%!
1&!
1'!
0(!
1)!
1*!
0+!
1,!
1-!
0.!
1/!
10!
01!
12!
0S
0R
0Q
0P
0O
0N
0M
0L
0K
0J
0I
0H
0G
0F
0E
0D
0C
0B
0A
0@
0?
0>
0=
0<
0;
0:
09
08
07
06
05
04
$end
#10
b10100110101111 !
b111101000011011 "
1S
1R
1P
1O
1J
1H
1G
1F
1E
1C
1B
1A
1@
1>
1<
1;
18
16
1g
1o
1U
1V
1X
1Z
1[
1\
02!
1%
1&
1'
1(
1*
1/
10
12
11!
0\
00!
02
0/!
11
00
0*!
1.
1,
1+
0(
0n
0&
0f
1d
1l
1(!
1.!
12
1/!
0[
0,!
1Y
1k
1c
0%
0b
0'
0j
0/
0'!
1+!
01
0Z
0)!
1%!
1h
1`
1_
0g
0e
0X
0#!
10
1*!
1"!
0.
1&
1f
1$
1W
1-
#20
b1000100000000 !
b1000100010001 "
0R
0P
1K
0J
0H
0F
0E
0C
0B
0A
0@
0>
0<
08
17
06
1g
1e
0k
0i
0o
0V
1X
1#!
1Z
1)!
1[
1,!
1\
10!
12!
1%
1b
0&
1(
1n
0*
0+
0y
00
02
1w
0l
0`
03
0.!
12
0+!
11
0(!
10
0"!
1.
0,
0(
1'
1j
0d
1&
0c
0W
0Y
0Z
0[
0_
1k
1i
1T
1*
0h
0'
0j
0$
01
00
1/
1'!
0-
0%
0%!
1h
0g
0&
1g
0X
0.
1&
#30
b1000000100010110 !
b1110011001110 "
0S
1R
1Q
1P
0O
1M
1L
0K
1I
1H
1B
1A
1?
07
14
1_
0k
1Y
1[
0\
00!
1(
1)
1+
1y
1,
1-
0/
10
11
02
0/!
01!
1\
10!
13
0w
1.!
12
1/!
01
0-!
1/
1'
1j
1$
0h
1+!
0.!
0[
0,!
0T
02
0/!
1.!
0*
11
1-!
1[
1,!
1Z
0g
0&
00
0*!
0+!
01
0-!
0[
0,!
11
1-!
1+!
0Z
1(!
0Y
0&!
10
1*!
1Z
00
0*!
0(!
1%!
0/
1X
1Y
1&!
1(!
0Y
0&!
0%!
1/
1.
0X
1%!
0/
1X
0.
1.
#35
b100010010000010 !
b11101111001101 "
1S
0R
1K
1J
0I
1F
0A
0?
1<
0;
19
15
04
0_
1c
1s
0U
1V
1Y
1&!
1[
1,!
1&
0)
1*
0+
0y
12
1/!
11!
0\
00!
03
0.!
1w
0+!
01
0-!
0%!
1/
0,
0|
1+
1y
1)
1%
0$
0w
1z
0X
1+!
0Z
1T
0[
1.!
02
1[
11
1-!
0*
0v
10
1*!
1Z
0.
1U
0T
1*
1v
0+
0y
00
0*!
0(!
1t
0+!
01
0-!
1+!
0Z
0s
0q
0Y
1(!
1w
0t
1s
1q
1T
1Y
0/
1p
0)
10
1*!
1Z
00
0*!
0(!
1o
1/
0*
0v
0p
1)
0o
1t
0(
0n
0Y
1(!
1Y
0/
1l
0s
0q
1(
1n
0l
1p
0)
1k
1/
0'
0j
1o
0k
1'
1j
0(
0n
1h
1g
1l
0h
0g
1k
0&
0f
1d
0'
0j
1&
1f
0d
1h
0c
0a
1`
0%
1g
1c
1a
0`
1%
0&
0f
1_
1$
1d
0_
0$
0c
0a
1`
0%
1_
1$
#43
b1000100101000011 !
b1111111111111111 "
1R
1O
1N
1I
1E
1D
1C
1=
0<
1;
09
18
05
14
0_
0]
1c
1a
0o
0m
1s
1q
0U
0x
0V
1W
02!
0$
0^
1%
1)
1.
0/
0'!
12
1%!
13
0-
0!!
1,
1|
1+
1y
0p
0)
0r
1(
1n
0`
0%
0b
1#
1$
1^
1`
1_
1]
1p
1o
1m
0z
1}
1X
0.
0$!
1V
1U
1x
0l
0(
0n
0o
0m
0#
0$
0^
0_
0]
1$
1^
1#
1(
1n
1l
0k
0w
0+
0y
0,
0|
1"!
0W
0~
1z
1w
0T
1'
1j
1k
0'
0j
0h
1*
1v
1T
0U
0x
1-
1!!
1+
1y
0*
0v
0t
0g
1h
1g
1&
1f
0s
1t
1s
1)
1r
0d
0&
0f
1d
0c
0p
0)
0r
1p
1o
1m
1%
1b
1c
0%
0b
0`
0l
0(
0n
0o
0m
1(
1n
1l
0k
1_
1]
1`
0_
0]
0#
0$
0^
1'
1j
1k
0'
0j
0h
1#
1$
1^
0g
1h
1g
1&
1f
0d
0&
0f
1d
0c
1%
1b
1c
0%
0b
0`
1_
1]
1`
0_
0]
0#
0$
0^
1#
1$
1^
#53
b1010101111001101 !
b0 "
0S
0R
0Q
0P
0O
0N
0M
0L
0K
0J
0I
0H
0G
0F
0E
0D
0B
1A
1@
1<
1:
16
0g
0e
0T
0u
0V
0{
0Z
0)!
0[
0,!
1\
10!
0$
1%
1b
1&
1f
1'
1j
0(
1)
1r
1*
1v
0+
1,
1|
0-
1.
1$!
1/
1'!
10
1*!
11
1-!
02
12!
03
0%!
0"!
0p
0h
0`
0.!
12
01
00
0,
0*
0&
1[
1,!
1_
1]
1g
1e
1o
1m
1W
1~
0X
0.
0}
1-
0l
1(
0d
1&
0#
1$
0+!
11
1Z
1)!
0c
0k
1V
1{
0z
1,
0'
0%
0(!
10
0Y
1U
1x
0w
1+
0/
1T
1u
0t
1*
0s
0)
#63
b0 !
b1001000110100 "
1Q
1O
1N
1J
1G
0C
0A
0@
0=
0<
0;
0:
08
06
04
0_
0g
0o
0T
0U
0V
0W
0Z
0[
01!
1'
0*
0v
1.
1/
01
0-!
1+!
1t
0\
13
11
1-!
00
0-
0,
0+
1*
1v
0(
0&
0$
0t
0+!
02
1s
1Z
10
1)
0Z
0s
0)
00
#73
b1000100010001 !
b1110111010101010 "
1R
0Q
1P
0O
1L
1I
1H
0G
1F
1E
1D
1C
1?
1;
17
1k
1U
1Y
11!
1$
1%
1&
0'
1(
1)
1,
0/
10
01
12
1\
03
1/
1+
1'
02
0/!
1.!
1[
11
#83
b101010101010101 !
b1010101010101010 "
0I
0E
1A
1=
19
15
1c
1s
1W
0[
0,!
0%
0)
1+!
01
1-
1)
1%
1Z
00
0*!
1(!
0Y
0&!
1%!
0/
1X
0.
0$!
1"!
0W
0~
1}
0-
1V
0,
0|
1z
0U
0x
1w
0+
1T
0*
0v
1t
0s
0q
1p
0)
1o
0(
0n
1l
0k
0i
1h
0'
1g
0&
0f
1d
0c
0a
1`
0%
1_
0$
0^
1#
#93
b1000000001010001 !
b1000000010000110 "
1Q
0P
0N
0J
0H
0F
0A
0;
09
07
05
14
0_
0]
1c
1a
1k
1i
1s
1q
1U
1x
1[
1,!
1&
1f
1(
1n
1*
1v
1.
1$!
10
1*!
11
0(!
0"!
0t
0l
0d
0+!
01
0-!
0w
1+
0p
1)
0h
1'
0`
1%
1$
1^
1_
1]
0g
0o
0T
1+!
0Z
0c
0k
0s
1W
1~
1Y
1&!
0%!
1/
0}
1-
0)
0'
0%
00
1Z
0*
0(
0&
0#
0$
0^
1#
10
0V
0X
0.
1,
1|
0z
0U
0+
#98
b1111101011011100 !
b11011100 "
0R
1P
1O
1M
0D
0C
1A
1@
1<
1:
18
17
16
15
1c
1g
1k
1o
1T
1V
0Z
0)!
0[
0,!
01!
1$
1^
0-
0!!
0/
0'!
00
0*!
12
1/!
0.!
1%!
1}
0#
0\
13
11
1-!
1(!
10
1*!
0,
0|
1*
1(
1'
1&
1%
1z
0Y
0&!
02
0V
0{
1X
1[
1,!
0+!
01
0-!
1.
1,
1|
1/
1'!
1U
1+
1+!
1Z
1)!
0(!
00
0*!
0Z
0)!
10
1*!
1(!
1Y
1&!
0%!
0/
0'!
0Y
0&!
1/
1'!
1%!
0X
0.
1X
1.
#106
b100000010010110 !
b10000001001000 "
0Q
0O
0L
1F
1B
0@
0=
0:
08
07
06
04
0_
0g
0k
0o
0T
0W
1Z
1)!
1\
0&
0f
0,
0/
11
1-!
0+!
1d
12
0(!
00
0*!
1-
1!!
0*
0(
0'
1&
1f
0$
0d
0}
1(!
1Y
1&!
0c
0a
0Z
10
1*!
1`
0%
0%!
1/
0Y
0&!
1V
1{
1c
1a
0`
1%
0z
1,
1%!
0/
0X
1_
0(!
1Y
1&!
1$
0.
1X
0U
0_
0$
0+
1.
0%!
1/
0X
0.
#116
b1000000100100 !
b1000000110010010 "
1R
0P
1O
0M
1L
1K
0F
1D
0B
0?
1>
0<
17
05
0c
1k
0V
1X
0Y
0\
1$
0&
1+
0,
0|
0-
0/
0'!
00
02
0/!
1.!
1%!
1z
12
1/!
1/
1'!
1.
1,
1|
1'
0%
0z
0%!
0.!
1U
0X
0#!
0[
0,!
1+!
01
1"!
0.
0+
0y
1[
1,!
1X
1#!
0U
1+
1y
0"!
1.
0+!
11
1w
1W
1Z
10
1-
1T
0Z
0W
0w
0T
0-
00
1*
0*
#216
b0 !
b1 "
1S
0R
0O
0L
0K
0D
0A
0>
07
0k
0X
0[
0$
0+
0,
0/
02
11!
1\
03
01
0.
0'
12
